{
    "instaloader": {
        "node_type": "Post",
        "version": "4.9.5"
    },
    "node": {
        "__typename": "GraphSidecar",
        "caption": "Hi friends\ud83e\udd0d, hoffe euch allen da drau\u00dfen geht es gut! Ich habe vorhin realisiert, das es nur noch gut 1 Monat ist, bis Weihnachten \ud83c\udf85\ud83c\udffc ist. Das Jahr ist dann quasi auch schon wieder vorbei. \ud83c\udf86\n-\nFreust du dich schon auf die ganze Weihnachtszeit? \ud83c\udf85\ud83c\udffc\ud83e\uddd1\ud83c\udfff\u200d\ud83c\udf84\ud83c\udf84\n-\n10x Kommentaren, dann schaue ich btw. auf deinem Profil vorbei\u263a\ufe0f\ud83e\udd0d\n-\n#amor #nightout #dress #mode #boys\n#viral #boyslifstyle #positivevibes #k\u00f6ln \n#healthv #Schwerin #sportsets\n#goodvibes #hiphop #ilovemydog #wolfsburg #Hamburg  #braunschweig #weihnachten #tn #Dresden #Bayern  #germany \n#loveislove #nike #ootd #photo #ludwigslust #love",
        "date": 1669568435,
        "edge_media_preview_like": {
            "count": 2578
        },
        "edge_sidecar_to_children": {
            "edges": [
                {
                    "node": {
                        "display_url": "https://scontent-ord5-2.cdninstagram.com/v/t51.2885-15/317062021_1173168176930282_3762627441322721731_n.jpg?stp=dst-jpg_e35&_nc_ht=scontent-ord5-2.cdninstagram.com&_nc_cat=102&_nc_ohc=dvyOKjonumUAX_RToj5&edm=ABZsPhsBAAAA&ccb=7-5&ig_cache_key=Mjk4MDg3ODUzNzEzNzk3NTI4Mw%3D%3D.2-ccb7-5&oh=00_AfDU8mrROE-BoTHYM5qXc80YL2l2xgnkijNdUmvUVGqkHg&oe=638B8142&_nc_sid=4efc9f",
                        "is_video": false
                    }
                },
                {
                    "node": {
                        "display_url": "https://scontent-ord5-2.cdninstagram.com/v/t51.2885-15/317004364_675500450825845_5536913980924070823_n.jpg?stp=dst-jpg_e35&_nc_ht=scontent-ord5-2.cdninstagram.com&_nc_cat=101&_nc_ohc=KfSvj81MCWEAX_hrwU-&tn=bFlNyZiOPtsFOL2_&edm=ABZsPhsBAAAA&ccb=7-5&ig_cache_key=Mjk4MDg3ODUzNzE0NjQ5ODM5Mg%3D%3D.2-ccb7-5&oh=00_AfAlN1-Tx2LAkgJFwYiIfXz13mBOMgtK19jGEiwaxlVoiQ&oe=638BF6B3&_nc_sid=4efc9f",
                        "is_video": false
                    }
                },
                {
                    "node": {
                        "display_url": "https://scontent-ord5-2.cdninstagram.com/v/t51.2885-15/317037629_1199563850906026_3235998195327727123_n.jpg?stp=dst-jpg_e35&_nc_ht=scontent-ord5-2.cdninstagram.com&_nc_cat=110&_nc_ohc=81x7-EienJ0AX_21dUs&edm=ABZsPhsBAAAA&ccb=7-5&ig_cache_key=Mjk4MDg3ODUzNzE0NjQwMDY5Mg%3D%3D.2-ccb7-5&oh=00_AfBzkjNNfdgvYD0Ci7RuXUepvNFLILckzRuhCe48C6u0cg&oe=638A2B62&_nc_sid=4efc9f",
                        "is_video": false
                    }
                },
                {
                    "node": {
                        "display_url": "https://scontent-ord5-2.cdninstagram.com/v/t51.2885-15/316993554_382429124076491_8289422336289307031_n.jpg?stp=dst-jpg_e35&_nc_ht=scontent-ord5-2.cdninstagram.com&_nc_cat=111&_nc_ohc=zupMbaO7kvAAX-ksPLM&tn=bFlNyZiOPtsFOL2_&edm=ABZsPhsBAAAA&ccb=7-5&ig_cache_key=Mjk4MDg3ODUzNzE0NjM2OTU5Ng%3D%3D.2-ccb7-5&oh=00_AfCOkhbo_ZcTyPYh_55asrv39jm3LXph1SlMZtDpQfYXpw&oe=638AF97B&_nc_sid=4efc9f",
                        "is_video": false
                    }
                },
                {
                    "node": {
                        "display_url": "https://scontent-ord5-2.cdninstagram.com/v/t51.2885-15/317062440_876104283416969_3850106575544053982_n.jpg?stp=dst-jpg_e35&_nc_ht=scontent-ord5-2.cdninstagram.com&_nc_cat=105&_nc_ohc=UlRVcruwWkUAX9jUH6t&edm=ABZsPhsBAAAA&ccb=7-5&ig_cache_key=Mjk4MDg3ODUzNzE0NjM2OTU2OQ%3D%3D.2-ccb7-5&oh=00_AfDeo_xfTs38sLj6-jPIm6N3cYav3QSq1aVFO_GOyiMXoA&oe=638AE86D&_nc_sid=4efc9f",
                        "is_video": false
                    }
                }
            ]
        },
        "id": 2980878543253226037,
        "iphone_struct": {
            "can_see_insights_as_brand": false,
            "can_view_more_preview_comments": true,
            "can_viewer_reshare": true,
            "can_viewer_save": true,
            "caption": {
                "bit_flags": 0,
                "content_type": "comment",
                "created_at": 1669568435,
                "created_at_utc": 1669568435,
                "did_report_as_spam": false,
                "has_translation": true,
                "is_covered": false,
                "is_ranked_comment": false,
                "media_id": 2980878543253226037,
                "pk": 17964803672024131,
                "private_reply_status": 0,
                "share_enabled": false,
                "status": "Active",
                "text": "Hi friends\ud83e\udd0d, hoffe euch allen da drau\u00dfen geht es gut! Ich habe vorhin realisiert, das es nur noch gut 1 Monat ist, bis Weihnachten \ud83c\udf85\ud83c\udffc ist. Das Jahr ist dann quasi auch schon wieder vorbei. \ud83c\udf86\n-\nFreust du dich schon auf die ganze Weihnachtszeit? \ud83c\udf85\ud83c\udffc\ud83e\uddd1\ud83c\udfff\u200d\ud83c\udf84\ud83c\udf84\n-\n10x Kommentaren, dann schaue ich btw. auf deinem Profil vorbei\u263a\ufe0f\ud83e\udd0d\n-\n#amor #nightout #dress #mode #boys\n#viral #boyslifstyle #positivevibes #k\u00f6ln \n#healthv #Schwerin #sportsets\n#goodvibes #hiphop #ilovemydog #wolfsburg #Hamburg  #braunschweig #weihnachten #tn #Dresden #Bayern  #germany \n#loveislove #nike #ootd #photo #ludwigslust #love",
                "type": 1,
                "user": {
                    "full_name": "LXN",
                    "is_private": false,
                    "is_verified": false,
                    "pk": 32543011413,
                    "pk_id": "32543011413",
                    "profile_pic_id": "2963657684427524392_32543011413",
                    "profile_pic_url": "https://scontent-ord5-2.cdninstagram.com/v/t51.2885-19/314071006_1481898442298765_7312414859344655683_n.jpg?stp=dst-jpg_s150x150&_nc_ht=scontent-ord5-2.cdninstagram.com&_nc_cat=105&_nc_ohc=-HStmCBracgAX8YIILv&edm=ABZsPhsBAAAA&ccb=7-5&oh=00_AfB_DPqfnzbLWxu9mb4hnGpBCypBnPfhMwdJtFMo1WNEHQ&oe=638A664E&_nc_sid=4efc9f",
                    "username": "lxnnham"
                },
                "user_id": 32543011413
            },
            "caption_is_edited": false,
            "carousel_media": [
                {
                    "carousel_parent_id": "2980878543253226037_32543011413",
                    "commerciality_status": "not_commercial",
                    "id": "2980878537137975283_32543011413",
                    "image_versions2": {
                        "candidates": [
                            {
                                "height": 1800,
                                "url": "https://scontent-ord5-2.cdninstagram.com/v/t51.2885-15/317062021_1173168176930282_3762627441322721731_n.jpg?stp=dst-jpg_e35&_nc_ht=scontent-ord5-2.cdninstagram.com&_nc_cat=102&_nc_ohc=dvyOKjonumUAX_RToj5&edm=ABZsPhsBAAAA&ccb=7-5&ig_cache_key=Mjk4MDg3ODUzNzEzNzk3NTI4Mw%3D%3D.2-ccb7-5&oh=00_AfDU8mrROE-BoTHYM5qXc80YL2l2xgnkijNdUmvUVGqkHg&oe=638B8142&_nc_sid=4efc9f",
                                "width": 1440
                            },
                            {
                                "height": 1350,
                                "url": "https://scontent-ord5-2.cdninstagram.com/v/t51.2885-15/317062021_1173168176930282_3762627441322721731_n.jpg?stp=dst-jpg_e35_p1080x1080&_nc_ht=scontent-ord5-2.cdninstagram.com&_nc_cat=102&_nc_ohc=dvyOKjonumUAX_RToj5&edm=ABZsPhsBAAAA&ccb=7-5&ig_cache_key=Mjk4MDg3ODUzNzEzNzk3NTI4Mw%3D%3D.2-ccb7-5&oh=00_AfA49sFKGpBU0PA9ad4Bjrdnq2_4wuJDW23plquKpEKFYg&oe=638B8142&_nc_sid=4efc9f",
                                "width": 1080
                            },
                            {
                                "height": 900,
                                "url": "https://scontent-ord5-2.cdninstagram.com/v/t51.2885-15/317062021_1173168176930282_3762627441322721731_n.jpg?stp=dst-jpg_e35_p720x720&_nc_ht=scontent-ord5-2.cdninstagram.com&_nc_cat=102&_nc_ohc=dvyOKjonumUAX_RToj5&edm=ABZsPhsBAAAA&ccb=7-5&ig_cache_key=Mjk4MDg3ODUzNzEzNzk3NTI4Mw%3D%3D.2-ccb7-5&oh=00_AfBFkzT_dOgwo2_bhfJEvUR4lPBmHhKDlOVyf1L4a_zDtg&oe=638B8142&_nc_sid=4efc9f",
                                "width": 720
                            },
                            {
                                "height": 800,
                                "url": "https://scontent-ord5-2.cdninstagram.com/v/t51.2885-15/317062021_1173168176930282_3762627441322721731_n.jpg?stp=dst-jpg_e35_p640x640_sh0.08&_nc_ht=scontent-ord5-2.cdninstagram.com&_nc_cat=102&_nc_ohc=dvyOKjonumUAX_RToj5&edm=ABZsPhsBAAAA&ccb=7-5&ig_cache_key=Mjk4MDg3ODUzNzEzNzk3NTI4Mw%3D%3D.2-ccb7-5&oh=00_AfBzHptHQR_ebb_dPeFyl50WutOlNZrxUThoXavHrHeFoQ&oe=638B8142&_nc_sid=4efc9f",
                                "width": 640
                            },
                            {
                                "height": 600,
                                "url": "https://scontent-ord5-2.cdninstagram.com/v/t51.2885-15/317062021_1173168176930282_3762627441322721731_n.jpg?stp=dst-jpg_e35_p480x480&_nc_ht=scontent-ord5-2.cdninstagram.com&_nc_cat=102&_nc_ohc=dvyOKjonumUAX_RToj5&edm=ABZsPhsBAAAA&ccb=7-5&ig_cache_key=Mjk4MDg3ODUzNzEzNzk3NTI4Mw%3D%3D.2-ccb7-5&oh=00_AfDa74xi4FtqWHXvEFoo-AkWvuV5t97jMzGChVnzKypQqw&oe=638B8142&_nc_sid=4efc9f",
                                "width": 480
                            },
                            {
                                "height": 400,
                                "url": "https://scontent-ord5-2.cdninstagram.com/v/t51.2885-15/317062021_1173168176930282_3762627441322721731_n.jpg?stp=dst-jpg_e35_p320x320&_nc_ht=scontent-ord5-2.cdninstagram.com&_nc_cat=102&_nc_ohc=dvyOKjonumUAX_RToj5&edm=ABZsPhsBAAAA&ccb=7-5&ig_cache_key=Mjk4MDg3ODUzNzEzNzk3NTI4Mw%3D%3D.2-ccb7-5&oh=00_AfBamOfkg6aWt50oMRZw3dK5DkVa6Aisv4NmlqpaZ8sjFQ&oe=638B8142&_nc_sid=4efc9f",
                                "width": 320
                            },
                            {
                                "height": 300,
                                "url": "https://scontent-ord5-2.cdninstagram.com/v/t51.2885-15/317062021_1173168176930282_3762627441322721731_n.jpg?stp=dst-jpg_e35_p240x240&_nc_ht=scontent-ord5-2.cdninstagram.com&_nc_cat=102&_nc_ohc=dvyOKjonumUAX_RToj5&edm=ABZsPhsBAAAA&ccb=7-5&ig_cache_key=Mjk4MDg3ODUzNzEzNzk3NTI4Mw%3D%3D.2-ccb7-5&oh=00_AfAPfF6yZ1srIj1FQJXfo0M0of38c6UM3pOAl4_LKJd8Cw&oe=638B8142&_nc_sid=4efc9f",
                                "width": 240
                            },
                            {
                                "height": 1080,
                                "url": "https://scontent-ord5-2.cdninstagram.com/v/t51.2885-15/317062021_1173168176930282_3762627441322721731_n.jpg?stp=c0.180.1440.1440a_dst-jpg_e35_s1080x1080&_nc_ht=scontent-ord5-2.cdninstagram.com&_nc_cat=102&_nc_ohc=dvyOKjonumUAX_RToj5&edm=ABZsPhsBAAAA&ccb=7-5&ig_cache_key=Mjk4MDg3ODUzNzEzNzk3NTI4Mw%3D%3D.2-ccb7-5&oh=00_AfBJ59qc_w--u9aMciHnZ6mARWbgjXhKLnrY51bNioDf_A&oe=638B8142&_nc_sid=4efc9f",
                                "width": 1080
                            },
                            {
                                "height": 750,
                                "url": "https://scontent-ord5-2.cdninstagram.com/v/t51.2885-15/317062021_1173168176930282_3762627441322721731_n.jpg?stp=c0.180.1440.1440a_dst-jpg_e35_s750x750_sh0.08&_nc_ht=scontent-ord5-2.cdninstagram.com&_nc_cat=102&_nc_ohc=dvyOKjonumUAX_RToj5&edm=ABZsPhsBAAAA&ccb=7-5&ig_cache_key=Mjk4MDg3ODUzNzEzNzk3NTI4Mw%3D%3D.2-ccb7-5&oh=00_AfBZgKxo7meEfHdP0uV1Jn3psiRl_kwnPHIxcioSYYBECg&oe=638B8142&_nc_sid=4efc9f",
                                "width": 750
                            },
                            {
                                "height": 640,
                                "url": "https://scontent-ord5-2.cdninstagram.com/v/t51.2885-15/317062021_1173168176930282_3762627441322721731_n.jpg?stp=c0.180.1440.1440a_dst-jpg_e35_s640x640_sh0.08&_nc_ht=scontent-ord5-2.cdninstagram.com&_nc_cat=102&_nc_ohc=dvyOKjonumUAX_RToj5&edm=ABZsPhsBAAAA&ccb=7-5&ig_cache_key=Mjk4MDg3ODUzNzEzNzk3NTI4Mw%3D%3D.2-ccb7-5&oh=00_AfBnlwEjkmatNAeER1KNUgEUDI0BXB1VWZtKfe7eOnQ3xw&oe=638B8142&_nc_sid=4efc9f",
                                "width": 640
                            },
                            {
                                "height": 480,
                                "url": "https://scontent-ord5-2.cdninstagram.com/v/t51.2885-15/317062021_1173168176930282_3762627441322721731_n.jpg?stp=c0.180.1440.1440a_dst-jpg_e35_s480x480&_nc_ht=scontent-ord5-2.cdninstagram.com&_nc_cat=102&_nc_ohc=dvyOKjonumUAX_RToj5&edm=ABZsPhsBAAAA&ccb=7-5&ig_cache_key=Mjk4MDg3ODUzNzEzNzk3NTI4Mw%3D%3D.2-ccb7-5&oh=00_AfDEYV-K7KG1KvfXwHm3NYjr4PEUAA5yQAFw8tr9OlJJFA&oe=638B8142&_nc_sid=4efc9f",
                                "width": 480
                            },
                            {
                                "height": 320,
                                "url": "https://scontent-ord5-2.cdninstagram.com/v/t51.2885-15/317062021_1173168176930282_3762627441322721731_n.jpg?stp=c0.180.1440.1440a_dst-jpg_e35_s320x320&_nc_ht=scontent-ord5-2.cdninstagram.com&_nc_cat=102&_nc_ohc=dvyOKjonumUAX_RToj5&edm=ABZsPhsBAAAA&ccb=7-5&ig_cache_key=Mjk4MDg3ODUzNzEzNzk3NTI4Mw%3D%3D.2-ccb7-5&oh=00_AfCBiGC0OGJ2zUk5ZDQlh_38mpgEazxh4TePfFuB1h_4Dg&oe=638B8142&_nc_sid=4efc9f",
                                "width": 320
                            },
                            {
                                "height": 240,
                                "url": "https://scontent-ord5-2.cdninstagram.com/v/t51.2885-15/317062021_1173168176930282_3762627441322721731_n.jpg?stp=c0.180.1440.1440a_dst-jpg_e35_s240x240&_nc_ht=scontent-ord5-2.cdninstagram.com&_nc_cat=102&_nc_ohc=dvyOKjonumUAX_RToj5&edm=ABZsPhsBAAAA&ccb=7-5&ig_cache_key=Mjk4MDg3ODUzNzEzNzk3NTI4Mw%3D%3D.2-ccb7-5&oh=00_AfCjBg8c5oDOi1gt9HHnC_6XHNU6sT4td8At0LbJJgi-dQ&oe=638B8142&_nc_sid=4efc9f",
                                "width": 240
                            },
                            {
                                "height": 150,
                                "url": "https://scontent-ord5-2.cdninstagram.com/v/t51.2885-15/317062021_1173168176930282_3762627441322721731_n.jpg?stp=c0.180.1440.1440a_dst-jpg_e35_s150x150&_nc_ht=scontent-ord5-2.cdninstagram.com&_nc_cat=102&_nc_ohc=dvyOKjonumUAX_RToj5&edm=ABZsPhsBAAAA&ccb=7-5&ig_cache_key=Mjk4MDg3ODUzNzEzNzk3NTI4Mw%3D%3D.2-ccb7-5&oh=00_AfAsztimv80PjI27u1gTKqa4zgKIFP_QNbMqA3UeZw5yHw&oe=638B8142&_nc_sid=4efc9f",
                                "width": 150
                            }
                        ]
                    },
                    "media_type": 1,
                    "original_height": 1800,
                    "original_width": 1440,
                    "pk": 2980878537137975283,
                    "sharing_friction_info": {
                        "bloks_app_url": null,
                        "sharing_friction_payload": null,
                        "should_have_sharing_friction": false
                    },
                    "usertags": {
                        "in": [
                            {
                                "duration_in_video_in_sec": null,
                                "position": [
                                    0.9111111111,
                                    0.9836601298
                                ],
                                "start_time_in_video_in_sec": null,
                                "user": {
                                    "full_name": "Dalia Mya",
                                    "is_private": false,
                                    "is_verified": true,
                                    "pk": 367195403,
                                    "pk_id": "367195403",
                                    "profile_pic_id": "2941891514654317493_367195403",
                                    "profile_pic_url": "https://scontent-ord5-2.cdninstagram.com/v/t51.2885-19/310346947_855102712169410_9048035672571302762_n.jpg?stp=dst-jpg_s150x150&_nc_ht=scontent-ord5-2.cdninstagram.com&_nc_cat=1&_nc_ohc=fnzhLFOqMTAAX9Z4atJ&edm=ABZsPhsBAAAA&ccb=7-5&oh=00_AfBt2t6jhYsTrSeJmMZOlJPdpjlOfgkGZDKFQY2FzhJs3g&oe=638C08DB&_nc_sid=4efc9f",
                                    "username": "dalia"
                                }
                            },
                            {
                                "duration_in_video_in_sec": null,
                                "position": [
                                    0.8974358974,
                                    0.9836601298
                                ],
                                "start_time_in_video_in_sec": null,
                                "user": {
                                    "full_name": "DENNIS",
                                    "is_private": false,
                                    "is_verified": false,
                                    "pk": 1315407109,
                                    "pk_id": "1315407109",
                                    "profile_pic_id": "2803822047819531032_1315407109",
                                    "profile_pic_url": "https://scontent-ord5-2.cdninstagram.com/v/t51.2885-19/277400293_1636792466660503_1202840026760430760_n.jpg?stp=dst-jpg_s150x150&_nc_ht=scontent-ord5-2.cdninstagram.com&_nc_cat=107&_nc_ohc=dwE0Ait1V9kAX8Ehnby&tn=bFlNyZiOPtsFOL2_&edm=ABZsPhsBAAAA&ccb=7-5&oh=00_AfBnqQ-Qvgc8sE924uEALvkWMoSQqM_ksPZt03uMF90IwQ&oe=638B9AF7&_nc_sid=4efc9f",
                                    "username": "dennis.grom"
                                }
                            },
                            {
                                "duration_in_video_in_sec": null,
                                "position": [
                                    0.9346405193,
                                    0.9836601298
                                ],
                                "start_time_in_video_in_sec": null,
                                "user": {
                                    "full_name": "\u2800\u2800\u2800\u2800 \u2800\u2800\u2800\u2800  \u2800\u2800\u2800\u2800   \ud83c\udf38 Liss \ud83c\udf38",
                                    "is_private": false,
                                    "is_verified": false,
                                    "pk": 1576089119,
                                    "pk_id": "1576089119",
                                    "profile_pic_id": "2878798583026293733_1576089119",
                                    "profile_pic_url": "https://scontent-ord5-2.cdninstagram.com/v/t51.2885-19/292787981_1746935632340390_4432149876654466061_n.jpg?stp=dst-jpg_s150x150&_nc_ht=scontent-ord5-2.cdninstagram.com&_nc_cat=102&_nc_ohc=rx7Xq9sMw5EAX_Zroao&tn=bFlNyZiOPtsFOL2_&edm=ABZsPhsBAAAA&ccb=7-5&oh=00_AfCYC-S3rZ2kZN-KjD3fQ0qq-Ic9XX4A0MpGdg_6dX1daw&oe=638A7A75&_nc_sid=4efc9f",
                                    "username": "liss.thl"
                                }
                            },
                            {
                                "duration_in_video_in_sec": null,
                                "position": [
                                    0.9346405193,
                                    0.9836601298
                                ],
                                "start_time_in_video_in_sec": null,
                                "user": {
                                    "full_name": "L I S A",
                                    "is_private": false,
                                    "is_verified": false,
                                    "pk": 2186451420,
                                    "pk_id": "2186451420",
                                    "profile_pic_id": "2820559613109473264_2186451420",
                                    "profile_pic_url": "https://scontent-ord5-2.cdninstagram.com/v/t51.2885-19/278730095_2571972052935565_6497715815080866846_n.jpg?stp=dst-jpg_s150x150&_nc_ht=scontent-ord5-2.cdninstagram.com&_nc_cat=101&_nc_ohc=MDh8yeZL-4kAX9GiRZU&edm=ABZsPhsBAAAA&ccb=7-5&oh=00_AfD6mNOstmEHafgOwyOfxiUcEoIrn3PaG4WOan0a-lSD9Q&oe=638B6E14&_nc_sid=4efc9f",
                                    "username": "lisa.lth"
                                }
                            },
                            {
                                "duration_in_video_in_sec": null,
                                "position": [
                                    0.9346405193,
                                    0.9836601298
                                ],
                                "start_time_in_video_in_sec": null,
                                "user": {
                                    "full_name": "Marlon\ud83e\udd8b",
                                    "is_private": false,
                                    "is_verified": false,
                                    "pk": 3506206246,
                                    "pk_id": "3506206246",
                                    "profile_pic_id": "2980023166819350409_3506206246",
                                    "profile_pic_url": "https://scontent-ord5-2.cdninstagram.com/v/t51.2885-19/316859892_139357245564516_1906518120796691277_n.jpg?stp=dst-jpg_s150x150&_nc_ht=scontent-ord5-2.cdninstagram.com&_nc_cat=100&_nc_ohc=gA7zu2PrjBsAX_iX2X6&tn=bFlNyZiOPtsFOL2_&edm=ABZsPhsBAAAA&ccb=7-5&oh=00_AfAIvJ0fXCXFoOXlpeAgcfuw-WLBsqZuaxQC_yGb90sZ9Q&oe=638AE292&_nc_sid=4efc9f",
                                    "username": "marlonxms"
                                }
                            },
                            {
                                "duration_in_video_in_sec": null,
                                "position": [
                                    0.9346405193,
                                    0.9836601298
                                ],
                                "start_time_in_video_in_sec": null,
                                "user": {
                                    "full_name": "Gerit",
                                    "is_private": false,
                                    "is_verified": false,
                                    "pk": 5377551667,
                                    "pk_id": "5377551667",
                                    "profile_pic_id": "2743264519843203446_5377551667",
                                    "profile_pic_url": "https://scontent-ord5-2.cdninstagram.com/v/t51.2885-19/271150604_605826580652779_7003146484036128888_n.jpg?stp=dst-jpg_s150x150&_nc_ht=scontent-ord5-2.cdninstagram.com&_nc_cat=107&_nc_ohc=NX4Cqvfedh4AX-zef4g&edm=ABZsPhsBAAAA&ccb=7-5&oh=00_AfAvMI153GdTsZcngZzu3TDXxsSlJ__m6TTIOwXornB29w&oe=638BC782&_nc_sid=4efc9f",
                                    "username": "garrysecret"
                                }
                            },
                            {
                                "duration_in_video_in_sec": null,
                                "position": [
                                    0.9346405193,
                                    0.9836601298
                                ],
                                "start_time_in_video_in_sec": null,
                                "user": {
                                    "full_name": "Patrick | Fashion | Motivation",
                                    "is_private": false,
                                    "is_verified": false,
                                    "pk": 5958136830,
                                    "pk_id": "5958136830",
                                    "profile_pic_id": "2943188459578084400_5958136830",
                                    "profile_pic_url": "https://scontent-ord5-2.cdninstagram.com/v/t51.2885-19/310689358_2307847599379816_7745653547066424305_n.jpg?stp=dst-jpg_s150x150&_nc_ht=scontent-ord5-2.cdninstagram.com&_nc_cat=104&_nc_ohc=ePjwkQIMJhMAX-gO0yD&edm=ABZsPhsBAAAA&ccb=7-5&oh=00_AfAg3v1jhsekVVvf97QB6KeZ7AnveslY6EnJGRrSw-yYxw&oe=638A7F3E&_nc_sid=4efc9f",
                                    "username": "patricklsr"
                                }
                            },
                            {
                                "duration_in_video_in_sec": null,
                                "position": [
                                    0.9346405193,
                                    0.9836601298
                                ],
                                "start_time_in_video_in_sec": null,
                                "user": {
                                    "full_name": "Trixi Giese",
                                    "is_private": false,
                                    "is_verified": true,
                                    "pk": 6911478217,
                                    "pk_id": "6911478217",
                                    "profile_pic_id": "2963371115175600445_6911478217",
                                    "profile_pic_url": "https://scontent-ord5-2.cdninstagram.com/v/t51.2885-19/313917915_596618905552332_6490178649009647228_n.jpg?stp=dst-jpg_s150x150&_nc_ht=scontent-ord5-2.cdninstagram.com&_nc_cat=100&_nc_ohc=XqQrgL0cYdUAX-OMdD3&edm=ABZsPhsBAAAA&ccb=7-5&oh=00_AfAokOolFSu_9kRruHXE-b2QrE5DFyLUzeOnaCpc-IyLEg&oe=638B79BA&_nc_sid=4efc9f",
                                    "username": "trixigiese"
                                }
                            },
                            {
                                "duration_in_video_in_sec": null,
                                "position": [
                                    0.9188034188,
                                    0.9836601298
                                ],
                                "start_time_in_video_in_sec": null,
                                "user": {
                                    "full_name": "! Tim",
                                    "is_private": false,
                                    "is_verified": false,
                                    "pk": 7847074068,
                                    "pk_id": "7847074068",
                                    "profile_pic_id": "2878019049465367300_7847074068",
                                    "profile_pic_url": "https://scontent-ord5-2.cdninstagram.com/v/t51.2885-19/292530114_162040866364742_3210819160716312414_n.jpg?stp=dst-jpg_s150x150&_nc_ht=scontent-ord5-2.cdninstagram.com&_nc_cat=102&_nc_ohc=BuhrqUw1QGoAX97lsS0&edm=ABZsPhsBAAAA&ccb=7-5&oh=00_AfBuGUQ6tfc7P3DxKxUvdESFuWQJ7uTGYynFrWIUJdgncQ&oe=638B2A5E&_nc_sid=4efc9f",
                                    "username": "_tim_s5"
                                }
                            },
                            {
                                "duration_in_video_in_sec": null,
                                "position": [
                                    0.9346405193,
                                    0.9836601298
                                ],
                                "start_time_in_video_in_sec": null,
                                "user": {
                                    "full_name": "Tommy",
                                    "is_private": false,
                                    "is_verified": false,
                                    "pk": 18746496792,
                                    "pk_id": "18746496792",
                                    "profile_pic_id": "2982275938326912676_18746496792",
                                    "profile_pic_url": "https://scontent-ord5-2.cdninstagram.com/v/t51.2885-19/317378334_699802131388035_942654108758241440_n.jpg?stp=dst-jpg_s150x150&_nc_ht=scontent-ord5-2.cdninstagram.com&_nc_cat=103&_nc_ohc=BTY14cc_2DkAX-_-CqS&edm=ABZsPhsBAAAA&ccb=7-5&oh=00_AfAfU9MSqKJvT0wMs2QkLTBIbzqzgkBNaZ5PhO2Rlqgq8g&oe=638BE274&_nc_sid=4efc9f",
                                    "username": "tommykucht"
                                }
                            },
                            {
                                "duration_in_video_in_sec": null,
                                "position": [
                                    0.9188034188,
                                    0.9836601298
                                ],
                                "start_time_in_video_in_sec": null,
                                "user": {
                                    "full_name": "\ud83e\udd0d~\ud835\udc3d\ud835\udc34\ud835\udc41\ud835\udc41\ud835\udc38\ud835\udc46~\ud83e\udd0d",
                                    "is_private": false,
                                    "is_verified": false,
                                    "pk": 21790889521,
                                    "pk_id": "21790889521",
                                    "profile_pic_id": "2981449841121430830_21790889521",
                                    "profile_pic_url": "https://scontent-ord5-2.cdninstagram.com/v/t51.2885-19/317233837_123871393854577_3978540693710071780_n.jpg?stp=dst-jpg_s150x150&_nc_ht=scontent-ord5-2.cdninstagram.com&_nc_cat=101&_nc_ohc=e8ppwRcMn8MAX8XZViI&edm=ABZsPhsBAAAA&ccb=7-5&oh=00_AfDAzdMcPvjgqIbMLIByfoUbjPz7AFyQAgVS9HcyhG5Gdg&oe=638A7088&_nc_sid=4efc9f",
                                    "username": "jannes_3_"
                                }
                            },
                            {
                                "duration_in_video_in_sec": null,
                                "position": [
                                    0.9346405193,
                                    0.9836601298
                                ],
                                "start_time_in_video_in_sec": null,
                                "user": {
                                    "full_name": "\ud835\udca5\ud835\udc5c\ud835\udcca\ud835\udc52\ud835\udcc7\ud835\udcb9\ud835\udcbe\ud835\udcc8/\ud835\udc5a\ud835\udc66 \ud835\udc5b\ud835\udc4e\ud835\udc5a\ud835\udc52: \ud835\udc57\ud835\udc5c\u0308\ud835\udc5f\ud835\udc51\ud835\udc56\ud835\udc60",
                                    "is_private": false,
                                    "is_verified": false,
                                    "pk": 30352033763,
                                    "pk_id": "30352033763",
                                    "profile_pic_id": "2930180005809030845_30352033763",
                                    "profile_pic_url": "https://scontent-ord5-2.cdninstagram.com/v/t51.2885-19/307451261_408101258104918_5803003740046084944_n.jpg?stp=dst-jpg_s150x150&_nc_ht=scontent-ord5-2.cdninstagram.com&_nc_cat=110&_nc_ohc=1at_Z2w5BIQAX-WESBP&edm=ABZsPhsBAAAA&ccb=7-5&oh=00_AfBXjNe-7N6mR__P-xNP6Yh2hdPRfpIASxTwv-ZbXdftJA&oe=638B1212&_nc_sid=4efc9f",
                                    "username": "jouerdis"
                                }
                            },
                            {
                                "duration_in_video_in_sec": null,
                                "position": [
                                    0.9346405193,
                                    0.8760683761
                                ],
                                "start_time_in_video_in_sec": null,
                                "user": {
                                    "full_name": "D a v i d \u2649\ufe0f",
                                    "is_private": false,
                                    "is_verified": false,
                                    "pk": 54511501008,
                                    "pk_id": "54511501008",
                                    "profile_pic_id": "2966309731102814667_54511501008",
                                    "profile_pic_url": "https://scontent-ord5-2.cdninstagram.com/v/t51.2885-19/314458386_474538021324998_3131801453268403257_n.jpg?stp=dst-jpg_s150x150&_nc_ht=scontent-ord5-2.cdninstagram.com&_nc_cat=106&_nc_ohc=Eg0B0VujWZMAX8YULCZ&edm=ABZsPhsBAAAA&ccb=7-5&oh=00_AfCEeFCHW_dIqQUOP6Xia1G2fo3MSCKhKwMvhyXRUi4u5Q&oe=638B2165&_nc_sid=4efc9f",
                                    "username": "davidraphii"
                                }
                            }
                        ]
                    }
                },
                {
                    "carousel_parent_id": "2980878543253226037_32543011413",
                    "commerciality_status": "not_commercial",
                    "id": "2980878537146498392_32543011413",
                    "image_versions2": {
                        "candidates": [
                            {
                                "height": 1800,
                                "url": "https://scontent-ord5-2.cdninstagram.com/v/t51.2885-15/317004364_675500450825845_5536913980924070823_n.jpg?stp=dst-jpg_e35&_nc_ht=scontent-ord5-2.cdninstagram.com&_nc_cat=101&_nc_ohc=KfSvj81MCWEAX_hrwU-&tn=bFlNyZiOPtsFOL2_&edm=ABZsPhsBAAAA&ccb=7-5&ig_cache_key=Mjk4MDg3ODUzNzE0NjQ5ODM5Mg%3D%3D.2-ccb7-5&oh=00_AfAlN1-Tx2LAkgJFwYiIfXz13mBOMgtK19jGEiwaxlVoiQ&oe=638BF6B3&_nc_sid=4efc9f",
                                "width": 1440
                            },
                            {
                                "height": 1350,
                                "url": "https://scontent-ord5-2.cdninstagram.com/v/t51.2885-15/317004364_675500450825845_5536913980924070823_n.jpg?stp=dst-jpg_e35_p1080x1080&_nc_ht=scontent-ord5-2.cdninstagram.com&_nc_cat=101&_nc_ohc=KfSvj81MCWEAX_hrwU-&tn=bFlNyZiOPtsFOL2_&edm=ABZsPhsBAAAA&ccb=7-5&ig_cache_key=Mjk4MDg3ODUzNzE0NjQ5ODM5Mg%3D%3D.2-ccb7-5&oh=00_AfDFdysCg5H_xMAFMtrPq37yYdbzRjrQdyUvc5H8DidDew&oe=638BF6B3&_nc_sid=4efc9f",
                                "width": 1080
                            },
                            {
                                "height": 900,
                                "url": "https://scontent-ord5-2.cdninstagram.com/v/t51.2885-15/317004364_675500450825845_5536913980924070823_n.jpg?stp=dst-jpg_e35_p720x720&_nc_ht=scontent-ord5-2.cdninstagram.com&_nc_cat=101&_nc_ohc=KfSvj81MCWEAX_hrwU-&tn=bFlNyZiOPtsFOL2_&edm=ABZsPhsBAAAA&ccb=7-5&ig_cache_key=Mjk4MDg3ODUzNzE0NjQ5ODM5Mg%3D%3D.2-ccb7-5&oh=00_AfDYPeZNoI-dB8wJr7-rPL5koV_QtReHD_3MoeogM6kPTg&oe=638BF6B3&_nc_sid=4efc9f",
                                "width": 720
                            },
                            {
                                "height": 800,
                                "url": "https://scontent-ord5-2.cdninstagram.com/v/t51.2885-15/317004364_675500450825845_5536913980924070823_n.jpg?stp=dst-jpg_e35_p640x640_sh0.08&_nc_ht=scontent-ord5-2.cdninstagram.com&_nc_cat=101&_nc_ohc=KfSvj81MCWEAX_hrwU-&tn=bFlNyZiOPtsFOL2_&edm=ABZsPhsBAAAA&ccb=7-5&ig_cache_key=Mjk4MDg3ODUzNzE0NjQ5ODM5Mg%3D%3D.2-ccb7-5&oh=00_AfBVkUad_eihmq41gcn2pwy1Sz0LLNAcG2m_R3tCq9lP1Q&oe=638BF6B3&_nc_sid=4efc9f",
                                "width": 640
                            },
                            {
                                "height": 600,
                                "url": "https://scontent-ord5-2.cdninstagram.com/v/t51.2885-15/317004364_675500450825845_5536913980924070823_n.jpg?stp=dst-jpg_e35_p480x480&_nc_ht=scontent-ord5-2.cdninstagram.com&_nc_cat=101&_nc_ohc=KfSvj81MCWEAX_hrwU-&tn=bFlNyZiOPtsFOL2_&edm=ABZsPhsBAAAA&ccb=7-5&ig_cache_key=Mjk4MDg3ODUzNzE0NjQ5ODM5Mg%3D%3D.2-ccb7-5&oh=00_AfCP4Hyfnd9daR2QAVTmSdi3ZUJaYvSoUXYr1k44BMEQBw&oe=638BF6B3&_nc_sid=4efc9f",
                                "width": 480
                            },
                            {
                                "height": 400,
                                "url": "https://scontent-ord5-2.cdninstagram.com/v/t51.2885-15/317004364_675500450825845_5536913980924070823_n.jpg?stp=dst-jpg_e35_p320x320&_nc_ht=scontent-ord5-2.cdninstagram.com&_nc_cat=101&_nc_ohc=KfSvj81MCWEAX_hrwU-&tn=bFlNyZiOPtsFOL2_&edm=ABZsPhsBAAAA&ccb=7-5&ig_cache_key=Mjk4MDg3ODUzNzE0NjQ5ODM5Mg%3D%3D.2-ccb7-5&oh=00_AfCVt4pbwpK4j3SsV_flujTuvAasdfdyMGXdWCkAa6mQ6g&oe=638BF6B3&_nc_sid=4efc9f",
                                "width": 320
                            },
                            {
                                "height": 300,
                                "url": "https://scontent-ord5-2.cdninstagram.com/v/t51.2885-15/317004364_675500450825845_5536913980924070823_n.jpg?stp=dst-jpg_e35_p240x240&_nc_ht=scontent-ord5-2.cdninstagram.com&_nc_cat=101&_nc_ohc=KfSvj81MCWEAX_hrwU-&tn=bFlNyZiOPtsFOL2_&edm=ABZsPhsBAAAA&ccb=7-5&ig_cache_key=Mjk4MDg3ODUzNzE0NjQ5ODM5Mg%3D%3D.2-ccb7-5&oh=00_AfBZQuaGjFP99VH17zkcwM5t_ocDk65iS1rjtfb2OxgNJA&oe=638BF6B3&_nc_sid=4efc9f",
                                "width": 240
                            },
                            {
                                "height": 1080,
                                "url": "https://scontent-ord5-2.cdninstagram.com/v/t51.2885-15/317004364_675500450825845_5536913980924070823_n.jpg?stp=c0.180.1440.1440a_dst-jpg_e35_s1080x1080&_nc_ht=scontent-ord5-2.cdninstagram.com&_nc_cat=101&_nc_ohc=KfSvj81MCWEAX_hrwU-&tn=bFlNyZiOPtsFOL2_&edm=ABZsPhsBAAAA&ccb=7-5&ig_cache_key=Mjk4MDg3ODUzNzE0NjQ5ODM5Mg%3D%3D.2-ccb7-5&oh=00_AfCRxI0K207DM6A2CUxUCXbr6NmbZMEd8Mfnstmfgq1Qhg&oe=638BF6B3&_nc_sid=4efc9f",
                                "width": 1080
                            },
                            {
                                "height": 750,
                                "url": "https://scontent-ord5-2.cdninstagram.com/v/t51.2885-15/317004364_675500450825845_5536913980924070823_n.jpg?stp=c0.180.1440.1440a_dst-jpg_e35_s750x750_sh0.08&_nc_ht=scontent-ord5-2.cdninstagram.com&_nc_cat=101&_nc_ohc=KfSvj81MCWEAX_hrwU-&tn=bFlNyZiOPtsFOL2_&edm=ABZsPhsBAAAA&ccb=7-5&ig_cache_key=Mjk4MDg3ODUzNzE0NjQ5ODM5Mg%3D%3D.2-ccb7-5&oh=00_AfBCjzxx_0yieDPybDT_CAJsRytXInZy7IR9AFrCJOKpzw&oe=638BF6B3&_nc_sid=4efc9f",
                                "width": 750
                            },
                            {
                                "height": 640,
                                "url": "https://scontent-ord5-2.cdninstagram.com/v/t51.2885-15/317004364_675500450825845_5536913980924070823_n.jpg?stp=c0.180.1440.1440a_dst-jpg_e35_s640x640_sh0.08&_nc_ht=scontent-ord5-2.cdninstagram.com&_nc_cat=101&_nc_ohc=KfSvj81MCWEAX_hrwU-&tn=bFlNyZiOPtsFOL2_&edm=ABZsPhsBAAAA&ccb=7-5&ig_cache_key=Mjk4MDg3ODUzNzE0NjQ5ODM5Mg%3D%3D.2-ccb7-5&oh=00_AfDj7KVYL_eJPkMRqe8k52AiOqSmAUG-rpgNMLlz1Tj3oQ&oe=638BF6B3&_nc_sid=4efc9f",
                                "width": 640
                            },
                            {
                                "height": 480,
                                "url": "https://scontent-ord5-2.cdninstagram.com/v/t51.2885-15/317004364_675500450825845_5536913980924070823_n.jpg?stp=c0.180.1440.1440a_dst-jpg_e35_s480x480&_nc_ht=scontent-ord5-2.cdninstagram.com&_nc_cat=101&_nc_ohc=KfSvj81MCWEAX_hrwU-&tn=bFlNyZiOPtsFOL2_&edm=ABZsPhsBAAAA&ccb=7-5&ig_cache_key=Mjk4MDg3ODUzNzE0NjQ5ODM5Mg%3D%3D.2-ccb7-5&oh=00_AfDiu7ovDO1GkOafOyxNLxFQGX_Nv4tRkUBkQGKmVfshxQ&oe=638BF6B3&_nc_sid=4efc9f",
                                "width": 480
                            },
                            {
                                "height": 320,
                                "url": "https://scontent-ord5-2.cdninstagram.com/v/t51.2885-15/317004364_675500450825845_5536913980924070823_n.jpg?stp=c0.180.1440.1440a_dst-jpg_e35_s320x320&_nc_ht=scontent-ord5-2.cdninstagram.com&_nc_cat=101&_nc_ohc=KfSvj81MCWEAX_hrwU-&tn=bFlNyZiOPtsFOL2_&edm=ABZsPhsBAAAA&ccb=7-5&ig_cache_key=Mjk4MDg3ODUzNzE0NjQ5ODM5Mg%3D%3D.2-ccb7-5&oh=00_AfArTaK4sODl5pbHDC27iEBHbzeEdE9N_I0t-3qQPu2Tlg&oe=638BF6B3&_nc_sid=4efc9f",
                                "width": 320
                            },
                            {
                                "height": 240,
                                "url": "https://scontent-ord5-2.cdninstagram.com/v/t51.2885-15/317004364_675500450825845_5536913980924070823_n.jpg?stp=c0.180.1440.1440a_dst-jpg_e35_s240x240&_nc_ht=scontent-ord5-2.cdninstagram.com&_nc_cat=101&_nc_ohc=KfSvj81MCWEAX_hrwU-&tn=bFlNyZiOPtsFOL2_&edm=ABZsPhsBAAAA&ccb=7-5&ig_cache_key=Mjk4MDg3ODUzNzE0NjQ5ODM5Mg%3D%3D.2-ccb7-5&oh=00_AfDjOnecOCG02VEQuCehOBrrt5xO80Wp75WT3i_9XbKlxw&oe=638BF6B3&_nc_sid=4efc9f",
                                "width": 240
                            },
                            {
                                "height": 150,
                                "url": "https://scontent-ord5-2.cdninstagram.com/v/t51.2885-15/317004364_675500450825845_5536913980924070823_n.jpg?stp=c0.180.1440.1440a_dst-jpg_e35_s150x150&_nc_ht=scontent-ord5-2.cdninstagram.com&_nc_cat=101&_nc_ohc=KfSvj81MCWEAX_hrwU-&tn=bFlNyZiOPtsFOL2_&edm=ABZsPhsBAAAA&ccb=7-5&ig_cache_key=Mjk4MDg3ODUzNzE0NjQ5ODM5Mg%3D%3D.2-ccb7-5&oh=00_AfCE5Z5y--nVm8EIXlcIszrNMjQUFsgP4Qa7JV1xuCAT4A&oe=638BF6B3&_nc_sid=4efc9f",
                                "width": 150
                            }
                        ]
                    },
                    "media_type": 1,
                    "original_height": 1800,
                    "original_width": 1440,
                    "pk": 2980878537146498392,
                    "sharing_friction_info": {
                        "bloks_app_url": null,
                        "sharing_friction_payload": null,
                        "should_have_sharing_friction": false
                    }
                },
                {
                    "carousel_parent_id": "2980878543253226037_32543011413",
                    "commerciality_status": "not_commercial",
                    "id": "2980878537146400692_32543011413",
                    "image_versions2": {
                        "candidates": [
                            {
                                "height": 1800,
                                "url": "https://scontent-ord5-2.cdninstagram.com/v/t51.2885-15/317037629_1199563850906026_3235998195327727123_n.jpg?stp=dst-jpg_e35&_nc_ht=scontent-ord5-2.cdninstagram.com&_nc_cat=110&_nc_ohc=81x7-EienJ0AX_21dUs&edm=ABZsPhsBAAAA&ccb=7-5&ig_cache_key=Mjk4MDg3ODUzNzE0NjQwMDY5Mg%3D%3D.2-ccb7-5&oh=00_AfBzkjNNfdgvYD0Ci7RuXUepvNFLILckzRuhCe48C6u0cg&oe=638A2B62&_nc_sid=4efc9f",
                                "width": 1440
                            },
                            {
                                "height": 1350,
                                "url": "https://scontent-ord5-2.cdninstagram.com/v/t51.2885-15/317037629_1199563850906026_3235998195327727123_n.jpg?stp=dst-jpg_e35_p1080x1080&_nc_ht=scontent-ord5-2.cdninstagram.com&_nc_cat=110&_nc_ohc=81x7-EienJ0AX_21dUs&edm=ABZsPhsBAAAA&ccb=7-5&ig_cache_key=Mjk4MDg3ODUzNzE0NjQwMDY5Mg%3D%3D.2-ccb7-5&oh=00_AfCymqMBdkqJoByKRgU1PaB2_e9B0tluoqAldbIic3IXfA&oe=638A2B62&_nc_sid=4efc9f",
                                "width": 1080
                            },
                            {
                                "height": 900,
                                "url": "https://scontent-ord5-2.cdninstagram.com/v/t51.2885-15/317037629_1199563850906026_3235998195327727123_n.jpg?stp=dst-jpg_e35_p720x720&_nc_ht=scontent-ord5-2.cdninstagram.com&_nc_cat=110&_nc_ohc=81x7-EienJ0AX_21dUs&edm=ABZsPhsBAAAA&ccb=7-5&ig_cache_key=Mjk4MDg3ODUzNzE0NjQwMDY5Mg%3D%3D.2-ccb7-5&oh=00_AfAs05o727Rhcc9GHOLiXKSRpj51ufW4QCMljDGM4diIlA&oe=638A2B62&_nc_sid=4efc9f",
                                "width": 720
                            },
                            {
                                "height": 800,
                                "url": "https://scontent-ord5-2.cdninstagram.com/v/t51.2885-15/317037629_1199563850906026_3235998195327727123_n.jpg?stp=dst-jpg_e35_p640x640_sh0.08&_nc_ht=scontent-ord5-2.cdninstagram.com&_nc_cat=110&_nc_ohc=81x7-EienJ0AX_21dUs&edm=ABZsPhsBAAAA&ccb=7-5&ig_cache_key=Mjk4MDg3ODUzNzE0NjQwMDY5Mg%3D%3D.2-ccb7-5&oh=00_AfBAmK6GE_TAt2ha231n7RzA9hLT9ekt-RJbSnYZpD_o4w&oe=638A2B62&_nc_sid=4efc9f",
                                "width": 640
                            },
                            {
                                "height": 600,
                                "url": "https://scontent-ord5-2.cdninstagram.com/v/t51.2885-15/317037629_1199563850906026_3235998195327727123_n.jpg?stp=dst-jpg_e35_p480x480&_nc_ht=scontent-ord5-2.cdninstagram.com&_nc_cat=110&_nc_ohc=81x7-EienJ0AX_21dUs&edm=ABZsPhsBAAAA&ccb=7-5&ig_cache_key=Mjk4MDg3ODUzNzE0NjQwMDY5Mg%3D%3D.2-ccb7-5&oh=00_AfBVfz1k6ari9Wad-P6DrjDfTHzGTF8Bzl3ucejsKeXMwg&oe=638A2B62&_nc_sid=4efc9f",
                                "width": 480
                            },
                            {
                                "height": 400,
                                "url": "https://scontent-ord5-2.cdninstagram.com/v/t51.2885-15/317037629_1199563850906026_3235998195327727123_n.jpg?stp=dst-jpg_e35_p320x320&_nc_ht=scontent-ord5-2.cdninstagram.com&_nc_cat=110&_nc_ohc=81x7-EienJ0AX_21dUs&edm=ABZsPhsBAAAA&ccb=7-5&ig_cache_key=Mjk4MDg3ODUzNzE0NjQwMDY5Mg%3D%3D.2-ccb7-5&oh=00_AfAXT_WqDIUFtWZurw1U-bdF_ilo9R3ri1z9FCYFBIDzWw&oe=638A2B62&_nc_sid=4efc9f",
                                "width": 320
                            },
                            {
                                "height": 300,
                                "url": "https://scontent-ord5-2.cdninstagram.com/v/t51.2885-15/317037629_1199563850906026_3235998195327727123_n.jpg?stp=dst-jpg_e35_p240x240&_nc_ht=scontent-ord5-2.cdninstagram.com&_nc_cat=110&_nc_ohc=81x7-EienJ0AX_21dUs&edm=ABZsPhsBAAAA&ccb=7-5&ig_cache_key=Mjk4MDg3ODUzNzE0NjQwMDY5Mg%3D%3D.2-ccb7-5&oh=00_AfDY6znfmppcvTTX6gxzTey5QZvar8-VroS3I5xOmPi9UQ&oe=638A2B62&_nc_sid=4efc9f",
                                "width": 240
                            },
                            {
                                "height": 1080,
                                "url": "https://scontent-ord5-2.cdninstagram.com/v/t51.2885-15/317037629_1199563850906026_3235998195327727123_n.jpg?stp=c0.180.1440.1440a_dst-jpg_e35_s1080x1080&_nc_ht=scontent-ord5-2.cdninstagram.com&_nc_cat=110&_nc_ohc=81x7-EienJ0AX_21dUs&edm=ABZsPhsBAAAA&ccb=7-5&ig_cache_key=Mjk4MDg3ODUzNzE0NjQwMDY5Mg%3D%3D.2-ccb7-5&oh=00_AfBqIEUDryM1SrnO06R9EOKvwGnjHVCKwFsb1L2sa5n2Pw&oe=638A2B62&_nc_sid=4efc9f",
                                "width": 1080
                            },
                            {
                                "height": 750,
                                "url": "https://scontent-ord5-2.cdninstagram.com/v/t51.2885-15/317037629_1199563850906026_3235998195327727123_n.jpg?stp=c0.180.1440.1440a_dst-jpg_e35_s750x750_sh0.08&_nc_ht=scontent-ord5-2.cdninstagram.com&_nc_cat=110&_nc_ohc=81x7-EienJ0AX_21dUs&edm=ABZsPhsBAAAA&ccb=7-5&ig_cache_key=Mjk4MDg3ODUzNzE0NjQwMDY5Mg%3D%3D.2-ccb7-5&oh=00_AfClC92fCKOeSVMwhmeGjXtxZbPCrBt8styfFj6Mvd8Vlg&oe=638A2B62&_nc_sid=4efc9f",
                                "width": 750
                            },
                            {
                                "height": 640,
                                "url": "https://scontent-ord5-2.cdninstagram.com/v/t51.2885-15/317037629_1199563850906026_3235998195327727123_n.jpg?stp=c0.180.1440.1440a_dst-jpg_e35_s640x640_sh0.08&_nc_ht=scontent-ord5-2.cdninstagram.com&_nc_cat=110&_nc_ohc=81x7-EienJ0AX_21dUs&edm=ABZsPhsBAAAA&ccb=7-5&ig_cache_key=Mjk4MDg3ODUzNzE0NjQwMDY5Mg%3D%3D.2-ccb7-5&oh=00_AfBRtZWh-wSB5DiRxw5QnM_qjjc1ZscU4QiaD6rImfE4Dw&oe=638A2B62&_nc_sid=4efc9f",
                                "width": 640
                            },
                            {
                                "height": 480,
                                "url": "https://scontent-ord5-2.cdninstagram.com/v/t51.2885-15/317037629_1199563850906026_3235998195327727123_n.jpg?stp=c0.180.1440.1440a_dst-jpg_e35_s480x480&_nc_ht=scontent-ord5-2.cdninstagram.com&_nc_cat=110&_nc_ohc=81x7-EienJ0AX_21dUs&edm=ABZsPhsBAAAA&ccb=7-5&ig_cache_key=Mjk4MDg3ODUzNzE0NjQwMDY5Mg%3D%3D.2-ccb7-5&oh=00_AfAJLf7j3Lc9zW0SWh0O1PjxHyrjz5asYNJmsZ2epwSUtw&oe=638A2B62&_nc_sid=4efc9f",
                                "width": 480
                            },
                            {
                                "height": 320,
                                "url": "https://scontent-ord5-2.cdninstagram.com/v/t51.2885-15/317037629_1199563850906026_3235998195327727123_n.jpg?stp=c0.180.1440.1440a_dst-jpg_e35_s320x320&_nc_ht=scontent-ord5-2.cdninstagram.com&_nc_cat=110&_nc_ohc=81x7-EienJ0AX_21dUs&edm=ABZsPhsBAAAA&ccb=7-5&ig_cache_key=Mjk4MDg3ODUzNzE0NjQwMDY5Mg%3D%3D.2-ccb7-5&oh=00_AfChCfrSlxsnK0mms7ncpuZdXJmqz15DoBHu29LYAE0p0g&oe=638A2B62&_nc_sid=4efc9f",
                                "width": 320
                            },
                            {
                                "height": 240,
                                "url": "https://scontent-ord5-2.cdninstagram.com/v/t51.2885-15/317037629_1199563850906026_3235998195327727123_n.jpg?stp=c0.180.1440.1440a_dst-jpg_e35_s240x240&_nc_ht=scontent-ord5-2.cdninstagram.com&_nc_cat=110&_nc_ohc=81x7-EienJ0AX_21dUs&edm=ABZsPhsBAAAA&ccb=7-5&ig_cache_key=Mjk4MDg3ODUzNzE0NjQwMDY5Mg%3D%3D.2-ccb7-5&oh=00_AfCCWBsX7eOs3FpcLewlNFWYWn2yuZMPUSFBdROjCpAxrQ&oe=638A2B62&_nc_sid=4efc9f",
                                "width": 240
                            },
                            {
                                "height": 150,
                                "url": "https://scontent-ord5-2.cdninstagram.com/v/t51.2885-15/317037629_1199563850906026_3235998195327727123_n.jpg?stp=c0.180.1440.1440a_dst-jpg_e35_s150x150&_nc_ht=scontent-ord5-2.cdninstagram.com&_nc_cat=110&_nc_ohc=81x7-EienJ0AX_21dUs&edm=ABZsPhsBAAAA&ccb=7-5&ig_cache_key=Mjk4MDg3ODUzNzE0NjQwMDY5Mg%3D%3D.2-ccb7-5&oh=00_AfAd8sQn6DKaEeZJ_Upoy2eKrNbegXagBc9LoyYnw0m0oQ&oe=638A2B62&_nc_sid=4efc9f",
                                "width": 150
                            }
                        ]
                    },
                    "media_type": 1,
                    "original_height": 1800,
                    "original_width": 1440,
                    "pk": 2980878537146400692,
                    "sharing_friction_info": {
                        "bloks_app_url": null,
                        "sharing_friction_payload": null,
                        "should_have_sharing_friction": false
                    }
                },
                {
                    "carousel_parent_id": "2980878543253226037_32543011413",
                    "commerciality_status": "not_commercial",
                    "id": "2980878537146369596_32543011413",
                    "image_versions2": {
                        "candidates": [
                            {
                                "height": 1800,
                                "url": "https://scontent-ord5-2.cdninstagram.com/v/t51.2885-15/316993554_382429124076491_8289422336289307031_n.jpg?stp=dst-jpg_e35&_nc_ht=scontent-ord5-2.cdninstagram.com&_nc_cat=111&_nc_ohc=zupMbaO7kvAAX-ksPLM&tn=bFlNyZiOPtsFOL2_&edm=ABZsPhsBAAAA&ccb=7-5&ig_cache_key=Mjk4MDg3ODUzNzE0NjM2OTU5Ng%3D%3D.2-ccb7-5&oh=00_AfCOkhbo_ZcTyPYh_55asrv39jm3LXph1SlMZtDpQfYXpw&oe=638AF97B&_nc_sid=4efc9f",
                                "width": 1440
                            },
                            {
                                "height": 1350,
                                "url": "https://scontent-ord5-2.cdninstagram.com/v/t51.2885-15/316993554_382429124076491_8289422336289307031_n.jpg?stp=dst-jpg_e35_p1080x1080&_nc_ht=scontent-ord5-2.cdninstagram.com&_nc_cat=111&_nc_ohc=zupMbaO7kvAAX-ksPLM&tn=bFlNyZiOPtsFOL2_&edm=ABZsPhsBAAAA&ccb=7-5&ig_cache_key=Mjk4MDg3ODUzNzE0NjM2OTU5Ng%3D%3D.2-ccb7-5&oh=00_AfCOqph2QXwB9O4swY6ezTcfSHQ9xdZFwhKctWmYLAZwGw&oe=638AF97B&_nc_sid=4efc9f",
                                "width": 1080
                            },
                            {
                                "height": 900,
                                "url": "https://scontent-ord5-2.cdninstagram.com/v/t51.2885-15/316993554_382429124076491_8289422336289307031_n.jpg?stp=dst-jpg_e35_p720x720&_nc_ht=scontent-ord5-2.cdninstagram.com&_nc_cat=111&_nc_ohc=zupMbaO7kvAAX-ksPLM&tn=bFlNyZiOPtsFOL2_&edm=ABZsPhsBAAAA&ccb=7-5&ig_cache_key=Mjk4MDg3ODUzNzE0NjM2OTU5Ng%3D%3D.2-ccb7-5&oh=00_AfDloizhEULnCdTp_afIQCFuyszxyT4KoQwmNWUZsGDL-g&oe=638AF97B&_nc_sid=4efc9f",
                                "width": 720
                            },
                            {
                                "height": 800,
                                "url": "https://scontent-ord5-2.cdninstagram.com/v/t51.2885-15/316993554_382429124076491_8289422336289307031_n.jpg?stp=dst-jpg_e35_p640x640_sh0.08&_nc_ht=scontent-ord5-2.cdninstagram.com&_nc_cat=111&_nc_ohc=zupMbaO7kvAAX-ksPLM&tn=bFlNyZiOPtsFOL2_&edm=ABZsPhsBAAAA&ccb=7-5&ig_cache_key=Mjk4MDg3ODUzNzE0NjM2OTU5Ng%3D%3D.2-ccb7-5&oh=00_AfBa2bUfFmSfwXjQ-R5RE17LDnOGkH1sDMnjcjw93IYLLg&oe=638AF97B&_nc_sid=4efc9f",
                                "width": 640
                            },
                            {
                                "height": 600,
                                "url": "https://scontent-ord5-2.cdninstagram.com/v/t51.2885-15/316993554_382429124076491_8289422336289307031_n.jpg?stp=dst-jpg_e35_p480x480&_nc_ht=scontent-ord5-2.cdninstagram.com&_nc_cat=111&_nc_ohc=zupMbaO7kvAAX-ksPLM&tn=bFlNyZiOPtsFOL2_&edm=ABZsPhsBAAAA&ccb=7-5&ig_cache_key=Mjk4MDg3ODUzNzE0NjM2OTU5Ng%3D%3D.2-ccb7-5&oh=00_AfAowEK4XO-UxDWE3aygaI6FI9Oxu6GCkQX3qHVdpX21Yg&oe=638AF97B&_nc_sid=4efc9f",
                                "width": 480
                            },
                            {
                                "height": 400,
                                "url": "https://scontent-ord5-2.cdninstagram.com/v/t51.2885-15/316993554_382429124076491_8289422336289307031_n.jpg?stp=dst-jpg_e35_p320x320&_nc_ht=scontent-ord5-2.cdninstagram.com&_nc_cat=111&_nc_ohc=zupMbaO7kvAAX-ksPLM&tn=bFlNyZiOPtsFOL2_&edm=ABZsPhsBAAAA&ccb=7-5&ig_cache_key=Mjk4MDg3ODUzNzE0NjM2OTU5Ng%3D%3D.2-ccb7-5&oh=00_AfCcQw-vVHILBZjQ6L8lpX6MizcHxC4PD_V8W56V2dYhgg&oe=638AF97B&_nc_sid=4efc9f",
                                "width": 320
                            },
                            {
                                "height": 300,
                                "url": "https://scontent-ord5-2.cdninstagram.com/v/t51.2885-15/316993554_382429124076491_8289422336289307031_n.jpg?stp=dst-jpg_e35_p240x240&_nc_ht=scontent-ord5-2.cdninstagram.com&_nc_cat=111&_nc_ohc=zupMbaO7kvAAX-ksPLM&tn=bFlNyZiOPtsFOL2_&edm=ABZsPhsBAAAA&ccb=7-5&ig_cache_key=Mjk4MDg3ODUzNzE0NjM2OTU5Ng%3D%3D.2-ccb7-5&oh=00_AfArVaN5ZKTln13uZp36tcuj0blKfNUoDHjSUKwBX7Rqrg&oe=638AF97B&_nc_sid=4efc9f",
                                "width": 240
                            },
                            {
                                "height": 1080,
                                "url": "https://scontent-ord5-2.cdninstagram.com/v/t51.2885-15/316993554_382429124076491_8289422336289307031_n.jpg?stp=c0.180.1440.1440a_dst-jpg_e35_s1080x1080&_nc_ht=scontent-ord5-2.cdninstagram.com&_nc_cat=111&_nc_ohc=zupMbaO7kvAAX-ksPLM&tn=bFlNyZiOPtsFOL2_&edm=ABZsPhsBAAAA&ccb=7-5&ig_cache_key=Mjk4MDg3ODUzNzE0NjM2OTU5Ng%3D%3D.2-ccb7-5&oh=00_AfCzWx7NA5l09-lhIwbmMScjmKURJUYYbTvCslosE9WaJA&oe=638AF97B&_nc_sid=4efc9f",
                                "width": 1080
                            },
                            {
                                "height": 750,
                                "url": "https://scontent-ord5-2.cdninstagram.com/v/t51.2885-15/316993554_382429124076491_8289422336289307031_n.jpg?stp=c0.180.1440.1440a_dst-jpg_e35_s750x750_sh0.08&_nc_ht=scontent-ord5-2.cdninstagram.com&_nc_cat=111&_nc_ohc=zupMbaO7kvAAX-ksPLM&tn=bFlNyZiOPtsFOL2_&edm=ABZsPhsBAAAA&ccb=7-5&ig_cache_key=Mjk4MDg3ODUzNzE0NjM2OTU5Ng%3D%3D.2-ccb7-5&oh=00_AfAX9HWocu62ZvjAHtMENkpnD87bU8q_Sozb8Vh0DFqUBQ&oe=638AF97B&_nc_sid=4efc9f",
                                "width": 750
                            },
                            {
                                "height": 640,
                                "url": "https://scontent-ord5-2.cdninstagram.com/v/t51.2885-15/316993554_382429124076491_8289422336289307031_n.jpg?stp=c0.180.1440.1440a_dst-jpg_e35_s640x640_sh0.08&_nc_ht=scontent-ord5-2.cdninstagram.com&_nc_cat=111&_nc_ohc=zupMbaO7kvAAX-ksPLM&tn=bFlNyZiOPtsFOL2_&edm=ABZsPhsBAAAA&ccb=7-5&ig_cache_key=Mjk4MDg3ODUzNzE0NjM2OTU5Ng%3D%3D.2-ccb7-5&oh=00_AfCgWf0iqEmk7qpowPIBgsRXEH1FWU9feGVlfG1N3w-mnA&oe=638AF97B&_nc_sid=4efc9f",
                                "width": 640
                            },
                            {
                                "height": 480,
                                "url": "https://scontent-ord5-2.cdninstagram.com/v/t51.2885-15/316993554_382429124076491_8289422336289307031_n.jpg?stp=c0.180.1440.1440a_dst-jpg_e35_s480x480&_nc_ht=scontent-ord5-2.cdninstagram.com&_nc_cat=111&_nc_ohc=zupMbaO7kvAAX-ksPLM&tn=bFlNyZiOPtsFOL2_&edm=ABZsPhsBAAAA&ccb=7-5&ig_cache_key=Mjk4MDg3ODUzNzE0NjM2OTU5Ng%3D%3D.2-ccb7-5&oh=00_AfAx97uXjM4eNt33Rm_MNL-aFr85xgJzFnIzzxY6F9rEOQ&oe=638AF97B&_nc_sid=4efc9f",
                                "width": 480
                            },
                            {
                                "height": 320,
                                "url": "https://scontent-ord5-2.cdninstagram.com/v/t51.2885-15/316993554_382429124076491_8289422336289307031_n.jpg?stp=c0.180.1440.1440a_dst-jpg_e35_s320x320&_nc_ht=scontent-ord5-2.cdninstagram.com&_nc_cat=111&_nc_ohc=zupMbaO7kvAAX-ksPLM&tn=bFlNyZiOPtsFOL2_&edm=ABZsPhsBAAAA&ccb=7-5&ig_cache_key=Mjk4MDg3ODUzNzE0NjM2OTU5Ng%3D%3D.2-ccb7-5&oh=00_AfAozGa2geMyFmKEmFK-WGKwBY3-_08CMMv3jitUfQV9Bg&oe=638AF97B&_nc_sid=4efc9f",
                                "width": 320
                            },
                            {
                                "height": 240,
                                "url": "https://scontent-ord5-2.cdninstagram.com/v/t51.2885-15/316993554_382429124076491_8289422336289307031_n.jpg?stp=c0.180.1440.1440a_dst-jpg_e35_s240x240&_nc_ht=scontent-ord5-2.cdninstagram.com&_nc_cat=111&_nc_ohc=zupMbaO7kvAAX-ksPLM&tn=bFlNyZiOPtsFOL2_&edm=ABZsPhsBAAAA&ccb=7-5&ig_cache_key=Mjk4MDg3ODUzNzE0NjM2OTU5Ng%3D%3D.2-ccb7-5&oh=00_AfDbwq5FJtbEGt7B4N7fbC5R4G86iVtZhEC-NzFRNQqAJQ&oe=638AF97B&_nc_sid=4efc9f",
                                "width": 240
                            },
                            {
                                "height": 150,
                                "url": "https://scontent-ord5-2.cdninstagram.com/v/t51.2885-15/316993554_382429124076491_8289422336289307031_n.jpg?stp=c0.180.1440.1440a_dst-jpg_e35_s150x150&_nc_ht=scontent-ord5-2.cdninstagram.com&_nc_cat=111&_nc_ohc=zupMbaO7kvAAX-ksPLM&tn=bFlNyZiOPtsFOL2_&edm=ABZsPhsBAAAA&ccb=7-5&ig_cache_key=Mjk4MDg3ODUzNzE0NjM2OTU5Ng%3D%3D.2-ccb7-5&oh=00_AfB3MKJ3xt94SwgQF7pa1YsGilEFsxiZPNQq2yYd5nz6kQ&oe=638AF97B&_nc_sid=4efc9f",
                                "width": 150
                            }
                        ]
                    },
                    "media_type": 1,
                    "original_height": 1800,
                    "original_width": 1440,
                    "pk": 2980878537146369596,
                    "sharing_friction_info": {
                        "bloks_app_url": null,
                        "sharing_friction_payload": null,
                        "should_have_sharing_friction": false
                    }
                },
                {
                    "carousel_parent_id": "2980878543253226037_32543011413",
                    "commerciality_status": "not_commercial",
                    "id": "2980878537146369569_32543011413",
                    "image_versions2": {
                        "candidates": [
                            {
                                "height": 1800,
                                "url": "https://scontent-ord5-2.cdninstagram.com/v/t51.2885-15/317062440_876104283416969_3850106575544053982_n.jpg?stp=dst-jpg_e35&_nc_ht=scontent-ord5-2.cdninstagram.com&_nc_cat=105&_nc_ohc=UlRVcruwWkUAX9jUH6t&edm=ABZsPhsBAAAA&ccb=7-5&ig_cache_key=Mjk4MDg3ODUzNzE0NjM2OTU2OQ%3D%3D.2-ccb7-5&oh=00_AfDeo_xfTs38sLj6-jPIm6N3cYav3QSq1aVFO_GOyiMXoA&oe=638AE86D&_nc_sid=4efc9f",
                                "width": 1440
                            },
                            {
                                "height": 1350,
                                "url": "https://scontent-ord5-2.cdninstagram.com/v/t51.2885-15/317062440_876104283416969_3850106575544053982_n.jpg?stp=dst-jpg_e35_p1080x1080&_nc_ht=scontent-ord5-2.cdninstagram.com&_nc_cat=105&_nc_ohc=UlRVcruwWkUAX9jUH6t&edm=ABZsPhsBAAAA&ccb=7-5&ig_cache_key=Mjk4MDg3ODUzNzE0NjM2OTU2OQ%3D%3D.2-ccb7-5&oh=00_AfBLgCT0RX0B8DjSnbkp7tQxkIqPhIuijWrjR4MfH2nMsw&oe=638AE86D&_nc_sid=4efc9f",
                                "width": 1080
                            },
                            {
                                "height": 900,
                                "url": "https://scontent-ord5-2.cdninstagram.com/v/t51.2885-15/317062440_876104283416969_3850106575544053982_n.jpg?stp=dst-jpg_e35_p720x720&_nc_ht=scontent-ord5-2.cdninstagram.com&_nc_cat=105&_nc_ohc=UlRVcruwWkUAX9jUH6t&edm=ABZsPhsBAAAA&ccb=7-5&ig_cache_key=Mjk4MDg3ODUzNzE0NjM2OTU2OQ%3D%3D.2-ccb7-5&oh=00_AfBELSFZrca42liBeaJ2raqVloHYpbACBXcqfK0SwLWGng&oe=638AE86D&_nc_sid=4efc9f",
                                "width": 720
                            },
                            {
                                "height": 800,
                                "url": "https://scontent-ord5-2.cdninstagram.com/v/t51.2885-15/317062440_876104283416969_3850106575544053982_n.jpg?stp=dst-jpg_e35_p640x640_sh0.08&_nc_ht=scontent-ord5-2.cdninstagram.com&_nc_cat=105&_nc_ohc=UlRVcruwWkUAX9jUH6t&edm=ABZsPhsBAAAA&ccb=7-5&ig_cache_key=Mjk4MDg3ODUzNzE0NjM2OTU2OQ%3D%3D.2-ccb7-5&oh=00_AfCj7QKfOUFFtutcdAACDzor9XDEX2Db45_wlORMu4mfAQ&oe=638AE86D&_nc_sid=4efc9f",
                                "width": 640
                            },
                            {
                                "height": 600,
                                "url": "https://scontent-ord5-2.cdninstagram.com/v/t51.2885-15/317062440_876104283416969_3850106575544053982_n.jpg?stp=dst-jpg_e35_p480x480&_nc_ht=scontent-ord5-2.cdninstagram.com&_nc_cat=105&_nc_ohc=UlRVcruwWkUAX9jUH6t&edm=ABZsPhsBAAAA&ccb=7-5&ig_cache_key=Mjk4MDg3ODUzNzE0NjM2OTU2OQ%3D%3D.2-ccb7-5&oh=00_AfDjCS2NqzJtVcl1RAj45x9V33sq9DKuULgG7CttrVzE3g&oe=638AE86D&_nc_sid=4efc9f",
                                "width": 480
                            },
                            {
                                "height": 400,
                                "url": "https://scontent-ord5-2.cdninstagram.com/v/t51.2885-15/317062440_876104283416969_3850106575544053982_n.jpg?stp=dst-jpg_e35_p320x320&_nc_ht=scontent-ord5-2.cdninstagram.com&_nc_cat=105&_nc_ohc=UlRVcruwWkUAX9jUH6t&edm=ABZsPhsBAAAA&ccb=7-5&ig_cache_key=Mjk4MDg3ODUzNzE0NjM2OTU2OQ%3D%3D.2-ccb7-5&oh=00_AfDICBo-4KCW-UuMISpRw35kN_a188DmSQNyYdB4-3c0bw&oe=638AE86D&_nc_sid=4efc9f",
                                "width": 320
                            },
                            {
                                "height": 300,
                                "url": "https://scontent-ord5-2.cdninstagram.com/v/t51.2885-15/317062440_876104283416969_3850106575544053982_n.jpg?stp=dst-jpg_e35_p240x240&_nc_ht=scontent-ord5-2.cdninstagram.com&_nc_cat=105&_nc_ohc=UlRVcruwWkUAX9jUH6t&edm=ABZsPhsBAAAA&ccb=7-5&ig_cache_key=Mjk4MDg3ODUzNzE0NjM2OTU2OQ%3D%3D.2-ccb7-5&oh=00_AfATMiVZz5ZsiGSEIjBARxR6E1rOtps476afh1OZq3nYFA&oe=638AE86D&_nc_sid=4efc9f",
                                "width": 240
                            },
                            {
                                "height": 1080,
                                "url": "https://scontent-ord5-2.cdninstagram.com/v/t51.2885-15/317062440_876104283416969_3850106575544053982_n.jpg?stp=c0.180.1440.1440a_dst-jpg_e35_s1080x1080&_nc_ht=scontent-ord5-2.cdninstagram.com&_nc_cat=105&_nc_ohc=UlRVcruwWkUAX9jUH6t&edm=ABZsPhsBAAAA&ccb=7-5&ig_cache_key=Mjk4MDg3ODUzNzE0NjM2OTU2OQ%3D%3D.2-ccb7-5&oh=00_AfAy0Y73Uk3191S58rZ-PgPiupLlAw4tWTrpzciTY3KW-w&oe=638AE86D&_nc_sid=4efc9f",
                                "width": 1080
                            },
                            {
                                "height": 750,
                                "url": "https://scontent-ord5-2.cdninstagram.com/v/t51.2885-15/317062440_876104283416969_3850106575544053982_n.jpg?stp=c0.180.1440.1440a_dst-jpg_e35_s750x750_sh0.08&_nc_ht=scontent-ord5-2.cdninstagram.com&_nc_cat=105&_nc_ohc=UlRVcruwWkUAX9jUH6t&edm=ABZsPhsBAAAA&ccb=7-5&ig_cache_key=Mjk4MDg3ODUzNzE0NjM2OTU2OQ%3D%3D.2-ccb7-5&oh=00_AfDNxfuccKbTrSgdCjGM_BxSuj6_8hsxKK4sggy1-_5AjQ&oe=638AE86D&_nc_sid=4efc9f",
                                "width": 750
                            },
                            {
                                "height": 640,
                                "url": "https://scontent-ord5-2.cdninstagram.com/v/t51.2885-15/317062440_876104283416969_3850106575544053982_n.jpg?stp=c0.180.1440.1440a_dst-jpg_e35_s640x640_sh0.08&_nc_ht=scontent-ord5-2.cdninstagram.com&_nc_cat=105&_nc_ohc=UlRVcruwWkUAX9jUH6t&edm=ABZsPhsBAAAA&ccb=7-5&ig_cache_key=Mjk4MDg3ODUzNzE0NjM2OTU2OQ%3D%3D.2-ccb7-5&oh=00_AfCqpSgfHxP8vcOcpA9xbri6gsNSHPjgmmsQSaLQkVI82g&oe=638AE86D&_nc_sid=4efc9f",
                                "width": 640
                            },
                            {
                                "height": 480,
                                "url": "https://scontent-ord5-2.cdninstagram.com/v/t51.2885-15/317062440_876104283416969_3850106575544053982_n.jpg?stp=c0.180.1440.1440a_dst-jpg_e35_s480x480&_nc_ht=scontent-ord5-2.cdninstagram.com&_nc_cat=105&_nc_ohc=UlRVcruwWkUAX9jUH6t&edm=ABZsPhsBAAAA&ccb=7-5&ig_cache_key=Mjk4MDg3ODUzNzE0NjM2OTU2OQ%3D%3D.2-ccb7-5&oh=00_AfCYaz3NnrqbTIZc82IrQjc5-RW6BKt8FGTFyEfFXb8FZg&oe=638AE86D&_nc_sid=4efc9f",
                                "width": 480
                            },
                            {
                                "height": 320,
                                "url": "https://scontent-ord5-2.cdninstagram.com/v/t51.2885-15/317062440_876104283416969_3850106575544053982_n.jpg?stp=c0.180.1440.1440a_dst-jpg_e35_s320x320&_nc_ht=scontent-ord5-2.cdninstagram.com&_nc_cat=105&_nc_ohc=UlRVcruwWkUAX9jUH6t&edm=ABZsPhsBAAAA&ccb=7-5&ig_cache_key=Mjk4MDg3ODUzNzE0NjM2OTU2OQ%3D%3D.2-ccb7-5&oh=00_AfBUXxSppXAX7tTvsX92OL6pi5xVZGFZruPqTcEiH_XG1A&oe=638AE86D&_nc_sid=4efc9f",
                                "width": 320
                            },
                            {
                                "height": 240,
                                "url": "https://scontent-ord5-2.cdninstagram.com/v/t51.2885-15/317062440_876104283416969_3850106575544053982_n.jpg?stp=c0.180.1440.1440a_dst-jpg_e35_s240x240&_nc_ht=scontent-ord5-2.cdninstagram.com&_nc_cat=105&_nc_ohc=UlRVcruwWkUAX9jUH6t&edm=ABZsPhsBAAAA&ccb=7-5&ig_cache_key=Mjk4MDg3ODUzNzE0NjM2OTU2OQ%3D%3D.2-ccb7-5&oh=00_AfBUlSMtsAsTk7eJq2KYCr2J1La0ojc7JcnJhHOGk_NmrQ&oe=638AE86D&_nc_sid=4efc9f",
                                "width": 240
                            },
                            {
                                "height": 150,
                                "url": "https://scontent-ord5-2.cdninstagram.com/v/t51.2885-15/317062440_876104283416969_3850106575544053982_n.jpg?stp=c0.180.1440.1440a_dst-jpg_e35_s150x150&_nc_ht=scontent-ord5-2.cdninstagram.com&_nc_cat=105&_nc_ohc=UlRVcruwWkUAX9jUH6t&edm=ABZsPhsBAAAA&ccb=7-5&ig_cache_key=Mjk4MDg3ODUzNzE0NjM2OTU2OQ%3D%3D.2-ccb7-5&oh=00_AfD_MEwOws_QazT-dnT5LQL7Jm3VW3UjnZ4R1Sqycgyq-w&oe=638AE86D&_nc_sid=4efc9f",
                                "width": 150
                            }
                        ]
                    },
                    "media_type": 1,
                    "original_height": 1800,
                    "original_width": 1440,
                    "pk": 2980878537146369569,
                    "sharing_friction_info": {
                        "bloks_app_url": null,
                        "sharing_friction_payload": null,
                        "should_have_sharing_friction": false
                    }
                }
            ],
            "carousel_media_count": 5,
            "client_cache_key": "Mjk4MDg3ODU0MzI1MzIyNjAzNw==.2",
            "clips_tab_pinned_user_ids": [],
            "code": "CleNT3hMUI1",
            "comment_count": 660,
            "comment_inform_treatment": {
                "action_type": null,
                "should_have_inform_treatment": false,
                "text": "",
                "url": null
            },
            "comment_likes_enabled": false,
            "comment_threading_enabled": true,
            "comments": [
                {
                    "bit_flags": 0,
                    "content_type": "comment",
                    "created_at": 1669721329,
                    "created_at_utc": 1669721329,
                    "did_report_as_spam": false,
                    "has_translation": true,
                    "is_covered": false,
                    "is_ranked_comment": false,
                    "media_id": 2980878543253226037,
                    "parent_comment_id": 18021976891451621,
                    "pk": 17972066809904757,
                    "private_reply_status": 0,
                    "share_enabled": false,
                    "status": "Active",
                    "text": "@lxnnham Sehr gern\u2026 \u00e4\u00e4\u00e4\u00e4h ich bekenne mich und schauuu gern hin :)))",
                    "type": 2,
                    "user": {
                        "full_name": "Jan Dominic Potthoff",
                        "is_private": true,
                        "is_verified": false,
                        "pk": 3056567867,
                        "pk_id": "3056567867",
                        "profile_pic_id": "2765229236912879224_3056567867",
                        "profile_pic_url": "https://scontent-ord5-2.cdninstagram.com/v/t51.2885-19/273209742_433274564941799_194800967876195133_n.jpg?stp=dst-jpg_s150x150&_nc_ht=scontent-ord5-2.cdninstagram.com&_nc_cat=111&_nc_ohc=iPB6sSgETyEAX8DnJVN&edm=ABZsPhsBAAAA&ccb=7-5&oh=00_AfAUgmK3IFry6ahfVqL40jOXR0N7vvw-tMVD6qCNzARTWA&oe=638BD823&_nc_sid=4efc9f",
                        "username": "jan_in_nyc"
                    },
                    "user_id": 3056567867
                },
                {
                    "bit_flags": 0,
                    "content_type": "comment",
                    "created_at": 1669724628,
                    "created_at_utc": 1669724628,
                    "did_report_as_spam": false,
                    "is_covered": false,
                    "is_ranked_comment": false,
                    "media_id": 2980878543253226037,
                    "pk": 17914982966563978,
                    "private_reply_status": 0,
                    "share_enabled": false,
                    "status": "Active",
                    "text": "\ud83d\ude0d",
                    "type": 0,
                    "user": {
                        "full_name": "Lena Reich",
                        "is_private": false,
                        "is_verified": false,
                        "pk": 5848116702,
                        "pk_id": "5848116702",
                        "profile_pic_id": "2562668502039805227_5848116702",
                        "profile_pic_url": "https://scontent-ord5-2.cdninstagram.com/v/t51.2885-19/176012658_328832555308131_6062461309341468237_n.jpg?stp=dst-jpg_s150x150&_nc_ht=scontent-ord5-2.cdninstagram.com&_nc_cat=103&_nc_ohc=txpbRjSwF1kAX9a_KQt&edm=ABZsPhsBAAAA&ccb=7-5&oh=00_AfAQeLk4yEZOebtk_L4wqTO-u46rzsJ513e5z2fOA5EACA&oe=638B3ABF&_nc_sid=4efc9f",
                        "username": "_lena_220_"
                    },
                    "user_id": 5848116702
                }
            ],
            "commerce_integrity_review_decision": null,
            "commerciality_status": "not_commercial",
            "deleted_reason": 0,
            "device_timestamp": 1669568430967202,
            "facepile_top_likers": [],
            "filter_type": 0,
            "has_delayed_metadata": false,
            "has_liked": false,
            "has_more_comments": true,
            "has_shared_to_fb": 0,
            "hide_view_all_comment_entrypoint": false,
            "id": "2980878543253226037_32543011413",
            "integrity_review_decision": "pending",
            "is_artist_pick": false,
            "is_in_profile_grid": false,
            "is_organic_product_tagging_eligible": false,
            "is_paid_partnership": false,
            "is_unified_video": false,
            "is_visual_reply_commenter_notice_enabled": true,
            "lat": 52.4231,
            "like_and_view_counts_disabled": false,
            "like_count": 2578,
            "lng": 10.7872,
            "location": {
                "address": "",
                "city": "",
                "external_source": "facebook_places",
                "facebook_places_id": 114768665206881,
                "has_viewer_saved": false,
                "is_eligible_for_guides": true,
                "lat": 52.4231,
                "lng": 10.7872,
                "name": "Wolfsburg, Germany",
                "pk": 234297717,
                "short_name": "Wolfsburg"
            },
            "max_num_visible_preview_comments": 2,
            "media_type": 8,
            "music_metadata": {
                "audio_type": null,
                "music_canonical_id": "0",
                "music_info": null,
                "original_sound_info": null,
                "pinned_media_ids": null
            },
            "next_max_id": 17914982966563978,
            "organic_tracking_token": "eyJ2ZXJzaW9uIjo1LCJwYXlsb2FkIjp7ImlzX2FuYWx5dGljc190cmFja2VkIjp0cnVlLCJ1dWlkIjoiMzY2ZTVlYTkwMWMwNDljZjg2NTA0ZmNkODE5MWQ1YTAyOTgwODc4NTQzMjUzMjI2MDM3Iiwic2VydmVyX3Rva2VuIjoiMTY2OTczNTE0NTEzNXwyOTgwODc4NTQzMjUzMjI2MDM3fDE5MTI2NzkwMTl8ZTVkOTRlZThmOGJiMGVmOGJkYTI5MDMxZWQxMzUxMTBmNWQyOGE3NTYyNDFlODM0ZGRkODQ1MGRiMTc2Zjg5MSJ9LCJzaWduYXR1cmUiOiIifQ==",
            "original_media_has_visual_reply_media": false,
            "photo_of_you": false,
            "pk": 2980878543253226037,
            "preview_comments": [
                {
                    "bit_flags": 0,
                    "content_type": "comment",
                    "created_at": 1669721329,
                    "created_at_utc": 1669721329,
                    "did_report_as_spam": false,
                    "has_translation": true,
                    "is_covered": false,
                    "is_ranked_comment": false,
                    "media_id": 2980878543253226037,
                    "parent_comment_id": 18021976891451621,
                    "pk": 17972066809904757,
                    "private_reply_status": 0,
                    "share_enabled": false,
                    "status": "Active",
                    "text": "@lxnnham Sehr gern\u2026 \u00e4\u00e4\u00e4\u00e4h ich bekenne mich und schauuu gern hin :)))",
                    "type": 2,
                    "user": {
                        "full_name": "Jan Dominic Potthoff",
                        "is_private": true,
                        "is_verified": false,
                        "pk": 3056567867,
                        "pk_id": "3056567867",
                        "profile_pic_id": "2765229236912879224_3056567867",
                        "profile_pic_url": "https://scontent-ord5-2.cdninstagram.com/v/t51.2885-19/273209742_433274564941799_194800967876195133_n.jpg?stp=dst-jpg_s150x150&_nc_ht=scontent-ord5-2.cdninstagram.com&_nc_cat=111&_nc_ohc=iPB6sSgETyEAX8DnJVN&edm=ABZsPhsBAAAA&ccb=7-5&oh=00_AfAUgmK3IFry6ahfVqL40jOXR0N7vvw-tMVD6qCNzARTWA&oe=638BD823&_nc_sid=4efc9f",
                        "username": "jan_in_nyc"
                    },
                    "user_id": 3056567867
                },
                {
                    "bit_flags": 0,
                    "content_type": "comment",
                    "created_at": 1669724628,
                    "created_at_utc": 1669724628,
                    "did_report_as_spam": false,
                    "is_covered": false,
                    "is_ranked_comment": false,
                    "media_id": 2980878543253226037,
                    "pk": 17914982966563978,
                    "private_reply_status": 0,
                    "share_enabled": false,
                    "status": "Active",
                    "text": "\ud83d\ude0d",
                    "type": 0,
                    "user": {
                        "full_name": "Lena Reich",
                        "is_private": false,
                        "is_verified": false,
                        "pk": 5848116702,
                        "pk_id": "5848116702",
                        "profile_pic_id": "2562668502039805227_5848116702",
                        "profile_pic_url": "https://scontent-ord5-2.cdninstagram.com/v/t51.2885-19/176012658_328832555308131_6062461309341468237_n.jpg?stp=dst-jpg_s150x150&_nc_ht=scontent-ord5-2.cdninstagram.com&_nc_cat=103&_nc_ohc=txpbRjSwF1kAX9a_KQt&edm=ABZsPhsBAAAA&ccb=7-5&oh=00_AfAQeLk4yEZOebtk_L4wqTO-u46rzsJ513e5z2fOA5EACA&oe=638B3ABF&_nc_sid=4efc9f",
                        "username": "_lena_220_"
                    },
                    "user_id": 5848116702
                }
            ],
            "product_type": "carousel_container",
            "profile_grid_control_enabled": false,
            "sharing_friction_info": {
                "bloks_app_url": null,
                "sharing_friction_payload": null,
                "should_have_sharing_friction": false
            },
            "should_request_ads": false,
            "taken_at": 1669568435,
            "top_likers": [],
            "user": {
                "account_badges": [],
                "fan_club_info": {
                    "fan_club_id": null,
                    "fan_club_name": null,
                    "fan_consideration_page_revamp_eligiblity": null,
                    "is_fan_club_gifting_eligible": null,
                    "is_fan_club_referral_eligible": null
                },
                "friendship_status": {
                    "following": false,
                    "is_bestie": false,
                    "is_feed_favorite": false,
                    "is_restricted": false,
                    "outgoing_request": false
                },
                "full_name": "LXN",
                "has_anonymous_profile_picture": false,
                "has_highlight_reels": false,
                "is_favorite": false,
                "is_private": false,
                "is_unpublished": false,
                "pk": 32543011413,
                "pk_id": "32543011413",
                "profile_pic_id": "2963657684427524392_32543011413",
                "profile_pic_url": "https://scontent-ord5-2.cdninstagram.com/v/t51.2885-19/314071006_1481898442298765_7312414859344655683_n.jpg?stp=dst-jpg_s150x150&_nc_ht=scontent-ord5-2.cdninstagram.com&_nc_cat=105&_nc_ohc=-HStmCBracgAX8YIILv&edm=ABZsPhsBAAAA&ccb=7-5&oh=00_AfB_DPqfnzbLWxu9mb4hnGpBCypBnPfhMwdJtFMo1WNEHQ&oe=638A664E&_nc_sid=4efc9f",
                "transparency_product_enabled": false,
                "username": "lxnnham"
            },
            "usertags": {
                "in": [
                    {
                        "duration_in_video_in_sec": null,
                        "position": [
                            0.9111111111,
                            0.9836601298
                        ],
                        "start_time_in_video_in_sec": null,
                        "user": {
                            "full_name": "Dalia Mya",
                            "is_private": false,
                            "is_verified": true,
                            "pk": 367195403,
                            "pk_id": "367195403",
                            "profile_pic_id": "2941891514654317493_367195403",
                            "profile_pic_url": "https://scontent-ord5-2.cdninstagram.com/v/t51.2885-19/310346947_855102712169410_9048035672571302762_n.jpg?stp=dst-jpg_s150x150&_nc_ht=scontent-ord5-2.cdninstagram.com&_nc_cat=1&_nc_ohc=fnzhLFOqMTAAX9Z4atJ&edm=ABZsPhsBAAAA&ccb=7-5&oh=00_AfBt2t6jhYsTrSeJmMZOlJPdpjlOfgkGZDKFQY2FzhJs3g&oe=638C08DB&_nc_sid=4efc9f",
                            "username": "dalia"
                        }
                    },
                    {
                        "duration_in_video_in_sec": null,
                        "position": [
                            0.8974358974,
                            0.9836601298
                        ],
                        "start_time_in_video_in_sec": null,
                        "user": {
                            "full_name": "DENNIS",
                            "is_private": false,
                            "is_verified": false,
                            "pk": 1315407109,
                            "pk_id": "1315407109",
                            "profile_pic_id": "2803822047819531032_1315407109",
                            "profile_pic_url": "https://scontent-ord5-2.cdninstagram.com/v/t51.2885-19/277400293_1636792466660503_1202840026760430760_n.jpg?stp=dst-jpg_s150x150&_nc_ht=scontent-ord5-2.cdninstagram.com&_nc_cat=107&_nc_ohc=dwE0Ait1V9kAX8Ehnby&tn=bFlNyZiOPtsFOL2_&edm=ABZsPhsBAAAA&ccb=7-5&oh=00_AfBnqQ-Qvgc8sE924uEALvkWMoSQqM_ksPZt03uMF90IwQ&oe=638B9AF7&_nc_sid=4efc9f",
                            "username": "dennis.grom"
                        }
                    },
                    {
                        "duration_in_video_in_sec": null,
                        "position": [
                            0.9346405193,
                            0.9836601298
                        ],
                        "start_time_in_video_in_sec": null,
                        "user": {
                            "full_name": "\u2800\u2800\u2800\u2800 \u2800\u2800\u2800\u2800  \u2800\u2800\u2800\u2800   \ud83c\udf38 Liss \ud83c\udf38",
                            "is_private": false,
                            "is_verified": false,
                            "pk": 1576089119,
                            "pk_id": "1576089119",
                            "profile_pic_id": "2878798583026293733_1576089119",
                            "profile_pic_url": "https://scontent-ord5-2.cdninstagram.com/v/t51.2885-19/292787981_1746935632340390_4432149876654466061_n.jpg?stp=dst-jpg_s150x150&_nc_ht=scontent-ord5-2.cdninstagram.com&_nc_cat=102&_nc_ohc=rx7Xq9sMw5EAX_Zroao&tn=bFlNyZiOPtsFOL2_&edm=ABZsPhsBAAAA&ccb=7-5&oh=00_AfCYC-S3rZ2kZN-KjD3fQ0qq-Ic9XX4A0MpGdg_6dX1daw&oe=638A7A75&_nc_sid=4efc9f",
                            "username": "liss.thl"
                        }
                    },
                    {
                        "duration_in_video_in_sec": null,
                        "position": [
                            0.9346405193,
                            0.9836601298
                        ],
                        "start_time_in_video_in_sec": null,
                        "user": {
                            "full_name": "L I S A",
                            "is_private": false,
                            "is_verified": false,
                            "pk": 2186451420,
                            "pk_id": "2186451420",
                            "profile_pic_id": "2820559613109473264_2186451420",
                            "profile_pic_url": "https://scontent-ord5-2.cdninstagram.com/v/t51.2885-19/278730095_2571972052935565_6497715815080866846_n.jpg?stp=dst-jpg_s150x150&_nc_ht=scontent-ord5-2.cdninstagram.com&_nc_cat=101&_nc_ohc=MDh8yeZL-4kAX9GiRZU&edm=ABZsPhsBAAAA&ccb=7-5&oh=00_AfD6mNOstmEHafgOwyOfxiUcEoIrn3PaG4WOan0a-lSD9Q&oe=638B6E14&_nc_sid=4efc9f",
                            "username": "lisa.lth"
                        }
                    },
                    {
                        "duration_in_video_in_sec": null,
                        "position": [
                            0.9346405193,
                            0.9836601298
                        ],
                        "start_time_in_video_in_sec": null,
                        "user": {
                            "full_name": "Marlon\ud83e\udd8b",
                            "is_private": false,
                            "is_verified": false,
                            "pk": 3506206246,
                            "pk_id": "3506206246",
                            "profile_pic_id": "2980023166819350409_3506206246",
                            "profile_pic_url": "https://scontent-ord5-2.cdninstagram.com/v/t51.2885-19/316859892_139357245564516_1906518120796691277_n.jpg?stp=dst-jpg_s150x150&_nc_ht=scontent-ord5-2.cdninstagram.com&_nc_cat=100&_nc_ohc=gA7zu2PrjBsAX_iX2X6&tn=bFlNyZiOPtsFOL2_&edm=ABZsPhsBAAAA&ccb=7-5&oh=00_AfAIvJ0fXCXFoOXlpeAgcfuw-WLBsqZuaxQC_yGb90sZ9Q&oe=638AE292&_nc_sid=4efc9f",
                            "username": "marlonxms"
                        }
                    },
                    {
                        "duration_in_video_in_sec": null,
                        "position": [
                            0.9346405193,
                            0.9836601298
                        ],
                        "start_time_in_video_in_sec": null,
                        "user": {
                            "full_name": "Gerit",
                            "is_private": false,
                            "is_verified": false,
                            "pk": 5377551667,
                            "pk_id": "5377551667",
                            "profile_pic_id": "2743264519843203446_5377551667",
                            "profile_pic_url": "https://scontent-ord5-2.cdninstagram.com/v/t51.2885-19/271150604_605826580652779_7003146484036128888_n.jpg?stp=dst-jpg_s150x150&_nc_ht=scontent-ord5-2.cdninstagram.com&_nc_cat=107&_nc_ohc=NX4Cqvfedh4AX-zef4g&edm=ABZsPhsBAAAA&ccb=7-5&oh=00_AfAvMI153GdTsZcngZzu3TDXxsSlJ__m6TTIOwXornB29w&oe=638BC782&_nc_sid=4efc9f",
                            "username": "garrysecret"
                        }
                    },
                    {
                        "duration_in_video_in_sec": null,
                        "position": [
                            0.9346405193,
                            0.9836601298
                        ],
                        "start_time_in_video_in_sec": null,
                        "user": {
                            "full_name": "Patrick | Fashion | Motivation",
                            "is_private": false,
                            "is_verified": false,
                            "pk": 5958136830,
                            "pk_id": "5958136830",
                            "profile_pic_id": "2943188459578084400_5958136830",
                            "profile_pic_url": "https://scontent-ord5-2.cdninstagram.com/v/t51.2885-19/310689358_2307847599379816_7745653547066424305_n.jpg?stp=dst-jpg_s150x150&_nc_ht=scontent-ord5-2.cdninstagram.com&_nc_cat=104&_nc_ohc=ePjwkQIMJhMAX-gO0yD&edm=ABZsPhsBAAAA&ccb=7-5&oh=00_AfAg3v1jhsekVVvf97QB6KeZ7AnveslY6EnJGRrSw-yYxw&oe=638A7F3E&_nc_sid=4efc9f",
                            "username": "patricklsr"
                        }
                    },
                    {
                        "duration_in_video_in_sec": null,
                        "position": [
                            0.9346405193,
                            0.9836601298
                        ],
                        "start_time_in_video_in_sec": null,
                        "user": {
                            "full_name": "Trixi Giese",
                            "is_private": false,
                            "is_verified": true,
                            "pk": 6911478217,
                            "pk_id": "6911478217",
                            "profile_pic_id": "2963371115175600445_6911478217",
                            "profile_pic_url": "https://scontent-ord5-2.cdninstagram.com/v/t51.2885-19/313917915_596618905552332_6490178649009647228_n.jpg?stp=dst-jpg_s150x150&_nc_ht=scontent-ord5-2.cdninstagram.com&_nc_cat=100&_nc_ohc=XqQrgL0cYdUAX-OMdD3&edm=ABZsPhsBAAAA&ccb=7-5&oh=00_AfAokOolFSu_9kRruHXE-b2QrE5DFyLUzeOnaCpc-IyLEg&oe=638B79BA&_nc_sid=4efc9f",
                            "username": "trixigiese"
                        }
                    },
                    {
                        "duration_in_video_in_sec": null,
                        "position": [
                            0.9188034188,
                            0.9836601298
                        ],
                        "start_time_in_video_in_sec": null,
                        "user": {
                            "full_name": "! Tim",
                            "is_private": false,
                            "is_verified": false,
                            "pk": 7847074068,
                            "pk_id": "7847074068",
                            "profile_pic_id": "2878019049465367300_7847074068",
                            "profile_pic_url": "https://scontent-ord5-2.cdninstagram.com/v/t51.2885-19/292530114_162040866364742_3210819160716312414_n.jpg?stp=dst-jpg_s150x150&_nc_ht=scontent-ord5-2.cdninstagram.com&_nc_cat=102&_nc_ohc=BuhrqUw1QGoAX97lsS0&edm=ABZsPhsBAAAA&ccb=7-5&oh=00_AfBuGUQ6tfc7P3DxKxUvdESFuWQJ7uTGYynFrWIUJdgncQ&oe=638B2A5E&_nc_sid=4efc9f",
                            "username": "_tim_s5"
                        }
                    },
                    {
                        "duration_in_video_in_sec": null,
                        "position": [
                            0.9346405193,
                            0.9836601298
                        ],
                        "start_time_in_video_in_sec": null,
                        "user": {
                            "full_name": "Tommy",
                            "is_private": false,
                            "is_verified": false,
                            "pk": 18746496792,
                            "pk_id": "18746496792",
                            "profile_pic_id": "2982275938326912676_18746496792",
                            "profile_pic_url": "https://scontent-ord5-2.cdninstagram.com/v/t51.2885-19/317378334_699802131388035_942654108758241440_n.jpg?stp=dst-jpg_s150x150&_nc_ht=scontent-ord5-2.cdninstagram.com&_nc_cat=103&_nc_ohc=BTY14cc_2DkAX-_-CqS&edm=ABZsPhsBAAAA&ccb=7-5&oh=00_AfAfU9MSqKJvT0wMs2QkLTBIbzqzgkBNaZ5PhO2Rlqgq8g&oe=638BE274&_nc_sid=4efc9f",
                            "username": "tommykucht"
                        }
                    },
                    {
                        "duration_in_video_in_sec": null,
                        "position": [
                            0.9188034188,
                            0.9836601298
                        ],
                        "start_time_in_video_in_sec": null,
                        "user": {
                            "full_name": "\ud83e\udd0d~\ud835\udc3d\ud835\udc34\ud835\udc41\ud835\udc41\ud835\udc38\ud835\udc46~\ud83e\udd0d",
                            "is_private": false,
                            "is_verified": false,
                            "pk": 21790889521,
                            "pk_id": "21790889521",
                            "profile_pic_id": "2981449841121430830_21790889521",
                            "profile_pic_url": "https://scontent-ord5-2.cdninstagram.com/v/t51.2885-19/317233837_123871393854577_3978540693710071780_n.jpg?stp=dst-jpg_s150x150&_nc_ht=scontent-ord5-2.cdninstagram.com&_nc_cat=101&_nc_ohc=e8ppwRcMn8MAX8XZViI&edm=ABZsPhsBAAAA&ccb=7-5&oh=00_AfDAzdMcPvjgqIbMLIByfoUbjPz7AFyQAgVS9HcyhG5Gdg&oe=638A7088&_nc_sid=4efc9f",
                            "username": "jannes_3_"
                        }
                    },
                    {
                        "duration_in_video_in_sec": null,
                        "position": [
                            0.9346405193,
                            0.9836601298
                        ],
                        "start_time_in_video_in_sec": null,
                        "user": {
                            "full_name": "\ud835\udca5\ud835\udc5c\ud835\udcca\ud835\udc52\ud835\udcc7\ud835\udcb9\ud835\udcbe\ud835\udcc8/\ud835\udc5a\ud835\udc66 \ud835\udc5b\ud835\udc4e\ud835\udc5a\ud835\udc52: \ud835\udc57\ud835\udc5c\u0308\ud835\udc5f\ud835\udc51\ud835\udc56\ud835\udc60",
                            "is_private": false,
                            "is_verified": false,
                            "pk": 30352033763,
                            "pk_id": "30352033763",
                            "profile_pic_id": "2930180005809030845_30352033763",
                            "profile_pic_url": "https://scontent-ord5-2.cdninstagram.com/v/t51.2885-19/307451261_408101258104918_5803003740046084944_n.jpg?stp=dst-jpg_s150x150&_nc_ht=scontent-ord5-2.cdninstagram.com&_nc_cat=110&_nc_ohc=1at_Z2w5BIQAX-WESBP&edm=ABZsPhsBAAAA&ccb=7-5&oh=00_AfBXjNe-7N6mR__P-xNP6Yh2hdPRfpIASxTwv-ZbXdftJA&oe=638B1212&_nc_sid=4efc9f",
                            "username": "jouerdis"
                        }
                    },
                    {
                        "duration_in_video_in_sec": null,
                        "position": [
                            0.9346405193,
                            0.8760683761
                        ],
                        "start_time_in_video_in_sec": null,
                        "user": {
                            "full_name": "D a v i d \u2649\ufe0f",
                            "is_private": false,
                            "is_verified": false,
                            "pk": 54511501008,
                            "pk_id": "54511501008",
                            "profile_pic_id": "2966309731102814667_54511501008",
                            "profile_pic_url": "https://scontent-ord5-2.cdninstagram.com/v/t51.2885-19/314458386_474538021324998_3131801453268403257_n.jpg?stp=dst-jpg_s150x150&_nc_ht=scontent-ord5-2.cdninstagram.com&_nc_cat=106&_nc_ohc=Eg0B0VujWZMAX8YULCZ&edm=ABZsPhsBAAAA&ccb=7-5&oh=00_AfCEeFCHW_dIqQUOP6Xia1G2fo3MSCKhKwMvhyXRUi4u5Q&oe=638B2165&_nc_sid=4efc9f",
                            "username": "davidraphii"
                        }
                    }
                ]
            }
        },
        "is_video": false,
        "owner": {
            "full_name": "LXN",
            "id": 32543011413,
            "iphone_struct": {
                "account_badges": [],
                "fan_club_info": {
                    "fan_club_id": null,
                    "fan_club_name": null,
                    "fan_consideration_page_revamp_eligiblity": null,
                    "is_fan_club_gifting_eligible": null,
                    "is_fan_club_referral_eligible": null
                },
                "friendship_status": {
                    "following": false,
                    "is_bestie": false,
                    "is_feed_favorite": false,
                    "is_restricted": false,
                    "outgoing_request": false
                },
                "full_name": "LXN",
                "has_anonymous_profile_picture": false,
                "has_highlight_reels": false,
                "is_favorite": false,
                "is_private": false,
                "is_unpublished": false,
                "pk": 32543011413,
                "pk_id": "32543011413",
                "profile_pic_id": "2963657684427524392_32543011413",
                "profile_pic_url": "https://scontent-ord5-2.cdninstagram.com/v/t51.2885-19/314071006_1481898442298765_7312414859344655683_n.jpg?stp=dst-jpg_s150x150&_nc_ht=scontent-ord5-2.cdninstagram.com&_nc_cat=105&_nc_ohc=-HStmCBracgAX8YIILv&edm=ABZsPhsBAAAA&ccb=7-5&oh=00_AfB_DPqfnzbLWxu9mb4hnGpBCypBnPfhMwdJtFMo1WNEHQ&oe=638A664E&_nc_sid=4efc9f",
                "transparency_product_enabled": false,
                "username": "lxnnham"
            },
            "is_private": false,
            "profile_pic_url_hd": "https://scontent-ord5-2.cdninstagram.com/v/t51.2885-19/314071006_1481898442298765_7312414859344655683_n.jpg?stp=dst-jpg_s150x150&_nc_ht=scontent-ord5-2.cdninstagram.com&_nc_cat=105&_nc_ohc=-HStmCBracgAX8YIILv&edm=ABZsPhsBAAAA&ccb=7-5&oh=00_AfB_DPqfnzbLWxu9mb4hnGpBCypBnPfhMwdJtFMo1WNEHQ&oe=638A664E&_nc_sid=4efc9f",
            "username": "lxnnham"
        },
        "shortcode": "CleNT3hMUI1",
        "title": null,
        "viewer_has_liked": false
    }
}