{
    "instaloader": {
        "node_type": "Post",
        "version": "4.9.5"
    },
    "node": {
        "__typename": "GraphSidecar",
        "caption": "#dress #fashion #style #ootd #love\n#gamis #dresses #outfit #shopping #dressmurah\n#model #instagood #instafashion #beauty\n#fashionblogger #beautiful #fashionstyle #moda\n#fashionista #onlineshopping #like #bajumurah\n#tunik #blouse #girl #hijab #wedding #gamismurah\n#shoes #clothes",
        "date": 1669825009,
        "edge_media_preview_like": {
            "count": 932
        },
        "edge_sidecar_to_children": {
            "edges": [
                {
                    "node": {
                        "display_url": "https://scontent-ord5-2.cdninstagram.com/v/t51.2885-15/317519199_118936747699052_2048304988181585086_n.webp?stp=dst-jpg_e35&_nc_ht=scontent-ord5-2.cdninstagram.com&_nc_cat=108&_nc_ohc=63oBFM_W1FgAX9q2tsE&edm=ABZsPhsBAAAA&ccb=7-5&ig_cache_key=Mjk4MzAzMDgzNjE2NjIyNjY1NA%3D%3D.2-ccb7-5&oh=00_AfA3fzZKBzDBEUW64r--q5bagEQHc6Bt4DTapjeLn2uCgA&oe=638CD3F4&_nc_sid=4efc9f",
                        "is_video": false
                    }
                },
                {
                    "node": {
                        "display_url": "https://scontent-ord5-2.cdninstagram.com/v/t51.2885-15/317606493_546408244015469_8015493470420903308_n.webp?stp=dst-jpg_e35&_nc_ht=scontent-ord5-2.cdninstagram.com&_nc_cat=105&_nc_ohc=KlHktunXBKcAX_2sjg8&tn=bFlNyZiOPtsFOL2_&edm=ABZsPhsBAAAA&ccb=7-5&ig_cache_key=Mjk4MzAzMDgzNTk3MzI1NjYyMw%3D%3D.2-ccb7-5&oh=00_AfBEwPDqPkswa2M_El-iHaIxeVrgBviuIuvJsbQG0odjKA&oe=638C8C66&_nc_sid=4efc9f",
                        "is_video": false
                    }
                },
                {
                    "node": {
                        "display_url": "https://scontent-ord5-2.cdninstagram.com/v/t51.2885-15/317480942_1864545773900279_4857788729144470756_n.webp?stp=dst-jpg_e35&_nc_ht=scontent-ord5-2.cdninstagram.com&_nc_cat=111&_nc_ohc=IQ3lwQtvf7YAX9aTMsf&edm=ABZsPhsBAAAA&ccb=7-5&ig_cache_key=Mjk4MzAzMDgzNjE1NzgyOTIwMQ%3D%3D.2-ccb7-5&oh=00_AfADVGeYJ_CCgbTg1Spj3kpi_Pa5JBKOD5Q72dpv9UH4Mw&oe=638D8A31&_nc_sid=4efc9f",
                        "is_video": false
                    }
                },
                {
                    "node": {
                        "display_url": "https://scontent-ord5-2.cdninstagram.com/v/t51.2885-15/317290128_634732295063062_5109591410104075639_n.webp?stp=dst-jpg_e35&_nc_ht=scontent-ord5-2.cdninstagram.com&_nc_cat=110&_nc_ohc=YUSoXoSKAu8AX8iBfTR&tn=bFlNyZiOPtsFOL2_&edm=ABZsPhsBAAAA&ccb=7-5&ig_cache_key=Mjk4MzAzMDgzNTk3MzMwMTg4Nw%3D%3D.2-ccb7-5&oh=00_AfCvQbDgfwK8_HV7QPVWYHptImMLi-SM0rmZRq1CuWVTsA&oe=638DBA15&_nc_sid=4efc9f",
                        "is_video": false
                    }
                },
                {
                    "node": {
                        "display_url": "https://scontent-ord5-2.cdninstagram.com/v/t51.2885-15/317363946_121107927475655_57280894521818464_n.webp?stp=dst-jpg_e35&_nc_ht=scontent-ord5-2.cdninstagram.com&_nc_cat=111&_nc_ohc=5ihiSG7K-D8AX9WJalk&tn=bFlNyZiOPtsFOL2_&edm=ABZsPhsBAAAA&ccb=7-5&ig_cache_key=Mjk4MzAzMDgzNTk2NDk2Mzg2Mw%3D%3D.2-ccb7-5&oh=00_AfCBsivD9tHmI3ym-BemBPgw4V5UCfxQ9URYu2ZVcbV1zA&oe=638C5D96&_nc_sid=4efc9f",
                        "is_video": false
                    }
                },
                {
                    "node": {
                        "display_url": "https://scontent-ord5-2.cdninstagram.com/v/t51.2885-15/317778002_511366554273000_7699618731367629422_n.webp?stp=dst-jpg_e35&_nc_ht=scontent-ord5-2.cdninstagram.com&_nc_cat=100&_nc_ohc=TgyEWYxuoW8AX8cWmp-&edm=ABZsPhsBAAAA&ccb=7-5&ig_cache_key=Mjk4MzAzMDgzNTk4OTk3NjY1OA%3D%3D.2-ccb7-5&oh=00_AfB4TeYryZ2SYub9kXatZimbr1qdLC4tEsPPy55Hm960hw&oe=638CC306&_nc_sid=4efc9f",
                        "is_video": false
                    }
                },
                {
                    "node": {
                        "display_url": "https://scontent-ord5-2.cdninstagram.com/v/t51.2885-15/317369825_646939963805526_6259118207363766191_n.webp?stp=dst-jpg_e35&_nc_ht=scontent-ord5-2.cdninstagram.com&_nc_cat=106&_nc_ohc=4ykLJ6D7tXwAX84xU3Y&edm=ABZsPhsBAAAA&ccb=7-5&ig_cache_key=Mjk4MzAzMDgzNTk3MzM0MTA2NA%3D%3D.2-ccb7-5&oh=00_AfCG-W74j0qjmZi5-yFPEpntg7CmSoqsrglHYFMIQjM5tw&oe=638CA50D&_nc_sid=4efc9f",
                        "is_video": false
                    }
                },
                {
                    "node": {
                        "display_url": "https://scontent-ord5-2.cdninstagram.com/v/t51.2885-15/317373459_198882395936282_6821552810925951334_n.webp?stp=dst-jpg_e35&_nc_ht=scontent-ord5-2.cdninstagram.com&_nc_cat=102&_nc_ohc=Zwp4cYE7DucAX8W6fJ7&edm=ABZsPhsBAAAA&ccb=7-5&ig_cache_key=Mjk4MzAzMDgzNTk3MzM2NjQ3Mw%3D%3D.2-ccb7-5&oh=00_AfB4zg1f56Z_69VW5rJssUV0YqDRbDTivtLB2NxxbZmd4A&oe=638CD91A&_nc_sid=4efc9f",
                        "is_video": false
                    }
                },
                {
                    "node": {
                        "display_url": "https://scontent-ord5-2.cdninstagram.com/v/t51.2885-15/317507648_1222974988259904_5888170816160818817_n.webp?stp=dst-jpg_e35&_nc_ht=scontent-ord5-2.cdninstagram.com&_nc_cat=100&_nc_ohc=7skfQBHw5SIAX92TQ_q&edm=ABZsPhsBAAAA&ccb=7-5&ig_cache_key=Mjk4MzAzMDgzNTk3MzQwNDcyNw%3D%3D.2-ccb7-5&oh=00_AfBVuzMsfyou2XtjoRLmjJg58U04N0sug1rptxEiv-9jyA&oe=638D1690&_nc_sid=4efc9f",
                        "is_video": false
                    }
                },
                {
                    "node": {
                        "display_url": "https://scontent-ord5-2.cdninstagram.com/v/t51.2885-15/317287690_702479317756185_85400582734966600_n.webp?stp=dst-jpg_e35&_nc_ht=scontent-ord5-2.cdninstagram.com&_nc_cat=109&_nc_ohc=liaLPRZh5QcAX-jPovz&tn=bFlNyZiOPtsFOL2_&edm=ABZsPhsBAAAA&ccb=7-5&ig_cache_key=Mjk4MzAzMDgzNTk3MzQ1MDE3NQ%3D%3D.2-ccb7-5&oh=00_AfAQQ1fV4Domg2CKMWDum0FEz-gtCLbG5uGubsAOKvshOA&oe=638D634F&_nc_sid=4efc9f",
                        "is_video": false
                    }
                }
            ]
        },
        "id": 2983030842852080019,
        "iphone_struct": {
            "can_see_insights_as_brand": false,
            "can_view_more_preview_comments": true,
            "can_viewer_reshare": true,
            "can_viewer_save": true,
            "caption": {
                "bit_flags": 0,
                "content_type": "comment",
                "created_at": 1669825010,
                "created_at_utc": 1669825010,
                "did_report_as_spam": false,
                "is_covered": false,
                "is_ranked_comment": false,
                "media_id": 2983030842852080019,
                "pk": 18338587477021892,
                "private_reply_status": 0,
                "share_enabled": false,
                "status": "Active",
                "text": "#dress #fashion #style #ootd #love\n#gamis #dresses #outfit #shopping #dressmurah\n#model #instagood #instafashion #beauty\n#fashionblogger #beautiful #fashionstyle #moda\n#fashionista #onlineshopping #like #bajumurah\n#tunik #blouse #girl #hijab #wedding #gamismurah\n#shoes #clothes",
                "type": 1,
                "user": {
                    "full_name": "Fashion Bazar",
                    "is_private": false,
                    "is_verified": false,
                    "pk": 50500858917,
                    "pk_id": "50500858917",
                    "profile_pic_id": "2837714405573076941_50500858917",
                    "profile_pic_url": "https://scontent-ord5-2.cdninstagram.com/v/t51.2885-19/280650939_275367561396931_1445780747856345638_n.jpg?stp=dst-jpg_s150x150&_nc_ht=scontent-ord5-2.cdninstagram.com&_nc_cat=1&_nc_ohc=Oc7sgKFfI-wAX_HuESl&edm=ABZsPhsBAAAA&ccb=7-5&oh=00_AfB2zwVQlsOwYB_ERgQlcDnpdwTm4SDTWA8ncyD9tY07Yw&oe=638C3FAF&_nc_sid=4efc9f",
                    "username": "fashion_girl1.123"
                },
                "user_id": 50500858917
            },
            "caption_is_edited": false,
            "carousel_media": [
                {
                    "carousel_parent_id": "2983030842852080019_50500858917",
                    "commerciality_status": "not_commercial",
                    "id": "2983030836166226654_50500858917",
                    "image_versions2": {
                        "candidates": [
                            {
                                "height": 720,
                                "url": "https://scontent-ord5-2.cdninstagram.com/v/t51.2885-15/317519199_118936747699052_2048304988181585086_n.webp?stp=dst-jpg_e35&_nc_ht=scontent-ord5-2.cdninstagram.com&_nc_cat=108&_nc_ohc=63oBFM_W1FgAX9q2tsE&edm=ABZsPhsBAAAA&ccb=7-5&ig_cache_key=Mjk4MzAzMDgzNjE2NjIyNjY1NA%3D%3D.2-ccb7-5&oh=00_AfA3fzZKBzDBEUW64r--q5bagEQHc6Bt4DTapjeLn2uCgA&oe=638CD3F4&_nc_sid=4efc9f",
                                "width": 720
                            },
                            {
                                "height": 640,
                                "url": "https://scontent-ord5-2.cdninstagram.com/v/t51.2885-15/317519199_118936747699052_2048304988181585086_n.webp?stp=dst-jpg_e35_s640x640_sh0.08&_nc_ht=scontent-ord5-2.cdninstagram.com&_nc_cat=108&_nc_ohc=63oBFM_W1FgAX9q2tsE&edm=ABZsPhsBAAAA&ccb=7-5&ig_cache_key=Mjk4MzAzMDgzNjE2NjIyNjY1NA%3D%3D.2-ccb7-5&oh=00_AfAKY2Z2dr0UZH_WOjLdKRHsMieqA8hmwwxX8jlaJERyKw&oe=638CD3F4&_nc_sid=4efc9f",
                                "width": 640
                            },
                            {
                                "height": 480,
                                "url": "https://scontent-ord5-2.cdninstagram.com/v/t51.2885-15/317519199_118936747699052_2048304988181585086_n.webp?stp=dst-jpg_e35_s480x480&_nc_ht=scontent-ord5-2.cdninstagram.com&_nc_cat=108&_nc_ohc=63oBFM_W1FgAX9q2tsE&edm=ABZsPhsBAAAA&ccb=7-5&ig_cache_key=Mjk4MzAzMDgzNjE2NjIyNjY1NA%3D%3D.2-ccb7-5&oh=00_AfAtfyTcyp6QhKWqwrwW7DcBmsDYqM7aMS_ej31ZONeajg&oe=638CD3F4&_nc_sid=4efc9f",
                                "width": 480
                            },
                            {
                                "height": 320,
                                "url": "https://scontent-ord5-2.cdninstagram.com/v/t51.2885-15/317519199_118936747699052_2048304988181585086_n.webp?stp=dst-jpg_e35_s320x320&_nc_ht=scontent-ord5-2.cdninstagram.com&_nc_cat=108&_nc_ohc=63oBFM_W1FgAX9q2tsE&edm=ABZsPhsBAAAA&ccb=7-5&ig_cache_key=Mjk4MzAzMDgzNjE2NjIyNjY1NA%3D%3D.2-ccb7-5&oh=00_AfCgDqmruLv05hOmkIfbCYuLfSY4mNRcd2l5IugZU646sg&oe=638CD3F4&_nc_sid=4efc9f",
                                "width": 320
                            },
                            {
                                "height": 240,
                                "url": "https://scontent-ord5-2.cdninstagram.com/v/t51.2885-15/317519199_118936747699052_2048304988181585086_n.webp?stp=dst-jpg_e35_s240x240&_nc_ht=scontent-ord5-2.cdninstagram.com&_nc_cat=108&_nc_ohc=63oBFM_W1FgAX9q2tsE&edm=ABZsPhsBAAAA&ccb=7-5&ig_cache_key=Mjk4MzAzMDgzNjE2NjIyNjY1NA%3D%3D.2-ccb7-5&oh=00_AfARjkPnfWEXyXeHs-qf4jXxbjfl-5NrqBLM7bb_mE42AQ&oe=638CD3F4&_nc_sid=4efc9f",
                                "width": 240
                            },
                            {
                                "height": 1080,
                                "url": "https://scontent-ord5-2.cdninstagram.com/v/t51.2885-15/317519199_118936747699052_2048304988181585086_n.webp?stp=dst-jpg_e35&_nc_ht=scontent-ord5-2.cdninstagram.com&_nc_cat=108&_nc_ohc=63oBFM_W1FgAX9q2tsE&edm=ABZsPhsBAAAA&ccb=7-5&ig_cache_key=Mjk4MzAzMDgzNjE2NjIyNjY1NA%3D%3D.2-ccb7-5&oh=00_AfA3fzZKBzDBEUW64r--q5bagEQHc6Bt4DTapjeLn2uCgA&oe=638CD3F4&_nc_sid=4efc9f",
                                "width": 1080
                            },
                            {
                                "height": 750,
                                "url": "https://scontent-ord5-2.cdninstagram.com/v/t51.2885-15/317519199_118936747699052_2048304988181585086_n.webp?stp=dst-jpg_e35&_nc_ht=scontent-ord5-2.cdninstagram.com&_nc_cat=108&_nc_ohc=63oBFM_W1FgAX9q2tsE&edm=ABZsPhsBAAAA&ccb=7-5&ig_cache_key=Mjk4MzAzMDgzNjE2NjIyNjY1NA%3D%3D.2-ccb7-5&oh=00_AfA3fzZKBzDBEUW64r--q5bagEQHc6Bt4DTapjeLn2uCgA&oe=638CD3F4&_nc_sid=4efc9f",
                                "width": 750
                            },
                            {
                                "height": 640,
                                "url": "https://scontent-ord5-2.cdninstagram.com/v/t51.2885-15/317519199_118936747699052_2048304988181585086_n.webp?stp=dst-jpg_e35_s640x640_sh0.08&_nc_ht=scontent-ord5-2.cdninstagram.com&_nc_cat=108&_nc_ohc=63oBFM_W1FgAX9q2tsE&edm=ABZsPhsBAAAA&ccb=7-5&ig_cache_key=Mjk4MzAzMDgzNjE2NjIyNjY1NA%3D%3D.2-ccb7-5&oh=00_AfAKY2Z2dr0UZH_WOjLdKRHsMieqA8hmwwxX8jlaJERyKw&oe=638CD3F4&_nc_sid=4efc9f",
                                "width": 640
                            },
                            {
                                "height": 480,
                                "url": "https://scontent-ord5-2.cdninstagram.com/v/t51.2885-15/317519199_118936747699052_2048304988181585086_n.webp?stp=dst-jpg_e35_s480x480&_nc_ht=scontent-ord5-2.cdninstagram.com&_nc_cat=108&_nc_ohc=63oBFM_W1FgAX9q2tsE&edm=ABZsPhsBAAAA&ccb=7-5&ig_cache_key=Mjk4MzAzMDgzNjE2NjIyNjY1NA%3D%3D.2-ccb7-5&oh=00_AfAtfyTcyp6QhKWqwrwW7DcBmsDYqM7aMS_ej31ZONeajg&oe=638CD3F4&_nc_sid=4efc9f",
                                "width": 480
                            },
                            {
                                "height": 320,
                                "url": "https://scontent-ord5-2.cdninstagram.com/v/t51.2885-15/317519199_118936747699052_2048304988181585086_n.webp?stp=dst-jpg_e35_s320x320&_nc_ht=scontent-ord5-2.cdninstagram.com&_nc_cat=108&_nc_ohc=63oBFM_W1FgAX9q2tsE&edm=ABZsPhsBAAAA&ccb=7-5&ig_cache_key=Mjk4MzAzMDgzNjE2NjIyNjY1NA%3D%3D.2-ccb7-5&oh=00_AfCgDqmruLv05hOmkIfbCYuLfSY4mNRcd2l5IugZU646sg&oe=638CD3F4&_nc_sid=4efc9f",
                                "width": 320
                            },
                            {
                                "height": 240,
                                "url": "https://scontent-ord5-2.cdninstagram.com/v/t51.2885-15/317519199_118936747699052_2048304988181585086_n.webp?stp=dst-jpg_e35_s240x240&_nc_ht=scontent-ord5-2.cdninstagram.com&_nc_cat=108&_nc_ohc=63oBFM_W1FgAX9q2tsE&edm=ABZsPhsBAAAA&ccb=7-5&ig_cache_key=Mjk4MzAzMDgzNjE2NjIyNjY1NA%3D%3D.2-ccb7-5&oh=00_AfARjkPnfWEXyXeHs-qf4jXxbjfl-5NrqBLM7bb_mE42AQ&oe=638CD3F4&_nc_sid=4efc9f",
                                "width": 240
                            },
                            {
                                "height": 150,
                                "url": "https://scontent-ord5-2.cdninstagram.com/v/t51.2885-15/317519199_118936747699052_2048304988181585086_n.webp?stp=dst-jpg_e35_s150x150&_nc_ht=scontent-ord5-2.cdninstagram.com&_nc_cat=108&_nc_ohc=63oBFM_W1FgAX9q2tsE&edm=ABZsPhsBAAAA&ccb=7-5&ig_cache_key=Mjk4MzAzMDgzNjE2NjIyNjY1NA%3D%3D.2-ccb7-5&oh=00_AfCPJSr2ALJ21ZJC82igdJ_L4r5ZTDrJ_vFblDlO7uc6VA&oe=638CD3F4&_nc_sid=4efc9f",
                                "width": 150
                            }
                        ]
                    },
                    "media_type": 1,
                    "original_height": 720,
                    "original_width": 720,
                    "pk": 2983030836166226654,
                    "sharing_friction_info": {
                        "bloks_app_url": null,
                        "sharing_friction_payload": null,
                        "should_have_sharing_friction": false
                    }
                },
                {
                    "carousel_parent_id": "2983030842852080019_50500858917",
                    "commerciality_status": "not_commercial",
                    "id": "2983030835973256623_50500858917",
                    "image_versions2": {
                        "candidates": [
                            {
                                "height": 720,
                                "url": "https://scontent-ord5-2.cdninstagram.com/v/t51.2885-15/317606493_546408244015469_8015493470420903308_n.webp?stp=dst-jpg_e35&_nc_ht=scontent-ord5-2.cdninstagram.com&_nc_cat=105&_nc_ohc=KlHktunXBKcAX_2sjg8&tn=bFlNyZiOPtsFOL2_&edm=ABZsPhsBAAAA&ccb=7-5&ig_cache_key=Mjk4MzAzMDgzNTk3MzI1NjYyMw%3D%3D.2-ccb7-5&oh=00_AfBEwPDqPkswa2M_El-iHaIxeVrgBviuIuvJsbQG0odjKA&oe=638C8C66&_nc_sid=4efc9f",
                                "width": 720
                            },
                            {
                                "height": 640,
                                "url": "https://scontent-ord5-2.cdninstagram.com/v/t51.2885-15/317606493_546408244015469_8015493470420903308_n.webp?stp=dst-jpg_e35_s640x640_sh0.08&_nc_ht=scontent-ord5-2.cdninstagram.com&_nc_cat=105&_nc_ohc=KlHktunXBKcAX_2sjg8&tn=bFlNyZiOPtsFOL2_&edm=ABZsPhsBAAAA&ccb=7-5&ig_cache_key=Mjk4MzAzMDgzNTk3MzI1NjYyMw%3D%3D.2-ccb7-5&oh=00_AfBwTyj2fqv3YX7oGBZrRt_iap195JaoHD6QktE7CcPzXg&oe=638C8C66&_nc_sid=4efc9f",
                                "width": 640
                            },
                            {
                                "height": 480,
                                "url": "https://scontent-ord5-2.cdninstagram.com/v/t51.2885-15/317606493_546408244015469_8015493470420903308_n.webp?stp=dst-jpg_e35_s480x480&_nc_ht=scontent-ord5-2.cdninstagram.com&_nc_cat=105&_nc_ohc=KlHktunXBKcAX_2sjg8&tn=bFlNyZiOPtsFOL2_&edm=ABZsPhsBAAAA&ccb=7-5&ig_cache_key=Mjk4MzAzMDgzNTk3MzI1NjYyMw%3D%3D.2-ccb7-5&oh=00_AfCoHVoChZ7yDhro8sTp1SH75gGuLsfjLjyKHqkF39TmnQ&oe=638C8C66&_nc_sid=4efc9f",
                                "width": 480
                            },
                            {
                                "height": 320,
                                "url": "https://scontent-ord5-2.cdninstagram.com/v/t51.2885-15/317606493_546408244015469_8015493470420903308_n.webp?stp=dst-jpg_e35_s320x320&_nc_ht=scontent-ord5-2.cdninstagram.com&_nc_cat=105&_nc_ohc=KlHktunXBKcAX_2sjg8&tn=bFlNyZiOPtsFOL2_&edm=ABZsPhsBAAAA&ccb=7-5&ig_cache_key=Mjk4MzAzMDgzNTk3MzI1NjYyMw%3D%3D.2-ccb7-5&oh=00_AfC5P--EDV9776Sg286fghlBmHkySQR-ir35L4MUDlQ0cA&oe=638C8C66&_nc_sid=4efc9f",
                                "width": 320
                            },
                            {
                                "height": 240,
                                "url": "https://scontent-ord5-2.cdninstagram.com/v/t51.2885-15/317606493_546408244015469_8015493470420903308_n.webp?stp=dst-jpg_e35_s240x240&_nc_ht=scontent-ord5-2.cdninstagram.com&_nc_cat=105&_nc_ohc=KlHktunXBKcAX_2sjg8&tn=bFlNyZiOPtsFOL2_&edm=ABZsPhsBAAAA&ccb=7-5&ig_cache_key=Mjk4MzAzMDgzNTk3MzI1NjYyMw%3D%3D.2-ccb7-5&oh=00_AfAXuIVuOfEk4hvGPhZyxAxwAKAlyk5ex3fiaruIDcLbGQ&oe=638C8C66&_nc_sid=4efc9f",
                                "width": 240
                            },
                            {
                                "height": 1080,
                                "url": "https://scontent-ord5-2.cdninstagram.com/v/t51.2885-15/317606493_546408244015469_8015493470420903308_n.webp?stp=dst-jpg_e35&_nc_ht=scontent-ord5-2.cdninstagram.com&_nc_cat=105&_nc_ohc=KlHktunXBKcAX_2sjg8&tn=bFlNyZiOPtsFOL2_&edm=ABZsPhsBAAAA&ccb=7-5&ig_cache_key=Mjk4MzAzMDgzNTk3MzI1NjYyMw%3D%3D.2-ccb7-5&oh=00_AfBEwPDqPkswa2M_El-iHaIxeVrgBviuIuvJsbQG0odjKA&oe=638C8C66&_nc_sid=4efc9f",
                                "width": 1080
                            },
                            {
                                "height": 750,
                                "url": "https://scontent-ord5-2.cdninstagram.com/v/t51.2885-15/317606493_546408244015469_8015493470420903308_n.webp?stp=dst-jpg_e35&_nc_ht=scontent-ord5-2.cdninstagram.com&_nc_cat=105&_nc_ohc=KlHktunXBKcAX_2sjg8&tn=bFlNyZiOPtsFOL2_&edm=ABZsPhsBAAAA&ccb=7-5&ig_cache_key=Mjk4MzAzMDgzNTk3MzI1NjYyMw%3D%3D.2-ccb7-5&oh=00_AfBEwPDqPkswa2M_El-iHaIxeVrgBviuIuvJsbQG0odjKA&oe=638C8C66&_nc_sid=4efc9f",
                                "width": 750
                            },
                            {
                                "height": 640,
                                "url": "https://scontent-ord5-2.cdninstagram.com/v/t51.2885-15/317606493_546408244015469_8015493470420903308_n.webp?stp=dst-jpg_e35_s640x640_sh0.08&_nc_ht=scontent-ord5-2.cdninstagram.com&_nc_cat=105&_nc_ohc=KlHktunXBKcAX_2sjg8&tn=bFlNyZiOPtsFOL2_&edm=ABZsPhsBAAAA&ccb=7-5&ig_cache_key=Mjk4MzAzMDgzNTk3MzI1NjYyMw%3D%3D.2-ccb7-5&oh=00_AfBwTyj2fqv3YX7oGBZrRt_iap195JaoHD6QktE7CcPzXg&oe=638C8C66&_nc_sid=4efc9f",
                                "width": 640
                            },
                            {
                                "height": 480,
                                "url": "https://scontent-ord5-2.cdninstagram.com/v/t51.2885-15/317606493_546408244015469_8015493470420903308_n.webp?stp=dst-jpg_e35_s480x480&_nc_ht=scontent-ord5-2.cdninstagram.com&_nc_cat=105&_nc_ohc=KlHktunXBKcAX_2sjg8&tn=bFlNyZiOPtsFOL2_&edm=ABZsPhsBAAAA&ccb=7-5&ig_cache_key=Mjk4MzAzMDgzNTk3MzI1NjYyMw%3D%3D.2-ccb7-5&oh=00_AfCoHVoChZ7yDhro8sTp1SH75gGuLsfjLjyKHqkF39TmnQ&oe=638C8C66&_nc_sid=4efc9f",
                                "width": 480
                            },
                            {
                                "height": 320,
                                "url": "https://scontent-ord5-2.cdninstagram.com/v/t51.2885-15/317606493_546408244015469_8015493470420903308_n.webp?stp=dst-jpg_e35_s320x320&_nc_ht=scontent-ord5-2.cdninstagram.com&_nc_cat=105&_nc_ohc=KlHktunXBKcAX_2sjg8&tn=bFlNyZiOPtsFOL2_&edm=ABZsPhsBAAAA&ccb=7-5&ig_cache_key=Mjk4MzAzMDgzNTk3MzI1NjYyMw%3D%3D.2-ccb7-5&oh=00_AfC5P--EDV9776Sg286fghlBmHkySQR-ir35L4MUDlQ0cA&oe=638C8C66&_nc_sid=4efc9f",
                                "width": 320
                            },
                            {
                                "height": 240,
                                "url": "https://scontent-ord5-2.cdninstagram.com/v/t51.2885-15/317606493_546408244015469_8015493470420903308_n.webp?stp=dst-jpg_e35_s240x240&_nc_ht=scontent-ord5-2.cdninstagram.com&_nc_cat=105&_nc_ohc=KlHktunXBKcAX_2sjg8&tn=bFlNyZiOPtsFOL2_&edm=ABZsPhsBAAAA&ccb=7-5&ig_cache_key=Mjk4MzAzMDgzNTk3MzI1NjYyMw%3D%3D.2-ccb7-5&oh=00_AfAXuIVuOfEk4hvGPhZyxAxwAKAlyk5ex3fiaruIDcLbGQ&oe=638C8C66&_nc_sid=4efc9f",
                                "width": 240
                            },
                            {
                                "height": 150,
                                "url": "https://scontent-ord5-2.cdninstagram.com/v/t51.2885-15/317606493_546408244015469_8015493470420903308_n.webp?stp=dst-jpg_e35_s150x150&_nc_ht=scontent-ord5-2.cdninstagram.com&_nc_cat=105&_nc_ohc=KlHktunXBKcAX_2sjg8&tn=bFlNyZiOPtsFOL2_&edm=ABZsPhsBAAAA&ccb=7-5&ig_cache_key=Mjk4MzAzMDgzNTk3MzI1NjYyMw%3D%3D.2-ccb7-5&oh=00_AfDqW-E72Sj4UDyH2TdqHAG_NSJt1Pzt6DORxMZgqOZc3Q&oe=638C8C66&_nc_sid=4efc9f",
                                "width": 150
                            }
                        ]
                    },
                    "media_type": 1,
                    "original_height": 720,
                    "original_width": 720,
                    "pk": 2983030835973256623,
                    "sharing_friction_info": {
                        "bloks_app_url": null,
                        "sharing_friction_payload": null,
                        "should_have_sharing_friction": false
                    }
                },
                {
                    "carousel_parent_id": "2983030842852080019_50500858917",
                    "commerciality_status": "not_commercial",
                    "id": "2983030836157829201_50500858917",
                    "image_versions2": {
                        "candidates": [
                            {
                                "height": 720,
                                "url": "https://scontent-ord5-2.cdninstagram.com/v/t51.2885-15/317480942_1864545773900279_4857788729144470756_n.webp?stp=dst-jpg_e35&_nc_ht=scontent-ord5-2.cdninstagram.com&_nc_cat=111&_nc_ohc=IQ3lwQtvf7YAX9aTMsf&edm=ABZsPhsBAAAA&ccb=7-5&ig_cache_key=Mjk4MzAzMDgzNjE1NzgyOTIwMQ%3D%3D.2-ccb7-5&oh=00_AfADVGeYJ_CCgbTg1Spj3kpi_Pa5JBKOD5Q72dpv9UH4Mw&oe=638D8A31&_nc_sid=4efc9f",
                                "width": 720
                            },
                            {
                                "height": 640,
                                "url": "https://scontent-ord5-2.cdninstagram.com/v/t51.2885-15/317480942_1864545773900279_4857788729144470756_n.webp?stp=dst-jpg_e35_s640x640_sh0.08&_nc_ht=scontent-ord5-2.cdninstagram.com&_nc_cat=111&_nc_ohc=IQ3lwQtvf7YAX9aTMsf&edm=ABZsPhsBAAAA&ccb=7-5&ig_cache_key=Mjk4MzAzMDgzNjE1NzgyOTIwMQ%3D%3D.2-ccb7-5&oh=00_AfAi2taXWs2ycwBdOX_L7QZT8zAOq0etTBt6umGOilNGtg&oe=638D8A31&_nc_sid=4efc9f",
                                "width": 640
                            },
                            {
                                "height": 480,
                                "url": "https://scontent-ord5-2.cdninstagram.com/v/t51.2885-15/317480942_1864545773900279_4857788729144470756_n.webp?stp=dst-jpg_e35_s480x480&_nc_ht=scontent-ord5-2.cdninstagram.com&_nc_cat=111&_nc_ohc=IQ3lwQtvf7YAX9aTMsf&edm=ABZsPhsBAAAA&ccb=7-5&ig_cache_key=Mjk4MzAzMDgzNjE1NzgyOTIwMQ%3D%3D.2-ccb7-5&oh=00_AfCyULhmSNwlG3uUGD9gSFH2nr33wlZ9Yd89bd7aJ3FmPg&oe=638D8A31&_nc_sid=4efc9f",
                                "width": 480
                            },
                            {
                                "height": 320,
                                "url": "https://scontent-ord5-2.cdninstagram.com/v/t51.2885-15/317480942_1864545773900279_4857788729144470756_n.webp?stp=dst-jpg_e35_s320x320&_nc_ht=scontent-ord5-2.cdninstagram.com&_nc_cat=111&_nc_ohc=IQ3lwQtvf7YAX9aTMsf&edm=ABZsPhsBAAAA&ccb=7-5&ig_cache_key=Mjk4MzAzMDgzNjE1NzgyOTIwMQ%3D%3D.2-ccb7-5&oh=00_AfABrGX3AkMV8-p4z1qDLIfUWX7XADxXD1yDtvScHuibGw&oe=638D8A31&_nc_sid=4efc9f",
                                "width": 320
                            },
                            {
                                "height": 240,
                                "url": "https://scontent-ord5-2.cdninstagram.com/v/t51.2885-15/317480942_1864545773900279_4857788729144470756_n.webp?stp=dst-jpg_e35_s240x240&_nc_ht=scontent-ord5-2.cdninstagram.com&_nc_cat=111&_nc_ohc=IQ3lwQtvf7YAX9aTMsf&edm=ABZsPhsBAAAA&ccb=7-5&ig_cache_key=Mjk4MzAzMDgzNjE1NzgyOTIwMQ%3D%3D.2-ccb7-5&oh=00_AfAwnf4iMEtYgIuiSdW6Q4kF11qZ_yhg7xMxKcqDxW_Bfw&oe=638D8A31&_nc_sid=4efc9f",
                                "width": 240
                            },
                            {
                                "height": 1080,
                                "url": "https://scontent-ord5-2.cdninstagram.com/v/t51.2885-15/317480942_1864545773900279_4857788729144470756_n.webp?stp=dst-jpg_e35&_nc_ht=scontent-ord5-2.cdninstagram.com&_nc_cat=111&_nc_ohc=IQ3lwQtvf7YAX9aTMsf&edm=ABZsPhsBAAAA&ccb=7-5&ig_cache_key=Mjk4MzAzMDgzNjE1NzgyOTIwMQ%3D%3D.2-ccb7-5&oh=00_AfADVGeYJ_CCgbTg1Spj3kpi_Pa5JBKOD5Q72dpv9UH4Mw&oe=638D8A31&_nc_sid=4efc9f",
                                "width": 1080
                            },
                            {
                                "height": 750,
                                "url": "https://scontent-ord5-2.cdninstagram.com/v/t51.2885-15/317480942_1864545773900279_4857788729144470756_n.webp?stp=dst-jpg_e35&_nc_ht=scontent-ord5-2.cdninstagram.com&_nc_cat=111&_nc_ohc=IQ3lwQtvf7YAX9aTMsf&edm=ABZsPhsBAAAA&ccb=7-5&ig_cache_key=Mjk4MzAzMDgzNjE1NzgyOTIwMQ%3D%3D.2-ccb7-5&oh=00_AfADVGeYJ_CCgbTg1Spj3kpi_Pa5JBKOD5Q72dpv9UH4Mw&oe=638D8A31&_nc_sid=4efc9f",
                                "width": 750
                            },
                            {
                                "height": 640,
                                "url": "https://scontent-ord5-2.cdninstagram.com/v/t51.2885-15/317480942_1864545773900279_4857788729144470756_n.webp?stp=dst-jpg_e35_s640x640_sh0.08&_nc_ht=scontent-ord5-2.cdninstagram.com&_nc_cat=111&_nc_ohc=IQ3lwQtvf7YAX9aTMsf&edm=ABZsPhsBAAAA&ccb=7-5&ig_cache_key=Mjk4MzAzMDgzNjE1NzgyOTIwMQ%3D%3D.2-ccb7-5&oh=00_AfAi2taXWs2ycwBdOX_L7QZT8zAOq0etTBt6umGOilNGtg&oe=638D8A31&_nc_sid=4efc9f",
                                "width": 640
                            },
                            {
                                "height": 480,
                                "url": "https://scontent-ord5-2.cdninstagram.com/v/t51.2885-15/317480942_1864545773900279_4857788729144470756_n.webp?stp=dst-jpg_e35_s480x480&_nc_ht=scontent-ord5-2.cdninstagram.com&_nc_cat=111&_nc_ohc=IQ3lwQtvf7YAX9aTMsf&edm=ABZsPhsBAAAA&ccb=7-5&ig_cache_key=Mjk4MzAzMDgzNjE1NzgyOTIwMQ%3D%3D.2-ccb7-5&oh=00_AfCyULhmSNwlG3uUGD9gSFH2nr33wlZ9Yd89bd7aJ3FmPg&oe=638D8A31&_nc_sid=4efc9f",
                                "width": 480
                            },
                            {
                                "height": 320,
                                "url": "https://scontent-ord5-2.cdninstagram.com/v/t51.2885-15/317480942_1864545773900279_4857788729144470756_n.webp?stp=dst-jpg_e35_s320x320&_nc_ht=scontent-ord5-2.cdninstagram.com&_nc_cat=111&_nc_ohc=IQ3lwQtvf7YAX9aTMsf&edm=ABZsPhsBAAAA&ccb=7-5&ig_cache_key=Mjk4MzAzMDgzNjE1NzgyOTIwMQ%3D%3D.2-ccb7-5&oh=00_AfABrGX3AkMV8-p4z1qDLIfUWX7XADxXD1yDtvScHuibGw&oe=638D8A31&_nc_sid=4efc9f",
                                "width": 320
                            },
                            {
                                "height": 240,
                                "url": "https://scontent-ord5-2.cdninstagram.com/v/t51.2885-15/317480942_1864545773900279_4857788729144470756_n.webp?stp=dst-jpg_e35_s240x240&_nc_ht=scontent-ord5-2.cdninstagram.com&_nc_cat=111&_nc_ohc=IQ3lwQtvf7YAX9aTMsf&edm=ABZsPhsBAAAA&ccb=7-5&ig_cache_key=Mjk4MzAzMDgzNjE1NzgyOTIwMQ%3D%3D.2-ccb7-5&oh=00_AfAwnf4iMEtYgIuiSdW6Q4kF11qZ_yhg7xMxKcqDxW_Bfw&oe=638D8A31&_nc_sid=4efc9f",
                                "width": 240
                            },
                            {
                                "height": 150,
                                "url": "https://scontent-ord5-2.cdninstagram.com/v/t51.2885-15/317480942_1864545773900279_4857788729144470756_n.webp?stp=dst-jpg_e35_s150x150&_nc_ht=scontent-ord5-2.cdninstagram.com&_nc_cat=111&_nc_ohc=IQ3lwQtvf7YAX9aTMsf&edm=ABZsPhsBAAAA&ccb=7-5&ig_cache_key=Mjk4MzAzMDgzNjE1NzgyOTIwMQ%3D%3D.2-ccb7-5&oh=00_AfBCLXfc7chaeM4xXbpc54ocO45GtWwlHgMArsMjIwW10w&oe=638D8A31&_nc_sid=4efc9f",
                                "width": 150
                            }
                        ]
                    },
                    "media_type": 1,
                    "original_height": 720,
                    "original_width": 720,
                    "pk": 2983030836157829201,
                    "sharing_friction_info": {
                        "bloks_app_url": null,
                        "sharing_friction_payload": null,
                        "should_have_sharing_friction": false
                    }
                },
                {
                    "carousel_parent_id": "2983030842852080019_50500858917",
                    "commerciality_status": "not_commercial",
                    "id": "2983030835973301887_50500858917",
                    "image_versions2": {
                        "candidates": [
                            {
                                "height": 720,
                                "url": "https://scontent-ord5-2.cdninstagram.com/v/t51.2885-15/317290128_634732295063062_5109591410104075639_n.webp?stp=dst-jpg_e35&_nc_ht=scontent-ord5-2.cdninstagram.com&_nc_cat=110&_nc_ohc=YUSoXoSKAu8AX8iBfTR&tn=bFlNyZiOPtsFOL2_&edm=ABZsPhsBAAAA&ccb=7-5&ig_cache_key=Mjk4MzAzMDgzNTk3MzMwMTg4Nw%3D%3D.2-ccb7-5&oh=00_AfCvQbDgfwK8_HV7QPVWYHptImMLi-SM0rmZRq1CuWVTsA&oe=638DBA15&_nc_sid=4efc9f",
                                "width": 720
                            },
                            {
                                "height": 640,
                                "url": "https://scontent-ord5-2.cdninstagram.com/v/t51.2885-15/317290128_634732295063062_5109591410104075639_n.webp?stp=dst-jpg_e35_s640x640_sh0.08&_nc_ht=scontent-ord5-2.cdninstagram.com&_nc_cat=110&_nc_ohc=YUSoXoSKAu8AX8iBfTR&tn=bFlNyZiOPtsFOL2_&edm=ABZsPhsBAAAA&ccb=7-5&ig_cache_key=Mjk4MzAzMDgzNTk3MzMwMTg4Nw%3D%3D.2-ccb7-5&oh=00_AfB9hwziQjUjtJBWxd2WB39YRxImt5mOOyuvA4tYyRz5qg&oe=638DBA15&_nc_sid=4efc9f",
                                "width": 640
                            },
                            {
                                "height": 480,
                                "url": "https://scontent-ord5-2.cdninstagram.com/v/t51.2885-15/317290128_634732295063062_5109591410104075639_n.webp?stp=dst-jpg_e35_s480x480&_nc_ht=scontent-ord5-2.cdninstagram.com&_nc_cat=110&_nc_ohc=YUSoXoSKAu8AX8iBfTR&tn=bFlNyZiOPtsFOL2_&edm=ABZsPhsBAAAA&ccb=7-5&ig_cache_key=Mjk4MzAzMDgzNTk3MzMwMTg4Nw%3D%3D.2-ccb7-5&oh=00_AfAfhYnncj1D1XD3QlC0PQtffRiLtWrcqEMP9nyA8uzdaw&oe=638DBA15&_nc_sid=4efc9f",
                                "width": 480
                            },
                            {
                                "height": 320,
                                "url": "https://scontent-ord5-2.cdninstagram.com/v/t51.2885-15/317290128_634732295063062_5109591410104075639_n.webp?stp=dst-jpg_e35_s320x320&_nc_ht=scontent-ord5-2.cdninstagram.com&_nc_cat=110&_nc_ohc=YUSoXoSKAu8AX8iBfTR&tn=bFlNyZiOPtsFOL2_&edm=ABZsPhsBAAAA&ccb=7-5&ig_cache_key=Mjk4MzAzMDgzNTk3MzMwMTg4Nw%3D%3D.2-ccb7-5&oh=00_AfCgyajd-ClHHme7e0tFzuvsR9cRRBVqPVKHx90ewEyrMQ&oe=638DBA15&_nc_sid=4efc9f",
                                "width": 320
                            },
                            {
                                "height": 240,
                                "url": "https://scontent-ord5-2.cdninstagram.com/v/t51.2885-15/317290128_634732295063062_5109591410104075639_n.webp?stp=dst-jpg_e35_s240x240&_nc_ht=scontent-ord5-2.cdninstagram.com&_nc_cat=110&_nc_ohc=YUSoXoSKAu8AX8iBfTR&tn=bFlNyZiOPtsFOL2_&edm=ABZsPhsBAAAA&ccb=7-5&ig_cache_key=Mjk4MzAzMDgzNTk3MzMwMTg4Nw%3D%3D.2-ccb7-5&oh=00_AfDRVG-nPFe8poDfIA2fcd3EzomFbkBBvHqyhO78W9Cu8A&oe=638DBA15&_nc_sid=4efc9f",
                                "width": 240
                            },
                            {
                                "height": 1080,
                                "url": "https://scontent-ord5-2.cdninstagram.com/v/t51.2885-15/317290128_634732295063062_5109591410104075639_n.webp?stp=dst-jpg_e35&_nc_ht=scontent-ord5-2.cdninstagram.com&_nc_cat=110&_nc_ohc=YUSoXoSKAu8AX8iBfTR&tn=bFlNyZiOPtsFOL2_&edm=ABZsPhsBAAAA&ccb=7-5&ig_cache_key=Mjk4MzAzMDgzNTk3MzMwMTg4Nw%3D%3D.2-ccb7-5&oh=00_AfCvQbDgfwK8_HV7QPVWYHptImMLi-SM0rmZRq1CuWVTsA&oe=638DBA15&_nc_sid=4efc9f",
                                "width": 1080
                            },
                            {
                                "height": 750,
                                "url": "https://scontent-ord5-2.cdninstagram.com/v/t51.2885-15/317290128_634732295063062_5109591410104075639_n.webp?stp=dst-jpg_e35&_nc_ht=scontent-ord5-2.cdninstagram.com&_nc_cat=110&_nc_ohc=YUSoXoSKAu8AX8iBfTR&tn=bFlNyZiOPtsFOL2_&edm=ABZsPhsBAAAA&ccb=7-5&ig_cache_key=Mjk4MzAzMDgzNTk3MzMwMTg4Nw%3D%3D.2-ccb7-5&oh=00_AfCvQbDgfwK8_HV7QPVWYHptImMLi-SM0rmZRq1CuWVTsA&oe=638DBA15&_nc_sid=4efc9f",
                                "width": 750
                            },
                            {
                                "height": 640,
                                "url": "https://scontent-ord5-2.cdninstagram.com/v/t51.2885-15/317290128_634732295063062_5109591410104075639_n.webp?stp=dst-jpg_e35_s640x640_sh0.08&_nc_ht=scontent-ord5-2.cdninstagram.com&_nc_cat=110&_nc_ohc=YUSoXoSKAu8AX8iBfTR&tn=bFlNyZiOPtsFOL2_&edm=ABZsPhsBAAAA&ccb=7-5&ig_cache_key=Mjk4MzAzMDgzNTk3MzMwMTg4Nw%3D%3D.2-ccb7-5&oh=00_AfB9hwziQjUjtJBWxd2WB39YRxImt5mOOyuvA4tYyRz5qg&oe=638DBA15&_nc_sid=4efc9f",
                                "width": 640
                            },
                            {
                                "height": 480,
                                "url": "https://scontent-ord5-2.cdninstagram.com/v/t51.2885-15/317290128_634732295063062_5109591410104075639_n.webp?stp=dst-jpg_e35_s480x480&_nc_ht=scontent-ord5-2.cdninstagram.com&_nc_cat=110&_nc_ohc=YUSoXoSKAu8AX8iBfTR&tn=bFlNyZiOPtsFOL2_&edm=ABZsPhsBAAAA&ccb=7-5&ig_cache_key=Mjk4MzAzMDgzNTk3MzMwMTg4Nw%3D%3D.2-ccb7-5&oh=00_AfAfhYnncj1D1XD3QlC0PQtffRiLtWrcqEMP9nyA8uzdaw&oe=638DBA15&_nc_sid=4efc9f",
                                "width": 480
                            },
                            {
                                "height": 320,
                                "url": "https://scontent-ord5-2.cdninstagram.com/v/t51.2885-15/317290128_634732295063062_5109591410104075639_n.webp?stp=dst-jpg_e35_s320x320&_nc_ht=scontent-ord5-2.cdninstagram.com&_nc_cat=110&_nc_ohc=YUSoXoSKAu8AX8iBfTR&tn=bFlNyZiOPtsFOL2_&edm=ABZsPhsBAAAA&ccb=7-5&ig_cache_key=Mjk4MzAzMDgzNTk3MzMwMTg4Nw%3D%3D.2-ccb7-5&oh=00_AfCgyajd-ClHHme7e0tFzuvsR9cRRBVqPVKHx90ewEyrMQ&oe=638DBA15&_nc_sid=4efc9f",
                                "width": 320
                            },
                            {
                                "height": 240,
                                "url": "https://scontent-ord5-2.cdninstagram.com/v/t51.2885-15/317290128_634732295063062_5109591410104075639_n.webp?stp=dst-jpg_e35_s240x240&_nc_ht=scontent-ord5-2.cdninstagram.com&_nc_cat=110&_nc_ohc=YUSoXoSKAu8AX8iBfTR&tn=bFlNyZiOPtsFOL2_&edm=ABZsPhsBAAAA&ccb=7-5&ig_cache_key=Mjk4MzAzMDgzNTk3MzMwMTg4Nw%3D%3D.2-ccb7-5&oh=00_AfDRVG-nPFe8poDfIA2fcd3EzomFbkBBvHqyhO78W9Cu8A&oe=638DBA15&_nc_sid=4efc9f",
                                "width": 240
                            },
                            {
                                "height": 150,
                                "url": "https://scontent-ord5-2.cdninstagram.com/v/t51.2885-15/317290128_634732295063062_5109591410104075639_n.webp?stp=dst-jpg_e35_s150x150&_nc_ht=scontent-ord5-2.cdninstagram.com&_nc_cat=110&_nc_ohc=YUSoXoSKAu8AX8iBfTR&tn=bFlNyZiOPtsFOL2_&edm=ABZsPhsBAAAA&ccb=7-5&ig_cache_key=Mjk4MzAzMDgzNTk3MzMwMTg4Nw%3D%3D.2-ccb7-5&oh=00_AfBYhC0rR3XxQ7kiEMoxXqIuPxYAlBS0TkwrLh9YQhs4Lw&oe=638DBA15&_nc_sid=4efc9f",
                                "width": 150
                            }
                        ]
                    },
                    "media_type": 1,
                    "original_height": 720,
                    "original_width": 720,
                    "pk": 2983030835973301887,
                    "sharing_friction_info": {
                        "bloks_app_url": null,
                        "sharing_friction_payload": null,
                        "should_have_sharing_friction": false
                    }
                },
                {
                    "carousel_parent_id": "2983030842852080019_50500858917",
                    "commerciality_status": "not_commercial",
                    "id": "2983030835964963863_50500858917",
                    "image_versions2": {
                        "candidates": [
                            {
                                "height": 720,
                                "url": "https://scontent-ord5-2.cdninstagram.com/v/t51.2885-15/317363946_121107927475655_57280894521818464_n.webp?stp=dst-jpg_e35&_nc_ht=scontent-ord5-2.cdninstagram.com&_nc_cat=111&_nc_ohc=5ihiSG7K-D8AX9WJalk&tn=bFlNyZiOPtsFOL2_&edm=ABZsPhsBAAAA&ccb=7-5&ig_cache_key=Mjk4MzAzMDgzNTk2NDk2Mzg2Mw%3D%3D.2-ccb7-5&oh=00_AfCBsivD9tHmI3ym-BemBPgw4V5UCfxQ9URYu2ZVcbV1zA&oe=638C5D96&_nc_sid=4efc9f",
                                "width": 720
                            },
                            {
                                "height": 640,
                                "url": "https://scontent-ord5-2.cdninstagram.com/v/t51.2885-15/317363946_121107927475655_57280894521818464_n.webp?stp=dst-jpg_e35_s640x640_sh0.08&_nc_ht=scontent-ord5-2.cdninstagram.com&_nc_cat=111&_nc_ohc=5ihiSG7K-D8AX9WJalk&tn=bFlNyZiOPtsFOL2_&edm=ABZsPhsBAAAA&ccb=7-5&ig_cache_key=Mjk4MzAzMDgzNTk2NDk2Mzg2Mw%3D%3D.2-ccb7-5&oh=00_AfCX7jnfC0bBKZRSt2NptTk0cQlfQH7ZkXe-y4tTkf4s6g&oe=638C5D96&_nc_sid=4efc9f",
                                "width": 640
                            },
                            {
                                "height": 480,
                                "url": "https://scontent-ord5-2.cdninstagram.com/v/t51.2885-15/317363946_121107927475655_57280894521818464_n.webp?stp=dst-jpg_e35_s480x480&_nc_ht=scontent-ord5-2.cdninstagram.com&_nc_cat=111&_nc_ohc=5ihiSG7K-D8AX9WJalk&tn=bFlNyZiOPtsFOL2_&edm=ABZsPhsBAAAA&ccb=7-5&ig_cache_key=Mjk4MzAzMDgzNTk2NDk2Mzg2Mw%3D%3D.2-ccb7-5&oh=00_AfBOg6bbTlhvj97vgVqMQRuijiN_WgBd0NzUnMQ5t_y-YQ&oe=638C5D96&_nc_sid=4efc9f",
                                "width": 480
                            },
                            {
                                "height": 320,
                                "url": "https://scontent-ord5-2.cdninstagram.com/v/t51.2885-15/317363946_121107927475655_57280894521818464_n.webp?stp=dst-jpg_e35_s320x320&_nc_ht=scontent-ord5-2.cdninstagram.com&_nc_cat=111&_nc_ohc=5ihiSG7K-D8AX9WJalk&tn=bFlNyZiOPtsFOL2_&edm=ABZsPhsBAAAA&ccb=7-5&ig_cache_key=Mjk4MzAzMDgzNTk2NDk2Mzg2Mw%3D%3D.2-ccb7-5&oh=00_AfAdjJmvYfR5AoVFXSmWLjMIQia-EcanYQ7v1r69zR-T-w&oe=638C5D96&_nc_sid=4efc9f",
                                "width": 320
                            },
                            {
                                "height": 240,
                                "url": "https://scontent-ord5-2.cdninstagram.com/v/t51.2885-15/317363946_121107927475655_57280894521818464_n.webp?stp=dst-jpg_e35_s240x240&_nc_ht=scontent-ord5-2.cdninstagram.com&_nc_cat=111&_nc_ohc=5ihiSG7K-D8AX9WJalk&tn=bFlNyZiOPtsFOL2_&edm=ABZsPhsBAAAA&ccb=7-5&ig_cache_key=Mjk4MzAzMDgzNTk2NDk2Mzg2Mw%3D%3D.2-ccb7-5&oh=00_AfAdVjI27zoEiEzJoaiiDG7aVqDSLbxK0lsQIpnnEKAYUQ&oe=638C5D96&_nc_sid=4efc9f",
                                "width": 240
                            },
                            {
                                "height": 1080,
                                "url": "https://scontent-ord5-2.cdninstagram.com/v/t51.2885-15/317363946_121107927475655_57280894521818464_n.webp?stp=dst-jpg_e35&_nc_ht=scontent-ord5-2.cdninstagram.com&_nc_cat=111&_nc_ohc=5ihiSG7K-D8AX9WJalk&tn=bFlNyZiOPtsFOL2_&edm=ABZsPhsBAAAA&ccb=7-5&ig_cache_key=Mjk4MzAzMDgzNTk2NDk2Mzg2Mw%3D%3D.2-ccb7-5&oh=00_AfCBsivD9tHmI3ym-BemBPgw4V5UCfxQ9URYu2ZVcbV1zA&oe=638C5D96&_nc_sid=4efc9f",
                                "width": 1080
                            },
                            {
                                "height": 750,
                                "url": "https://scontent-ord5-2.cdninstagram.com/v/t51.2885-15/317363946_121107927475655_57280894521818464_n.webp?stp=dst-jpg_e35&_nc_ht=scontent-ord5-2.cdninstagram.com&_nc_cat=111&_nc_ohc=5ihiSG7K-D8AX9WJalk&tn=bFlNyZiOPtsFOL2_&edm=ABZsPhsBAAAA&ccb=7-5&ig_cache_key=Mjk4MzAzMDgzNTk2NDk2Mzg2Mw%3D%3D.2-ccb7-5&oh=00_AfCBsivD9tHmI3ym-BemBPgw4V5UCfxQ9URYu2ZVcbV1zA&oe=638C5D96&_nc_sid=4efc9f",
                                "width": 750
                            },
                            {
                                "height": 640,
                                "url": "https://scontent-ord5-2.cdninstagram.com/v/t51.2885-15/317363946_121107927475655_57280894521818464_n.webp?stp=dst-jpg_e35_s640x640_sh0.08&_nc_ht=scontent-ord5-2.cdninstagram.com&_nc_cat=111&_nc_ohc=5ihiSG7K-D8AX9WJalk&tn=bFlNyZiOPtsFOL2_&edm=ABZsPhsBAAAA&ccb=7-5&ig_cache_key=Mjk4MzAzMDgzNTk2NDk2Mzg2Mw%3D%3D.2-ccb7-5&oh=00_AfCX7jnfC0bBKZRSt2NptTk0cQlfQH7ZkXe-y4tTkf4s6g&oe=638C5D96&_nc_sid=4efc9f",
                                "width": 640
                            },
                            {
                                "height": 480,
                                "url": "https://scontent-ord5-2.cdninstagram.com/v/t51.2885-15/317363946_121107927475655_57280894521818464_n.webp?stp=dst-jpg_e35_s480x480&_nc_ht=scontent-ord5-2.cdninstagram.com&_nc_cat=111&_nc_ohc=5ihiSG7K-D8AX9WJalk&tn=bFlNyZiOPtsFOL2_&edm=ABZsPhsBAAAA&ccb=7-5&ig_cache_key=Mjk4MzAzMDgzNTk2NDk2Mzg2Mw%3D%3D.2-ccb7-5&oh=00_AfBOg6bbTlhvj97vgVqMQRuijiN_WgBd0NzUnMQ5t_y-YQ&oe=638C5D96&_nc_sid=4efc9f",
                                "width": 480
                            },
                            {
                                "height": 320,
                                "url": "https://scontent-ord5-2.cdninstagram.com/v/t51.2885-15/317363946_121107927475655_57280894521818464_n.webp?stp=dst-jpg_e35_s320x320&_nc_ht=scontent-ord5-2.cdninstagram.com&_nc_cat=111&_nc_ohc=5ihiSG7K-D8AX9WJalk&tn=bFlNyZiOPtsFOL2_&edm=ABZsPhsBAAAA&ccb=7-5&ig_cache_key=Mjk4MzAzMDgzNTk2NDk2Mzg2Mw%3D%3D.2-ccb7-5&oh=00_AfAdjJmvYfR5AoVFXSmWLjMIQia-EcanYQ7v1r69zR-T-w&oe=638C5D96&_nc_sid=4efc9f",
                                "width": 320
                            },
                            {
                                "height": 240,
                                "url": "https://scontent-ord5-2.cdninstagram.com/v/t51.2885-15/317363946_121107927475655_57280894521818464_n.webp?stp=dst-jpg_e35_s240x240&_nc_ht=scontent-ord5-2.cdninstagram.com&_nc_cat=111&_nc_ohc=5ihiSG7K-D8AX9WJalk&tn=bFlNyZiOPtsFOL2_&edm=ABZsPhsBAAAA&ccb=7-5&ig_cache_key=Mjk4MzAzMDgzNTk2NDk2Mzg2Mw%3D%3D.2-ccb7-5&oh=00_AfAdVjI27zoEiEzJoaiiDG7aVqDSLbxK0lsQIpnnEKAYUQ&oe=638C5D96&_nc_sid=4efc9f",
                                "width": 240
                            },
                            {
                                "height": 150,
                                "url": "https://scontent-ord5-2.cdninstagram.com/v/t51.2885-15/317363946_121107927475655_57280894521818464_n.webp?stp=dst-jpg_e35_s150x150&_nc_ht=scontent-ord5-2.cdninstagram.com&_nc_cat=111&_nc_ohc=5ihiSG7K-D8AX9WJalk&tn=bFlNyZiOPtsFOL2_&edm=ABZsPhsBAAAA&ccb=7-5&ig_cache_key=Mjk4MzAzMDgzNTk2NDk2Mzg2Mw%3D%3D.2-ccb7-5&oh=00_AfDcTTeU0ChZQWuflUaSYo-GyqLBCTG1gSQ7ELF5hODd4w&oe=638C5D96&_nc_sid=4efc9f",
                                "width": 150
                            }
                        ]
                    },
                    "media_type": 1,
                    "original_height": 720,
                    "original_width": 720,
                    "pk": 2983030835964963863,
                    "sharing_friction_info": {
                        "bloks_app_url": null,
                        "sharing_friction_payload": null,
                        "should_have_sharing_friction": false
                    }
                },
                {
                    "carousel_parent_id": "2983030842852080019_50500858917",
                    "commerciality_status": "not_commercial",
                    "id": "2983030835989976658_50500858917",
                    "image_versions2": {
                        "candidates": [
                            {
                                "height": 720,
                                "url": "https://scontent-ord5-2.cdninstagram.com/v/t51.2885-15/317778002_511366554273000_7699618731367629422_n.webp?stp=dst-jpg_e35&_nc_ht=scontent-ord5-2.cdninstagram.com&_nc_cat=100&_nc_ohc=TgyEWYxuoW8AX8cWmp-&edm=ABZsPhsBAAAA&ccb=7-5&ig_cache_key=Mjk4MzAzMDgzNTk4OTk3NjY1OA%3D%3D.2-ccb7-5&oh=00_AfB4TeYryZ2SYub9kXatZimbr1qdLC4tEsPPy55Hm960hw&oe=638CC306&_nc_sid=4efc9f",
                                "width": 720
                            },
                            {
                                "height": 640,
                                "url": "https://scontent-ord5-2.cdninstagram.com/v/t51.2885-15/317778002_511366554273000_7699618731367629422_n.webp?stp=dst-jpg_e35_s640x640_sh0.08&_nc_ht=scontent-ord5-2.cdninstagram.com&_nc_cat=100&_nc_ohc=TgyEWYxuoW8AX8cWmp-&edm=ABZsPhsBAAAA&ccb=7-5&ig_cache_key=Mjk4MzAzMDgzNTk4OTk3NjY1OA%3D%3D.2-ccb7-5&oh=00_AfB6j9DJFoRdNChGj6WuzwW57fIynn7DqVooaUGYthmXvA&oe=638CC306&_nc_sid=4efc9f",
                                "width": 640
                            },
                            {
                                "height": 480,
                                "url": "https://scontent-ord5-2.cdninstagram.com/v/t51.2885-15/317778002_511366554273000_7699618731367629422_n.webp?stp=dst-jpg_e35_s480x480&_nc_ht=scontent-ord5-2.cdninstagram.com&_nc_cat=100&_nc_ohc=TgyEWYxuoW8AX8cWmp-&edm=ABZsPhsBAAAA&ccb=7-5&ig_cache_key=Mjk4MzAzMDgzNTk4OTk3NjY1OA%3D%3D.2-ccb7-5&oh=00_AfDkpKOmImUq7gH0cZ7C4v0MHAU39ISfSonrxJKpKP932Q&oe=638CC306&_nc_sid=4efc9f",
                                "width": 480
                            },
                            {
                                "height": 320,
                                "url": "https://scontent-ord5-2.cdninstagram.com/v/t51.2885-15/317778002_511366554273000_7699618731367629422_n.webp?stp=dst-jpg_e35_s320x320&_nc_ht=scontent-ord5-2.cdninstagram.com&_nc_cat=100&_nc_ohc=TgyEWYxuoW8AX8cWmp-&edm=ABZsPhsBAAAA&ccb=7-5&ig_cache_key=Mjk4MzAzMDgzNTk4OTk3NjY1OA%3D%3D.2-ccb7-5&oh=00_AfAqVQJJ1WMPVCgugt3KIHDHgNNm1WC7Et0NzL_qvRW6tQ&oe=638CC306&_nc_sid=4efc9f",
                                "width": 320
                            },
                            {
                                "height": 240,
                                "url": "https://scontent-ord5-2.cdninstagram.com/v/t51.2885-15/317778002_511366554273000_7699618731367629422_n.webp?stp=dst-jpg_e35_s240x240&_nc_ht=scontent-ord5-2.cdninstagram.com&_nc_cat=100&_nc_ohc=TgyEWYxuoW8AX8cWmp-&edm=ABZsPhsBAAAA&ccb=7-5&ig_cache_key=Mjk4MzAzMDgzNTk4OTk3NjY1OA%3D%3D.2-ccb7-5&oh=00_AfBFU1X4tG9BigUDcstBuWfQ241kG5gkS7Ihh52yGtZvKw&oe=638CC306&_nc_sid=4efc9f",
                                "width": 240
                            },
                            {
                                "height": 1080,
                                "url": "https://scontent-ord5-2.cdninstagram.com/v/t51.2885-15/317778002_511366554273000_7699618731367629422_n.webp?stp=dst-jpg_e35&_nc_ht=scontent-ord5-2.cdninstagram.com&_nc_cat=100&_nc_ohc=TgyEWYxuoW8AX8cWmp-&edm=ABZsPhsBAAAA&ccb=7-5&ig_cache_key=Mjk4MzAzMDgzNTk4OTk3NjY1OA%3D%3D.2-ccb7-5&oh=00_AfB4TeYryZ2SYub9kXatZimbr1qdLC4tEsPPy55Hm960hw&oe=638CC306&_nc_sid=4efc9f",
                                "width": 1080
                            },
                            {
                                "height": 750,
                                "url": "https://scontent-ord5-2.cdninstagram.com/v/t51.2885-15/317778002_511366554273000_7699618731367629422_n.webp?stp=dst-jpg_e35&_nc_ht=scontent-ord5-2.cdninstagram.com&_nc_cat=100&_nc_ohc=TgyEWYxuoW8AX8cWmp-&edm=ABZsPhsBAAAA&ccb=7-5&ig_cache_key=Mjk4MzAzMDgzNTk4OTk3NjY1OA%3D%3D.2-ccb7-5&oh=00_AfB4TeYryZ2SYub9kXatZimbr1qdLC4tEsPPy55Hm960hw&oe=638CC306&_nc_sid=4efc9f",
                                "width": 750
                            },
                            {
                                "height": 640,
                                "url": "https://scontent-ord5-2.cdninstagram.com/v/t51.2885-15/317778002_511366554273000_7699618731367629422_n.webp?stp=dst-jpg_e35_s640x640_sh0.08&_nc_ht=scontent-ord5-2.cdninstagram.com&_nc_cat=100&_nc_ohc=TgyEWYxuoW8AX8cWmp-&edm=ABZsPhsBAAAA&ccb=7-5&ig_cache_key=Mjk4MzAzMDgzNTk4OTk3NjY1OA%3D%3D.2-ccb7-5&oh=00_AfB6j9DJFoRdNChGj6WuzwW57fIynn7DqVooaUGYthmXvA&oe=638CC306&_nc_sid=4efc9f",
                                "width": 640
                            },
                            {
                                "height": 480,
                                "url": "https://scontent-ord5-2.cdninstagram.com/v/t51.2885-15/317778002_511366554273000_7699618731367629422_n.webp?stp=dst-jpg_e35_s480x480&_nc_ht=scontent-ord5-2.cdninstagram.com&_nc_cat=100&_nc_ohc=TgyEWYxuoW8AX8cWmp-&edm=ABZsPhsBAAAA&ccb=7-5&ig_cache_key=Mjk4MzAzMDgzNTk4OTk3NjY1OA%3D%3D.2-ccb7-5&oh=00_AfDkpKOmImUq7gH0cZ7C4v0MHAU39ISfSonrxJKpKP932Q&oe=638CC306&_nc_sid=4efc9f",
                                "width": 480
                            },
                            {
                                "height": 320,
                                "url": "https://scontent-ord5-2.cdninstagram.com/v/t51.2885-15/317778002_511366554273000_7699618731367629422_n.webp?stp=dst-jpg_e35_s320x320&_nc_ht=scontent-ord5-2.cdninstagram.com&_nc_cat=100&_nc_ohc=TgyEWYxuoW8AX8cWmp-&edm=ABZsPhsBAAAA&ccb=7-5&ig_cache_key=Mjk4MzAzMDgzNTk4OTk3NjY1OA%3D%3D.2-ccb7-5&oh=00_AfAqVQJJ1WMPVCgugt3KIHDHgNNm1WC7Et0NzL_qvRW6tQ&oe=638CC306&_nc_sid=4efc9f",
                                "width": 320
                            },
                            {
                                "height": 240,
                                "url": "https://scontent-ord5-2.cdninstagram.com/v/t51.2885-15/317778002_511366554273000_7699618731367629422_n.webp?stp=dst-jpg_e35_s240x240&_nc_ht=scontent-ord5-2.cdninstagram.com&_nc_cat=100&_nc_ohc=TgyEWYxuoW8AX8cWmp-&edm=ABZsPhsBAAAA&ccb=7-5&ig_cache_key=Mjk4MzAzMDgzNTk4OTk3NjY1OA%3D%3D.2-ccb7-5&oh=00_AfBFU1X4tG9BigUDcstBuWfQ241kG5gkS7Ihh52yGtZvKw&oe=638CC306&_nc_sid=4efc9f",
                                "width": 240
                            },
                            {
                                "height": 150,
                                "url": "https://scontent-ord5-2.cdninstagram.com/v/t51.2885-15/317778002_511366554273000_7699618731367629422_n.webp?stp=dst-jpg_e35_s150x150&_nc_ht=scontent-ord5-2.cdninstagram.com&_nc_cat=100&_nc_ohc=TgyEWYxuoW8AX8cWmp-&edm=ABZsPhsBAAAA&ccb=7-5&ig_cache_key=Mjk4MzAzMDgzNTk4OTk3NjY1OA%3D%3D.2-ccb7-5&oh=00_AfBT0JYaIVdnI9-ZBbEwAsq4XSAWn4VtJunfGSOuwQH7lQ&oe=638CC306&_nc_sid=4efc9f",
                                "width": 150
                            }
                        ]
                    },
                    "media_type": 1,
                    "original_height": 720,
                    "original_width": 720,
                    "pk": 2983030835989976658,
                    "sharing_friction_info": {
                        "bloks_app_url": null,
                        "sharing_friction_payload": null,
                        "should_have_sharing_friction": false
                    }
                },
                {
                    "carousel_parent_id": "2983030842852080019_50500858917",
                    "commerciality_status": "not_commercial",
                    "id": "2983030835973341064_50500858917",
                    "image_versions2": {
                        "candidates": [
                            {
                                "height": 720,
                                "url": "https://scontent-ord5-2.cdninstagram.com/v/t51.2885-15/317369825_646939963805526_6259118207363766191_n.webp?stp=dst-jpg_e35&_nc_ht=scontent-ord5-2.cdninstagram.com&_nc_cat=106&_nc_ohc=4ykLJ6D7tXwAX84xU3Y&edm=ABZsPhsBAAAA&ccb=7-5&ig_cache_key=Mjk4MzAzMDgzNTk3MzM0MTA2NA%3D%3D.2-ccb7-5&oh=00_AfCG-W74j0qjmZi5-yFPEpntg7CmSoqsrglHYFMIQjM5tw&oe=638CA50D&_nc_sid=4efc9f",
                                "width": 720
                            },
                            {
                                "height": 640,
                                "url": "https://scontent-ord5-2.cdninstagram.com/v/t51.2885-15/317369825_646939963805526_6259118207363766191_n.webp?stp=dst-jpg_e35_s640x640_sh0.08&_nc_ht=scontent-ord5-2.cdninstagram.com&_nc_cat=106&_nc_ohc=4ykLJ6D7tXwAX84xU3Y&edm=ABZsPhsBAAAA&ccb=7-5&ig_cache_key=Mjk4MzAzMDgzNTk3MzM0MTA2NA%3D%3D.2-ccb7-5&oh=00_AfBL58-pF_ItmFs6KJ6Hl2uqTUdkUhdiPddI5iHdrr-F8Q&oe=638CA50D&_nc_sid=4efc9f",
                                "width": 640
                            },
                            {
                                "height": 480,
                                "url": "https://scontent-ord5-2.cdninstagram.com/v/t51.2885-15/317369825_646939963805526_6259118207363766191_n.webp?stp=dst-jpg_e35_s480x480&_nc_ht=scontent-ord5-2.cdninstagram.com&_nc_cat=106&_nc_ohc=4ykLJ6D7tXwAX84xU3Y&edm=ABZsPhsBAAAA&ccb=7-5&ig_cache_key=Mjk4MzAzMDgzNTk3MzM0MTA2NA%3D%3D.2-ccb7-5&oh=00_AfBBNxXwob-Uxw6ZVWOYhBlhj3tsQO8a1uP0uIMQ83AJbw&oe=638CA50D&_nc_sid=4efc9f",
                                "width": 480
                            },
                            {
                                "height": 320,
                                "url": "https://scontent-ord5-2.cdninstagram.com/v/t51.2885-15/317369825_646939963805526_6259118207363766191_n.webp?stp=dst-jpg_e35_s320x320&_nc_ht=scontent-ord5-2.cdninstagram.com&_nc_cat=106&_nc_ohc=4ykLJ6D7tXwAX84xU3Y&edm=ABZsPhsBAAAA&ccb=7-5&ig_cache_key=Mjk4MzAzMDgzNTk3MzM0MTA2NA%3D%3D.2-ccb7-5&oh=00_AfAyiCp9pcJv_DP0ayx-XWhmBtt41_AJhPKw3zuUgyR2WA&oe=638CA50D&_nc_sid=4efc9f",
                                "width": 320
                            },
                            {
                                "height": 240,
                                "url": "https://scontent-ord5-2.cdninstagram.com/v/t51.2885-15/317369825_646939963805526_6259118207363766191_n.webp?stp=dst-jpg_e35_s240x240&_nc_ht=scontent-ord5-2.cdninstagram.com&_nc_cat=106&_nc_ohc=4ykLJ6D7tXwAX84xU3Y&edm=ABZsPhsBAAAA&ccb=7-5&ig_cache_key=Mjk4MzAzMDgzNTk3MzM0MTA2NA%3D%3D.2-ccb7-5&oh=00_AfAyzKgH5myRVuAYyRddDRt4k1qkcqHG66Dd1HhRo3HoSw&oe=638CA50D&_nc_sid=4efc9f",
                                "width": 240
                            },
                            {
                                "height": 1080,
                                "url": "https://scontent-ord5-2.cdninstagram.com/v/t51.2885-15/317369825_646939963805526_6259118207363766191_n.webp?stp=dst-jpg_e35&_nc_ht=scontent-ord5-2.cdninstagram.com&_nc_cat=106&_nc_ohc=4ykLJ6D7tXwAX84xU3Y&edm=ABZsPhsBAAAA&ccb=7-5&ig_cache_key=Mjk4MzAzMDgzNTk3MzM0MTA2NA%3D%3D.2-ccb7-5&oh=00_AfCG-W74j0qjmZi5-yFPEpntg7CmSoqsrglHYFMIQjM5tw&oe=638CA50D&_nc_sid=4efc9f",
                                "width": 1080
                            },
                            {
                                "height": 750,
                                "url": "https://scontent-ord5-2.cdninstagram.com/v/t51.2885-15/317369825_646939963805526_6259118207363766191_n.webp?stp=dst-jpg_e35&_nc_ht=scontent-ord5-2.cdninstagram.com&_nc_cat=106&_nc_ohc=4ykLJ6D7tXwAX84xU3Y&edm=ABZsPhsBAAAA&ccb=7-5&ig_cache_key=Mjk4MzAzMDgzNTk3MzM0MTA2NA%3D%3D.2-ccb7-5&oh=00_AfCG-W74j0qjmZi5-yFPEpntg7CmSoqsrglHYFMIQjM5tw&oe=638CA50D&_nc_sid=4efc9f",
                                "width": 750
                            },
                            {
                                "height": 640,
                                "url": "https://scontent-ord5-2.cdninstagram.com/v/t51.2885-15/317369825_646939963805526_6259118207363766191_n.webp?stp=dst-jpg_e35_s640x640_sh0.08&_nc_ht=scontent-ord5-2.cdninstagram.com&_nc_cat=106&_nc_ohc=4ykLJ6D7tXwAX84xU3Y&edm=ABZsPhsBAAAA&ccb=7-5&ig_cache_key=Mjk4MzAzMDgzNTk3MzM0MTA2NA%3D%3D.2-ccb7-5&oh=00_AfBL58-pF_ItmFs6KJ6Hl2uqTUdkUhdiPddI5iHdrr-F8Q&oe=638CA50D&_nc_sid=4efc9f",
                                "width": 640
                            },
                            {
                                "height": 480,
                                "url": "https://scontent-ord5-2.cdninstagram.com/v/t51.2885-15/317369825_646939963805526_6259118207363766191_n.webp?stp=dst-jpg_e35_s480x480&_nc_ht=scontent-ord5-2.cdninstagram.com&_nc_cat=106&_nc_ohc=4ykLJ6D7tXwAX84xU3Y&edm=ABZsPhsBAAAA&ccb=7-5&ig_cache_key=Mjk4MzAzMDgzNTk3MzM0MTA2NA%3D%3D.2-ccb7-5&oh=00_AfBBNxXwob-Uxw6ZVWOYhBlhj3tsQO8a1uP0uIMQ83AJbw&oe=638CA50D&_nc_sid=4efc9f",
                                "width": 480
                            },
                            {
                                "height": 320,
                                "url": "https://scontent-ord5-2.cdninstagram.com/v/t51.2885-15/317369825_646939963805526_6259118207363766191_n.webp?stp=dst-jpg_e35_s320x320&_nc_ht=scontent-ord5-2.cdninstagram.com&_nc_cat=106&_nc_ohc=4ykLJ6D7tXwAX84xU3Y&edm=ABZsPhsBAAAA&ccb=7-5&ig_cache_key=Mjk4MzAzMDgzNTk3MzM0MTA2NA%3D%3D.2-ccb7-5&oh=00_AfAyiCp9pcJv_DP0ayx-XWhmBtt41_AJhPKw3zuUgyR2WA&oe=638CA50D&_nc_sid=4efc9f",
                                "width": 320
                            },
                            {
                                "height": 240,
                                "url": "https://scontent-ord5-2.cdninstagram.com/v/t51.2885-15/317369825_646939963805526_6259118207363766191_n.webp?stp=dst-jpg_e35_s240x240&_nc_ht=scontent-ord5-2.cdninstagram.com&_nc_cat=106&_nc_ohc=4ykLJ6D7tXwAX84xU3Y&edm=ABZsPhsBAAAA&ccb=7-5&ig_cache_key=Mjk4MzAzMDgzNTk3MzM0MTA2NA%3D%3D.2-ccb7-5&oh=00_AfAyzKgH5myRVuAYyRddDRt4k1qkcqHG66Dd1HhRo3HoSw&oe=638CA50D&_nc_sid=4efc9f",
                                "width": 240
                            },
                            {
                                "height": 150,
                                "url": "https://scontent-ord5-2.cdninstagram.com/v/t51.2885-15/317369825_646939963805526_6259118207363766191_n.webp?stp=dst-jpg_e35_s150x150&_nc_ht=scontent-ord5-2.cdninstagram.com&_nc_cat=106&_nc_ohc=4ykLJ6D7tXwAX84xU3Y&edm=ABZsPhsBAAAA&ccb=7-5&ig_cache_key=Mjk4MzAzMDgzNTk3MzM0MTA2NA%3D%3D.2-ccb7-5&oh=00_AfAIz6Dw6N1Jf0HjQr-Oa_RW149phgxbY0yt4Y4zQGTrDQ&oe=638CA50D&_nc_sid=4efc9f",
                                "width": 150
                            }
                        ]
                    },
                    "media_type": 1,
                    "original_height": 720,
                    "original_width": 720,
                    "pk": 2983030835973341064,
                    "sharing_friction_info": {
                        "bloks_app_url": null,
                        "sharing_friction_payload": null,
                        "should_have_sharing_friction": false
                    }
                },
                {
                    "carousel_parent_id": "2983030842852080019_50500858917",
                    "commerciality_status": "not_commercial",
                    "id": "2983030835973366473_50500858917",
                    "image_versions2": {
                        "candidates": [
                            {
                                "height": 720,
                                "url": "https://scontent-ord5-2.cdninstagram.com/v/t51.2885-15/317373459_198882395936282_6821552810925951334_n.webp?stp=dst-jpg_e35&_nc_ht=scontent-ord5-2.cdninstagram.com&_nc_cat=102&_nc_ohc=Zwp4cYE7DucAX8W6fJ7&edm=ABZsPhsBAAAA&ccb=7-5&ig_cache_key=Mjk4MzAzMDgzNTk3MzM2NjQ3Mw%3D%3D.2-ccb7-5&oh=00_AfB4zg1f56Z_69VW5rJssUV0YqDRbDTivtLB2NxxbZmd4A&oe=638CD91A&_nc_sid=4efc9f",
                                "width": 720
                            },
                            {
                                "height": 640,
                                "url": "https://scontent-ord5-2.cdninstagram.com/v/t51.2885-15/317373459_198882395936282_6821552810925951334_n.webp?stp=dst-jpg_e35_s640x640_sh0.08&_nc_ht=scontent-ord5-2.cdninstagram.com&_nc_cat=102&_nc_ohc=Zwp4cYE7DucAX8W6fJ7&edm=ABZsPhsBAAAA&ccb=7-5&ig_cache_key=Mjk4MzAzMDgzNTk3MzM2NjQ3Mw%3D%3D.2-ccb7-5&oh=00_AfCHiYnWgmYQNlsA01_xkEh_OM-ULzaUrRkELb25eO1f6Q&oe=638CD91A&_nc_sid=4efc9f",
                                "width": 640
                            },
                            {
                                "height": 480,
                                "url": "https://scontent-ord5-2.cdninstagram.com/v/t51.2885-15/317373459_198882395936282_6821552810925951334_n.webp?stp=dst-jpg_e35_s480x480&_nc_ht=scontent-ord5-2.cdninstagram.com&_nc_cat=102&_nc_ohc=Zwp4cYE7DucAX8W6fJ7&edm=ABZsPhsBAAAA&ccb=7-5&ig_cache_key=Mjk4MzAzMDgzNTk3MzM2NjQ3Mw%3D%3D.2-ccb7-5&oh=00_AfC3z9c-LGfTEEBool7GHoyEhu7u-Yws1BL1d_Rw3UEGvA&oe=638CD91A&_nc_sid=4efc9f",
                                "width": 480
                            },
                            {
                                "height": 320,
                                "url": "https://scontent-ord5-2.cdninstagram.com/v/t51.2885-15/317373459_198882395936282_6821552810925951334_n.webp?stp=dst-jpg_e35_s320x320&_nc_ht=scontent-ord5-2.cdninstagram.com&_nc_cat=102&_nc_ohc=Zwp4cYE7DucAX8W6fJ7&edm=ABZsPhsBAAAA&ccb=7-5&ig_cache_key=Mjk4MzAzMDgzNTk3MzM2NjQ3Mw%3D%3D.2-ccb7-5&oh=00_AfDD7ScO88VXr9z6YS4Vp8JJrjbXL-GWKVsvmKvXFyWaqw&oe=638CD91A&_nc_sid=4efc9f",
                                "width": 320
                            },
                            {
                                "height": 240,
                                "url": "https://scontent-ord5-2.cdninstagram.com/v/t51.2885-15/317373459_198882395936282_6821552810925951334_n.webp?stp=dst-jpg_e35_s240x240&_nc_ht=scontent-ord5-2.cdninstagram.com&_nc_cat=102&_nc_ohc=Zwp4cYE7DucAX8W6fJ7&edm=ABZsPhsBAAAA&ccb=7-5&ig_cache_key=Mjk4MzAzMDgzNTk3MzM2NjQ3Mw%3D%3D.2-ccb7-5&oh=00_AfCnGTcnjnQANlrM_G5WfnkwX6WJ16l4OSl70OGHPyTdfw&oe=638CD91A&_nc_sid=4efc9f",
                                "width": 240
                            },
                            {
                                "height": 1080,
                                "url": "https://scontent-ord5-2.cdninstagram.com/v/t51.2885-15/317373459_198882395936282_6821552810925951334_n.webp?stp=dst-jpg_e35&_nc_ht=scontent-ord5-2.cdninstagram.com&_nc_cat=102&_nc_ohc=Zwp4cYE7DucAX8W6fJ7&edm=ABZsPhsBAAAA&ccb=7-5&ig_cache_key=Mjk4MzAzMDgzNTk3MzM2NjQ3Mw%3D%3D.2-ccb7-5&oh=00_AfB4zg1f56Z_69VW5rJssUV0YqDRbDTivtLB2NxxbZmd4A&oe=638CD91A&_nc_sid=4efc9f",
                                "width": 1080
                            },
                            {
                                "height": 750,
                                "url": "https://scontent-ord5-2.cdninstagram.com/v/t51.2885-15/317373459_198882395936282_6821552810925951334_n.webp?stp=dst-jpg_e35&_nc_ht=scontent-ord5-2.cdninstagram.com&_nc_cat=102&_nc_ohc=Zwp4cYE7DucAX8W6fJ7&edm=ABZsPhsBAAAA&ccb=7-5&ig_cache_key=Mjk4MzAzMDgzNTk3MzM2NjQ3Mw%3D%3D.2-ccb7-5&oh=00_AfB4zg1f56Z_69VW5rJssUV0YqDRbDTivtLB2NxxbZmd4A&oe=638CD91A&_nc_sid=4efc9f",
                                "width": 750
                            },
                            {
                                "height": 640,
                                "url": "https://scontent-ord5-2.cdninstagram.com/v/t51.2885-15/317373459_198882395936282_6821552810925951334_n.webp?stp=dst-jpg_e35_s640x640_sh0.08&_nc_ht=scontent-ord5-2.cdninstagram.com&_nc_cat=102&_nc_ohc=Zwp4cYE7DucAX8W6fJ7&edm=ABZsPhsBAAAA&ccb=7-5&ig_cache_key=Mjk4MzAzMDgzNTk3MzM2NjQ3Mw%3D%3D.2-ccb7-5&oh=00_AfCHiYnWgmYQNlsA01_xkEh_OM-ULzaUrRkELb25eO1f6Q&oe=638CD91A&_nc_sid=4efc9f",
                                "width": 640
                            },
                            {
                                "height": 480,
                                "url": "https://scontent-ord5-2.cdninstagram.com/v/t51.2885-15/317373459_198882395936282_6821552810925951334_n.webp?stp=dst-jpg_e35_s480x480&_nc_ht=scontent-ord5-2.cdninstagram.com&_nc_cat=102&_nc_ohc=Zwp4cYE7DucAX8W6fJ7&edm=ABZsPhsBAAAA&ccb=7-5&ig_cache_key=Mjk4MzAzMDgzNTk3MzM2NjQ3Mw%3D%3D.2-ccb7-5&oh=00_AfC3z9c-LGfTEEBool7GHoyEhu7u-Yws1BL1d_Rw3UEGvA&oe=638CD91A&_nc_sid=4efc9f",
                                "width": 480
                            },
                            {
                                "height": 320,
                                "url": "https://scontent-ord5-2.cdninstagram.com/v/t51.2885-15/317373459_198882395936282_6821552810925951334_n.webp?stp=dst-jpg_e35_s320x320&_nc_ht=scontent-ord5-2.cdninstagram.com&_nc_cat=102&_nc_ohc=Zwp4cYE7DucAX8W6fJ7&edm=ABZsPhsBAAAA&ccb=7-5&ig_cache_key=Mjk4MzAzMDgzNTk3MzM2NjQ3Mw%3D%3D.2-ccb7-5&oh=00_AfDD7ScO88VXr9z6YS4Vp8JJrjbXL-GWKVsvmKvXFyWaqw&oe=638CD91A&_nc_sid=4efc9f",
                                "width": 320
                            },
                            {
                                "height": 240,
                                "url": "https://scontent-ord5-2.cdninstagram.com/v/t51.2885-15/317373459_198882395936282_6821552810925951334_n.webp?stp=dst-jpg_e35_s240x240&_nc_ht=scontent-ord5-2.cdninstagram.com&_nc_cat=102&_nc_ohc=Zwp4cYE7DucAX8W6fJ7&edm=ABZsPhsBAAAA&ccb=7-5&ig_cache_key=Mjk4MzAzMDgzNTk3MzM2NjQ3Mw%3D%3D.2-ccb7-5&oh=00_AfCnGTcnjnQANlrM_G5WfnkwX6WJ16l4OSl70OGHPyTdfw&oe=638CD91A&_nc_sid=4efc9f",
                                "width": 240
                            },
                            {
                                "height": 150,
                                "url": "https://scontent-ord5-2.cdninstagram.com/v/t51.2885-15/317373459_198882395936282_6821552810925951334_n.webp?stp=dst-jpg_e35_s150x150&_nc_ht=scontent-ord5-2.cdninstagram.com&_nc_cat=102&_nc_ohc=Zwp4cYE7DucAX8W6fJ7&edm=ABZsPhsBAAAA&ccb=7-5&ig_cache_key=Mjk4MzAzMDgzNTk3MzM2NjQ3Mw%3D%3D.2-ccb7-5&oh=00_AfCZoYcyUziPrFebRz9i2AxTwSMfDWNe5ha7iqFzcfhUew&oe=638CD91A&_nc_sid=4efc9f",
                                "width": 150
                            }
                        ]
                    },
                    "media_type": 1,
                    "original_height": 720,
                    "original_width": 720,
                    "pk": 2983030835973366473,
                    "sharing_friction_info": {
                        "bloks_app_url": null,
                        "sharing_friction_payload": null,
                        "should_have_sharing_friction": false
                    }
                },
                {
                    "carousel_parent_id": "2983030842852080019_50500858917",
                    "commerciality_status": "not_commercial",
                    "id": "2983030835973404727_50500858917",
                    "image_versions2": {
                        "candidates": [
                            {
                                "height": 720,
                                "url": "https://scontent-ord5-2.cdninstagram.com/v/t51.2885-15/317507648_1222974988259904_5888170816160818817_n.webp?stp=dst-jpg_e35&_nc_ht=scontent-ord5-2.cdninstagram.com&_nc_cat=100&_nc_ohc=7skfQBHw5SIAX92TQ_q&edm=ABZsPhsBAAAA&ccb=7-5&ig_cache_key=Mjk4MzAzMDgzNTk3MzQwNDcyNw%3D%3D.2-ccb7-5&oh=00_AfBVuzMsfyou2XtjoRLmjJg58U04N0sug1rptxEiv-9jyA&oe=638D1690&_nc_sid=4efc9f",
                                "width": 720
                            },
                            {
                                "height": 640,
                                "url": "https://scontent-ord5-2.cdninstagram.com/v/t51.2885-15/317507648_1222974988259904_5888170816160818817_n.webp?stp=dst-jpg_e35_s640x640_sh0.08&_nc_ht=scontent-ord5-2.cdninstagram.com&_nc_cat=100&_nc_ohc=7skfQBHw5SIAX92TQ_q&edm=ABZsPhsBAAAA&ccb=7-5&ig_cache_key=Mjk4MzAzMDgzNTk3MzQwNDcyNw%3D%3D.2-ccb7-5&oh=00_AfCMSh9f_2t2aXAXju5j1Vci88ClvOooJiDgA_efnH3LKw&oe=638D1690&_nc_sid=4efc9f",
                                "width": 640
                            },
                            {
                                "height": 480,
                                "url": "https://scontent-ord5-2.cdninstagram.com/v/t51.2885-15/317507648_1222974988259904_5888170816160818817_n.webp?stp=dst-jpg_e35_s480x480&_nc_ht=scontent-ord5-2.cdninstagram.com&_nc_cat=100&_nc_ohc=7skfQBHw5SIAX92TQ_q&edm=ABZsPhsBAAAA&ccb=7-5&ig_cache_key=Mjk4MzAzMDgzNTk3MzQwNDcyNw%3D%3D.2-ccb7-5&oh=00_AfDh7DzkVi51cWCiJWY_TobxlFdMp_PxsYqlDWmfWGx-9A&oe=638D1690&_nc_sid=4efc9f",
                                "width": 480
                            },
                            {
                                "height": 320,
                                "url": "https://scontent-ord5-2.cdninstagram.com/v/t51.2885-15/317507648_1222974988259904_5888170816160818817_n.webp?stp=dst-jpg_e35_s320x320&_nc_ht=scontent-ord5-2.cdninstagram.com&_nc_cat=100&_nc_ohc=7skfQBHw5SIAX92TQ_q&edm=ABZsPhsBAAAA&ccb=7-5&ig_cache_key=Mjk4MzAzMDgzNTk3MzQwNDcyNw%3D%3D.2-ccb7-5&oh=00_AfDmeyXMRYbdvAqeY9nOkzqeOdwZ8SNqT0oUUOEKjKTjkQ&oe=638D1690&_nc_sid=4efc9f",
                                "width": 320
                            },
                            {
                                "height": 240,
                                "url": "https://scontent-ord5-2.cdninstagram.com/v/t51.2885-15/317507648_1222974988259904_5888170816160818817_n.webp?stp=dst-jpg_e35_s240x240&_nc_ht=scontent-ord5-2.cdninstagram.com&_nc_cat=100&_nc_ohc=7skfQBHw5SIAX92TQ_q&edm=ABZsPhsBAAAA&ccb=7-5&ig_cache_key=Mjk4MzAzMDgzNTk3MzQwNDcyNw%3D%3D.2-ccb7-5&oh=00_AfAkmb6xR4S90dL--vB3xmtvJ3WiX5X8QtVjY83PrOpgfw&oe=638D1690&_nc_sid=4efc9f",
                                "width": 240
                            },
                            {
                                "height": 1080,
                                "url": "https://scontent-ord5-2.cdninstagram.com/v/t51.2885-15/317507648_1222974988259904_5888170816160818817_n.webp?stp=dst-jpg_e35&_nc_ht=scontent-ord5-2.cdninstagram.com&_nc_cat=100&_nc_ohc=7skfQBHw5SIAX92TQ_q&edm=ABZsPhsBAAAA&ccb=7-5&ig_cache_key=Mjk4MzAzMDgzNTk3MzQwNDcyNw%3D%3D.2-ccb7-5&oh=00_AfBVuzMsfyou2XtjoRLmjJg58U04N0sug1rptxEiv-9jyA&oe=638D1690&_nc_sid=4efc9f",
                                "width": 1080
                            },
                            {
                                "height": 750,
                                "url": "https://scontent-ord5-2.cdninstagram.com/v/t51.2885-15/317507648_1222974988259904_5888170816160818817_n.webp?stp=dst-jpg_e35&_nc_ht=scontent-ord5-2.cdninstagram.com&_nc_cat=100&_nc_ohc=7skfQBHw5SIAX92TQ_q&edm=ABZsPhsBAAAA&ccb=7-5&ig_cache_key=Mjk4MzAzMDgzNTk3MzQwNDcyNw%3D%3D.2-ccb7-5&oh=00_AfBVuzMsfyou2XtjoRLmjJg58U04N0sug1rptxEiv-9jyA&oe=638D1690&_nc_sid=4efc9f",
                                "width": 750
                            },
                            {
                                "height": 640,
                                "url": "https://scontent-ord5-2.cdninstagram.com/v/t51.2885-15/317507648_1222974988259904_5888170816160818817_n.webp?stp=dst-jpg_e35_s640x640_sh0.08&_nc_ht=scontent-ord5-2.cdninstagram.com&_nc_cat=100&_nc_ohc=7skfQBHw5SIAX92TQ_q&edm=ABZsPhsBAAAA&ccb=7-5&ig_cache_key=Mjk4MzAzMDgzNTk3MzQwNDcyNw%3D%3D.2-ccb7-5&oh=00_AfCMSh9f_2t2aXAXju5j1Vci88ClvOooJiDgA_efnH3LKw&oe=638D1690&_nc_sid=4efc9f",
                                "width": 640
                            },
                            {
                                "height": 480,
                                "url": "https://scontent-ord5-2.cdninstagram.com/v/t51.2885-15/317507648_1222974988259904_5888170816160818817_n.webp?stp=dst-jpg_e35_s480x480&_nc_ht=scontent-ord5-2.cdninstagram.com&_nc_cat=100&_nc_ohc=7skfQBHw5SIAX92TQ_q&edm=ABZsPhsBAAAA&ccb=7-5&ig_cache_key=Mjk4MzAzMDgzNTk3MzQwNDcyNw%3D%3D.2-ccb7-5&oh=00_AfDh7DzkVi51cWCiJWY_TobxlFdMp_PxsYqlDWmfWGx-9A&oe=638D1690&_nc_sid=4efc9f",
                                "width": 480
                            },
                            {
                                "height": 320,
                                "url": "https://scontent-ord5-2.cdninstagram.com/v/t51.2885-15/317507648_1222974988259904_5888170816160818817_n.webp?stp=dst-jpg_e35_s320x320&_nc_ht=scontent-ord5-2.cdninstagram.com&_nc_cat=100&_nc_ohc=7skfQBHw5SIAX92TQ_q&edm=ABZsPhsBAAAA&ccb=7-5&ig_cache_key=Mjk4MzAzMDgzNTk3MzQwNDcyNw%3D%3D.2-ccb7-5&oh=00_AfDmeyXMRYbdvAqeY9nOkzqeOdwZ8SNqT0oUUOEKjKTjkQ&oe=638D1690&_nc_sid=4efc9f",
                                "width": 320
                            },
                            {
                                "height": 240,
                                "url": "https://scontent-ord5-2.cdninstagram.com/v/t51.2885-15/317507648_1222974988259904_5888170816160818817_n.webp?stp=dst-jpg_e35_s240x240&_nc_ht=scontent-ord5-2.cdninstagram.com&_nc_cat=100&_nc_ohc=7skfQBHw5SIAX92TQ_q&edm=ABZsPhsBAAAA&ccb=7-5&ig_cache_key=Mjk4MzAzMDgzNTk3MzQwNDcyNw%3D%3D.2-ccb7-5&oh=00_AfAkmb6xR4S90dL--vB3xmtvJ3WiX5X8QtVjY83PrOpgfw&oe=638D1690&_nc_sid=4efc9f",
                                "width": 240
                            },
                            {
                                "height": 150,
                                "url": "https://scontent-ord5-2.cdninstagram.com/v/t51.2885-15/317507648_1222974988259904_5888170816160818817_n.webp?stp=dst-jpg_e35_s150x150&_nc_ht=scontent-ord5-2.cdninstagram.com&_nc_cat=100&_nc_ohc=7skfQBHw5SIAX92TQ_q&edm=ABZsPhsBAAAA&ccb=7-5&ig_cache_key=Mjk4MzAzMDgzNTk3MzQwNDcyNw%3D%3D.2-ccb7-5&oh=00_AfBPflatbSkGAgpERfWCtNliSGM4_sfDoWSDgfxL_IXgew&oe=638D1690&_nc_sid=4efc9f",
                                "width": 150
                            }
                        ]
                    },
                    "media_type": 1,
                    "original_height": 720,
                    "original_width": 720,
                    "pk": 2983030835973404727,
                    "sharing_friction_info": {
                        "bloks_app_url": null,
                        "sharing_friction_payload": null,
                        "should_have_sharing_friction": false
                    }
                },
                {
                    "carousel_parent_id": "2983030842852080019_50500858917",
                    "commerciality_status": "not_commercial",
                    "id": "2983030835973450175_50500858917",
                    "image_versions2": {
                        "candidates": [
                            {
                                "height": 720,
                                "url": "https://scontent-ord5-2.cdninstagram.com/v/t51.2885-15/317287690_702479317756185_85400582734966600_n.webp?stp=dst-jpg_e35&_nc_ht=scontent-ord5-2.cdninstagram.com&_nc_cat=109&_nc_ohc=liaLPRZh5QcAX-jPovz&tn=bFlNyZiOPtsFOL2_&edm=ABZsPhsBAAAA&ccb=7-5&ig_cache_key=Mjk4MzAzMDgzNTk3MzQ1MDE3NQ%3D%3D.2-ccb7-5&oh=00_AfAQQ1fV4Domg2CKMWDum0FEz-gtCLbG5uGubsAOKvshOA&oe=638D634F&_nc_sid=4efc9f",
                                "width": 720
                            },
                            {
                                "height": 640,
                                "url": "https://scontent-ord5-2.cdninstagram.com/v/t51.2885-15/317287690_702479317756185_85400582734966600_n.webp?stp=dst-jpg_e35_s640x640_sh0.08&_nc_ht=scontent-ord5-2.cdninstagram.com&_nc_cat=109&_nc_ohc=liaLPRZh5QcAX-jPovz&tn=bFlNyZiOPtsFOL2_&edm=ABZsPhsBAAAA&ccb=7-5&ig_cache_key=Mjk4MzAzMDgzNTk3MzQ1MDE3NQ%3D%3D.2-ccb7-5&oh=00_AfBwM6YS9Pa1ZeY-p2pZutVhziKkpRNlvoLFaN02FHw7gQ&oe=638D634F&_nc_sid=4efc9f",
                                "width": 640
                            },
                            {
                                "height": 480,
                                "url": "https://scontent-ord5-2.cdninstagram.com/v/t51.2885-15/317287690_702479317756185_85400582734966600_n.webp?stp=dst-jpg_e35_s480x480&_nc_ht=scontent-ord5-2.cdninstagram.com&_nc_cat=109&_nc_ohc=liaLPRZh5QcAX-jPovz&tn=bFlNyZiOPtsFOL2_&edm=ABZsPhsBAAAA&ccb=7-5&ig_cache_key=Mjk4MzAzMDgzNTk3MzQ1MDE3NQ%3D%3D.2-ccb7-5&oh=00_AfACWOqTMP_aIlTlE2Fw-BbCnW9UuCzP3fYYAqFpdAYyug&oe=638D634F&_nc_sid=4efc9f",
                                "width": 480
                            },
                            {
                                "height": 320,
                                "url": "https://scontent-ord5-2.cdninstagram.com/v/t51.2885-15/317287690_702479317756185_85400582734966600_n.webp?stp=dst-jpg_e35_s320x320&_nc_ht=scontent-ord5-2.cdninstagram.com&_nc_cat=109&_nc_ohc=liaLPRZh5QcAX-jPovz&tn=bFlNyZiOPtsFOL2_&edm=ABZsPhsBAAAA&ccb=7-5&ig_cache_key=Mjk4MzAzMDgzNTk3MzQ1MDE3NQ%3D%3D.2-ccb7-5&oh=00_AfAmWxF_wqtINUMU6jwZeox1o7Wkb0q_eauHuduN4TNOBQ&oe=638D634F&_nc_sid=4efc9f",
                                "width": 320
                            },
                            {
                                "height": 240,
                                "url": "https://scontent-ord5-2.cdninstagram.com/v/t51.2885-15/317287690_702479317756185_85400582734966600_n.webp?stp=dst-jpg_e35_s240x240&_nc_ht=scontent-ord5-2.cdninstagram.com&_nc_cat=109&_nc_ohc=liaLPRZh5QcAX-jPovz&tn=bFlNyZiOPtsFOL2_&edm=ABZsPhsBAAAA&ccb=7-5&ig_cache_key=Mjk4MzAzMDgzNTk3MzQ1MDE3NQ%3D%3D.2-ccb7-5&oh=00_AfAiCSQeAQbJb-FPmVc92R1rB5VURryxwBJPjGnUsO6zRQ&oe=638D634F&_nc_sid=4efc9f",
                                "width": 240
                            },
                            {
                                "height": 1080,
                                "url": "https://scontent-ord5-2.cdninstagram.com/v/t51.2885-15/317287690_702479317756185_85400582734966600_n.webp?stp=dst-jpg_e35&_nc_ht=scontent-ord5-2.cdninstagram.com&_nc_cat=109&_nc_ohc=liaLPRZh5QcAX-jPovz&tn=bFlNyZiOPtsFOL2_&edm=ABZsPhsBAAAA&ccb=7-5&ig_cache_key=Mjk4MzAzMDgzNTk3MzQ1MDE3NQ%3D%3D.2-ccb7-5&oh=00_AfAQQ1fV4Domg2CKMWDum0FEz-gtCLbG5uGubsAOKvshOA&oe=638D634F&_nc_sid=4efc9f",
                                "width": 1080
                            },
                            {
                                "height": 750,
                                "url": "https://scontent-ord5-2.cdninstagram.com/v/t51.2885-15/317287690_702479317756185_85400582734966600_n.webp?stp=dst-jpg_e35&_nc_ht=scontent-ord5-2.cdninstagram.com&_nc_cat=109&_nc_ohc=liaLPRZh5QcAX-jPovz&tn=bFlNyZiOPtsFOL2_&edm=ABZsPhsBAAAA&ccb=7-5&ig_cache_key=Mjk4MzAzMDgzNTk3MzQ1MDE3NQ%3D%3D.2-ccb7-5&oh=00_AfAQQ1fV4Domg2CKMWDum0FEz-gtCLbG5uGubsAOKvshOA&oe=638D634F&_nc_sid=4efc9f",
                                "width": 750
                            },
                            {
                                "height": 640,
                                "url": "https://scontent-ord5-2.cdninstagram.com/v/t51.2885-15/317287690_702479317756185_85400582734966600_n.webp?stp=dst-jpg_e35_s640x640_sh0.08&_nc_ht=scontent-ord5-2.cdninstagram.com&_nc_cat=109&_nc_ohc=liaLPRZh5QcAX-jPovz&tn=bFlNyZiOPtsFOL2_&edm=ABZsPhsBAAAA&ccb=7-5&ig_cache_key=Mjk4MzAzMDgzNTk3MzQ1MDE3NQ%3D%3D.2-ccb7-5&oh=00_AfBwM6YS9Pa1ZeY-p2pZutVhziKkpRNlvoLFaN02FHw7gQ&oe=638D634F&_nc_sid=4efc9f",
                                "width": 640
                            },
                            {
                                "height": 480,
                                "url": "https://scontent-ord5-2.cdninstagram.com/v/t51.2885-15/317287690_702479317756185_85400582734966600_n.webp?stp=dst-jpg_e35_s480x480&_nc_ht=scontent-ord5-2.cdninstagram.com&_nc_cat=109&_nc_ohc=liaLPRZh5QcAX-jPovz&tn=bFlNyZiOPtsFOL2_&edm=ABZsPhsBAAAA&ccb=7-5&ig_cache_key=Mjk4MzAzMDgzNTk3MzQ1MDE3NQ%3D%3D.2-ccb7-5&oh=00_AfACWOqTMP_aIlTlE2Fw-BbCnW9UuCzP3fYYAqFpdAYyug&oe=638D634F&_nc_sid=4efc9f",
                                "width": 480
                            },
                            {
                                "height": 320,
                                "url": "https://scontent-ord5-2.cdninstagram.com/v/t51.2885-15/317287690_702479317756185_85400582734966600_n.webp?stp=dst-jpg_e35_s320x320&_nc_ht=scontent-ord5-2.cdninstagram.com&_nc_cat=109&_nc_ohc=liaLPRZh5QcAX-jPovz&tn=bFlNyZiOPtsFOL2_&edm=ABZsPhsBAAAA&ccb=7-5&ig_cache_key=Mjk4MzAzMDgzNTk3MzQ1MDE3NQ%3D%3D.2-ccb7-5&oh=00_AfAmWxF_wqtINUMU6jwZeox1o7Wkb0q_eauHuduN4TNOBQ&oe=638D634F&_nc_sid=4efc9f",
                                "width": 320
                            },
                            {
                                "height": 240,
                                "url": "https://scontent-ord5-2.cdninstagram.com/v/t51.2885-15/317287690_702479317756185_85400582734966600_n.webp?stp=dst-jpg_e35_s240x240&_nc_ht=scontent-ord5-2.cdninstagram.com&_nc_cat=109&_nc_ohc=liaLPRZh5QcAX-jPovz&tn=bFlNyZiOPtsFOL2_&edm=ABZsPhsBAAAA&ccb=7-5&ig_cache_key=Mjk4MzAzMDgzNTk3MzQ1MDE3NQ%3D%3D.2-ccb7-5&oh=00_AfAiCSQeAQbJb-FPmVc92R1rB5VURryxwBJPjGnUsO6zRQ&oe=638D634F&_nc_sid=4efc9f",
                                "width": 240
                            },
                            {
                                "height": 150,
                                "url": "https://scontent-ord5-2.cdninstagram.com/v/t51.2885-15/317287690_702479317756185_85400582734966600_n.webp?stp=dst-jpg_e35_s150x150&_nc_ht=scontent-ord5-2.cdninstagram.com&_nc_cat=109&_nc_ohc=liaLPRZh5QcAX-jPovz&tn=bFlNyZiOPtsFOL2_&edm=ABZsPhsBAAAA&ccb=7-5&ig_cache_key=Mjk4MzAzMDgzNTk3MzQ1MDE3NQ%3D%3D.2-ccb7-5&oh=00_AfAEhmUGbW-Gc7lr3XLmRSunByEFG47Xh5EbrMAa73LfTw&oe=638D634F&_nc_sid=4efc9f",
                                "width": 150
                            }
                        ]
                    },
                    "media_type": 1,
                    "original_height": 720,
                    "original_width": 720,
                    "pk": 2983030835973450175,
                    "sharing_friction_info": {
                        "bloks_app_url": null,
                        "sharing_friction_payload": null,
                        "should_have_sharing_friction": false
                    }
                }
            ],
            "carousel_media_count": 10,
            "client_cache_key": "Mjk4MzAzMDg0Mjg1MjA4MDAxOQ==.2",
            "clips_tab_pinned_user_ids": [],
            "code": "Cll2r8uO3mT",
            "comment_count": 11,
            "comment_inform_treatment": {
                "action_type": null,
                "should_have_inform_treatment": false,
                "text": "",
                "url": null
            },
            "comment_likes_enabled": false,
            "comment_threading_enabled": true,
            "comments": [
                {
                    "bit_flags": 0,
                    "content_type": "comment",
                    "created_at": 1669831732,
                    "created_at_utc": 1669831732,
                    "did_report_as_spam": false,
                    "is_covered": false,
                    "is_ranked_comment": false,
                    "media_id": 2983030842852080019,
                    "pk": 17932917116581425,
                    "private_reply_status": 0,
                    "share_enabled": false,
                    "status": "Active",
                    "text": "Dm @promote__small.business for shoutout",
                    "type": 0,
                    "user": {
                        "full_name": "R\u0336A\u0336S\u0336H\u0336M\u0336I\u0336 V\u0336A\u0336S\u0336H\u0336I\u0336S\u0336T\u0336\n\u2764\ufe0f",
                        "is_private": true,
                        "is_verified": false,
                        "pk": 42188084003,
                        "pk_id": "42188084003",
                        "profile_pic_id": "2790254223957572381_42188084003",
                        "profile_pic_url": "https://scontent-ord5-2.cdninstagram.com/v/t51.2885-19/275415172_136862518834413_4399293378348007331_n.jpg?stp=dst-jpg_s150x150&_nc_ht=scontent-ord5-2.cdninstagram.com&_nc_cat=109&_nc_ohc=SNAlas4S2vUAX9Rg8HF&edm=ABZsPhsBAAAA&ccb=7-5&oh=00_AfCLIEBubUYmu7qRtKVehYd-fh4bY2dnsLw3ps7QEba7Sg&oe=638D007B&_nc_sid=4efc9f",
                        "username": "__rashmiii16_"
                    },
                    "user_id": 42188084003
                },
                {
                    "bit_flags": 0,
                    "content_type": "comment",
                    "created_at": 1669835039,
                    "created_at_utc": 1669835039,
                    "did_report_as_spam": false,
                    "is_covered": false,
                    "is_ranked_comment": false,
                    "media_id": 2983030842852080019,
                    "pk": 18330554014054370,
                    "private_reply_status": 0,
                    "share_enabled": false,
                    "status": "Active",
                    "text": "All of your outfits are so beautiful.  They have such beautiful style.",
                    "type": 0,
                    "user": {
                        "full_name": "Betty Underwood-Bradley",
                        "is_private": true,
                        "is_verified": false,
                        "pk": 7208159951,
                        "pk_id": "7208159951",
                        "profile_pic_id": "2954153281093763752_7208159951",
                        "profile_pic_url": "https://scontent-ord5-2.cdninstagram.com/v/t51.2885-19/312582049_5899699633381932_6786608566752913911_n.jpg?stp=dst-jpg_s150x150&_nc_ht=scontent-ord5-2.cdninstagram.com&_nc_cat=100&_nc_ohc=CfjHVP7hU4cAX_bEKgW&tn=bFlNyZiOPtsFOL2_&edm=ABZsPhsBAAAA&ccb=7-5&oh=00_AfDfpsCf9bRGoBqvnlXr09BENP662mRHV4GUzdhZoj4o5w&oe=638D29D1&_nc_sid=4efc9f",
                        "username": "blondebetty1"
                    },
                    "user_id": 7208159951
                }
            ],
            "commerce_integrity_review_decision": null,
            "commerciality_status": "not_commercial",
            "deleted_reason": 0,
            "device_timestamp": 50032141799213,
            "facepile_top_likers": [],
            "filter_type": 0,
            "has_delayed_metadata": false,
            "has_liked": false,
            "has_more_comments": true,
            "has_shared_to_fb": 0,
            "hide_view_all_comment_entrypoint": false,
            "id": "2983030842852080019_50500858917",
            "integrity_review_decision": "pending",
            "is_artist_pick": false,
            "is_in_profile_grid": false,
            "is_organic_product_tagging_eligible": false,
            "is_paid_partnership": false,
            "is_unified_video": false,
            "is_visual_reply_commenter_notice_enabled": true,
            "lat": 38.8945974858,
            "like_and_view_counts_disabled": false,
            "like_count": 932,
            "lng": -77.0367813308,
            "location": {
                "address": "United States Of America",
                "city": "",
                "external_source": "facebook_places",
                "facebook_places_id": 102618861444715,
                "has_viewer_saved": false,
                "is_eligible_for_guides": true,
                "lat": 38.8945974858,
                "lng": -77.0367813308,
                "name": "USA",
                "pk": 102618861444715,
                "short_name": "USA"
            },
            "max_num_visible_preview_comments": 2,
            "media_type": 8,
            "music_metadata": {
                "audio_type": null,
                "music_canonical_id": "0",
                "music_info": null,
                "original_sound_info": null,
                "pinned_media_ids": null
            },
            "next_max_id": 18330554014054370,
            "organic_tracking_token": "eyJ2ZXJzaW9uIjo1LCJwYXlsb2FkIjp7ImlzX2FuYWx5dGljc190cmFja2VkIjp0cnVlLCJ1dWlkIjoiYWJiNjExYWZhYmZiNDRjMmFiNTkzNTFiZDM4MWFlNGMyOTgzMDMwODQyODUyMDgwMDE5Iiwic2VydmVyX3Rva2VuIjoiMTY2OTg1MDYyMTc3OHwyOTgzMDMwODQyODUyMDgwMDE5fDE5MTI2NzkwMTl8YzllMjdjZWE4YmU1NmEzNDYzMjMyZGIwNDgyODg4ZDA4M2JhYzc2MzU1NzExZTE4ZWVhNDRiN2QyYzVkYjlhNSJ9LCJzaWduYXR1cmUiOiIifQ==",
            "original_media_has_visual_reply_media": false,
            "photo_of_you": false,
            "pk": 2983030842852080019,
            "preview_comments": [
                {
                    "bit_flags": 0,
                    "content_type": "comment",
                    "created_at": 1669831732,
                    "created_at_utc": 1669831732,
                    "did_report_as_spam": false,
                    "is_covered": false,
                    "is_ranked_comment": false,
                    "media_id": 2983030842852080019,
                    "pk": 17932917116581425,
                    "private_reply_status": 0,
                    "share_enabled": false,
                    "status": "Active",
                    "text": "Dm @promote__small.business for shoutout",
                    "type": 0,
                    "user": {
                        "full_name": "R\u0336A\u0336S\u0336H\u0336M\u0336I\u0336 V\u0336A\u0336S\u0336H\u0336I\u0336S\u0336T\u0336\n\u2764\ufe0f",
                        "is_private": true,
                        "is_verified": false,
                        "pk": 42188084003,
                        "pk_id": "42188084003",
                        "profile_pic_id": "2790254223957572381_42188084003",
                        "profile_pic_url": "https://scontent-ord5-2.cdninstagram.com/v/t51.2885-19/275415172_136862518834413_4399293378348007331_n.jpg?stp=dst-jpg_s150x150&_nc_ht=scontent-ord5-2.cdninstagram.com&_nc_cat=109&_nc_ohc=SNAlas4S2vUAX9Rg8HF&edm=ABZsPhsBAAAA&ccb=7-5&oh=00_AfCLIEBubUYmu7qRtKVehYd-fh4bY2dnsLw3ps7QEba7Sg&oe=638D007B&_nc_sid=4efc9f",
                        "username": "__rashmiii16_"
                    },
                    "user_id": 42188084003
                },
                {
                    "bit_flags": 0,
                    "content_type": "comment",
                    "created_at": 1669835039,
                    "created_at_utc": 1669835039,
                    "did_report_as_spam": false,
                    "is_covered": false,
                    "is_ranked_comment": false,
                    "media_id": 2983030842852080019,
                    "pk": 18330554014054370,
                    "private_reply_status": 0,
                    "share_enabled": false,
                    "status": "Active",
                    "text": "All of your outfits are so beautiful.  They have such beautiful style.",
                    "type": 0,
                    "user": {
                        "full_name": "Betty Underwood-Bradley",
                        "is_private": true,
                        "is_verified": false,
                        "pk": 7208159951,
                        "pk_id": "7208159951",
                        "profile_pic_id": "2954153281093763752_7208159951",
                        "profile_pic_url": "https://scontent-ord5-2.cdninstagram.com/v/t51.2885-19/312582049_5899699633381932_6786608566752913911_n.jpg?stp=dst-jpg_s150x150&_nc_ht=scontent-ord5-2.cdninstagram.com&_nc_cat=100&_nc_ohc=CfjHVP7hU4cAX_bEKgW&tn=bFlNyZiOPtsFOL2_&edm=ABZsPhsBAAAA&ccb=7-5&oh=00_AfDfpsCf9bRGoBqvnlXr09BENP662mRHV4GUzdhZoj4o5w&oe=638D29D1&_nc_sid=4efc9f",
                        "username": "blondebetty1"
                    },
                    "user_id": 7208159951
                }
            ],
            "product_type": "carousel_container",
            "profile_grid_control_enabled": false,
            "sharing_friction_info": {
                "bloks_app_url": null,
                "sharing_friction_payload": null,
                "should_have_sharing_friction": false
            },
            "should_request_ads": false,
            "taken_at": 1669825009,
            "top_likers": [],
            "user": {
                "account_badges": [],
                "fan_club_info": {
                    "fan_club_id": null,
                    "fan_club_name": null,
                    "fan_consideration_page_revamp_eligiblity": null,
                    "is_fan_club_gifting_eligible": null,
                    "is_fan_club_referral_eligible": null
                },
                "friendship_status": {
                    "following": false,
                    "is_bestie": false,
                    "is_feed_favorite": false,
                    "is_restricted": false,
                    "outgoing_request": false
                },
                "full_name": "Fashion Bazar",
                "has_anonymous_profile_picture": false,
                "has_highlight_reels": false,
                "is_favorite": false,
                "is_private": false,
                "is_unpublished": false,
                "pk": 50500858917,
                "pk_id": "50500858917",
                "profile_pic_id": "2837714405573076941_50500858917",
                "profile_pic_url": "https://scontent-ord5-2.cdninstagram.com/v/t51.2885-19/280650939_275367561396931_1445780747856345638_n.jpg?stp=dst-jpg_s150x150&_nc_ht=scontent-ord5-2.cdninstagram.com&_nc_cat=1&_nc_ohc=Oc7sgKFfI-wAX_HuESl&edm=ABZsPhsBAAAA&ccb=7-5&oh=00_AfB2zwVQlsOwYB_ERgQlcDnpdwTm4SDTWA8ncyD9tY07Yw&oe=638C3FAF&_nc_sid=4efc9f",
                "transparency_product_enabled": false,
                "username": "fashion_girl1.123"
            }
        },
        "is_video": false,
        "owner": {
            "full_name": "Fashion Bazar",
            "id": 50500858917,
            "iphone_struct": {
                "account_badges": [],
                "fan_club_info": {
                    "fan_club_id": null,
                    "fan_club_name": null,
                    "fan_consideration_page_revamp_eligiblity": null,
                    "is_fan_club_gifting_eligible": null,
                    "is_fan_club_referral_eligible": null
                },
                "friendship_status": {
                    "following": false,
                    "is_bestie": false,
                    "is_feed_favorite": false,
                    "is_restricted": false,
                    "outgoing_request": false
                },
                "full_name": "Fashion Bazar",
                "has_anonymous_profile_picture": false,
                "has_highlight_reels": false,
                "is_favorite": false,
                "is_private": false,
                "is_unpublished": false,
                "pk": 50500858917,
                "pk_id": "50500858917",
                "profile_pic_id": "2837714405573076941_50500858917",
                "profile_pic_url": "https://scontent-ord5-2.cdninstagram.com/v/t51.2885-19/280650939_275367561396931_1445780747856345638_n.jpg?stp=dst-jpg_s150x150&_nc_ht=scontent-ord5-2.cdninstagram.com&_nc_cat=1&_nc_ohc=Oc7sgKFfI-wAX_HuESl&edm=ABZsPhsBAAAA&ccb=7-5&oh=00_AfB2zwVQlsOwYB_ERgQlcDnpdwTm4SDTWA8ncyD9tY07Yw&oe=638C3FAF&_nc_sid=4efc9f",
                "transparency_product_enabled": false,
                "username": "fashion_girl1.123"
            },
            "is_private": false,
            "profile_pic_url_hd": "https://scontent-ord5-2.cdninstagram.com/v/t51.2885-19/280650939_275367561396931_1445780747856345638_n.jpg?stp=dst-jpg_s150x150&_nc_ht=scontent-ord5-2.cdninstagram.com&_nc_cat=1&_nc_ohc=Oc7sgKFfI-wAX_HuESl&edm=ABZsPhsBAAAA&ccb=7-5&oh=00_AfB2zwVQlsOwYB_ERgQlcDnpdwTm4SDTWA8ncyD9tY07Yw&oe=638C3FAF&_nc_sid=4efc9f",
            "username": "fashion_girl1.123"
        },
        "shortcode": "Cll2r8uO3mT",
        "title": null,
        "viewer_has_liked": false
    }
}