{
    "instaloader": {
        "node_type": "Hashtag",
        "version": "4.9.5"
    },
    "node": {
        "allow_following": 1,
        "allow_muting_story": true,
        "challenge_id": null,
        "content_advisory": null,
        "debug_info": null,
        "description": null,
        "destination_info": null,
        "follow_button_text": null,
        "follow_status": 0,
        "following": 0,
        "formatted_media_count": "954M",
        "fresh_topic_metadata": null,
        "id": 17841563365111461,
        "media_count": 954853473,
        "name": "art",
        "non_violating": 1,
        "profile_pic_url": "https://scontent-ord5-2.cdninstagram.com/v/t51.2885-15/317195454_4264568267113421_6552083514086625569_n.jpg?stp=dst-jpg_e35&_nc_ht=scontent-ord5-2.cdninstagram.com&_nc_cat=105&_nc_ohc=XLYxhBMz4KgAX_uNZ34&edm=ABZsPhsBAAAA&ccb=7-5&ig_cache_key=Mjk4MjIyODYxNzc0Mzk5NzY4Nw%3D%3D.2-ccb7-5&oh=00_AfB_LuisC6dQoIZ35IWXM3ltHmxJ4q6Dq9LV2SkQ79gWiQ&oe=638A9C82&_nc_sid=4efc9f",
        "promo_banner": null,
        "related_tags": null,
        "show_follow_drop_down": false,
        "social_context": "Followed by keesayy_",
        "social_context_facepile_users": [
            {
                "full_name": "Arthur",
                "is_private": false,
                "is_verified": false,
                "pk": 6555017156,
                "pk_id": "6555017156",
                "profile_pic_id": "2189562753119919373_6555017156",
                "profile_pic_url": "https://scontent-ord5-2.cdninstagram.com/v/t51.2885-19/79693100_491643525029008_8311953554004770816_n.jpg?stp=dst-jpg_s150x150&_nc_ht=scontent-ord5-2.cdninstagram.com&_nc_cat=104&_nc_ohc=ubMOY_LwEBQAX_Zz1Dc&tn=bFlNyZiOPtsFOL2_&edm=ABZsPhsBAAAA&ccb=7-5&oh=00_AfBODHnGuc0Ad0Hm77DZ0shPycJjGZ6rMWNnIFmXX7zEWA&oe=638B2C06&_nc_sid=4efc9f",
                "username": "keesayy_"
            }
        ],
        "social_context_profile_links": [
            {
                "end": 20,
                "id": 6555017156,
                "start": 12
            }
        ],
        "subtitle": "Followed by keesayy_",
        "warning_message": null
    }
}