{
    "instaloader": {
        "node_type": "Post",
        "version": "4.9.5"
    },
    "node": {
        "__typename": "GraphSidecar",
        "caption": "Wednesday and Enid, I couldn't forget to draw them\n\ud83d\udc96\ud83d\udda4\n.\nFollows, likes and shares are always appreciated\ud83d\udc96\u2728\n.\n\u2728My favorite brush pack for procreate is available for sale in my highlight or bio link\u2728\n\u2501\u2501\u2501\u2501 \u2661 \u2501\u2501\u2501\u2501\n \u2661 \u3164 \u274d\u3164 \u2399\u3164 \u2332\n\u1d9c\u1d58\u02b3\u1d57\u1d43  \u1d9c\u1d52\u1d50\u1d49\u207f\u1d57\u1d49  \u02e2\u1d43\u02e1\u1d5b\u1d49  \u1d9c\u1d52\u1d50\u1d56\u1d43\u02b3\u1d57\u2071\u02e1\u02b0\u1d49\n\u2501\u2501\u2501\u2501 \u2661 \u2501\u2501\u2501\u2501\n\u2728Follow me \u2728\n-\u2501\u2501\u2501\u2501 \u2661 \u2501\u2501\u2501\u2501\n#arte #art #desenho #drawing #artist  #artwork #pintura #painting #procreate #wandinha #wednesday #addams #addamsfamily #fanart #couple #enid #enidsinclair #netflix",
        "date": 1669733012,
        "edge_media_preview_like": {
            "count": 649
        },
        "edge_sidecar_to_children": {
            "edges": [
                {
                    "node": {
                        "display_url": "https://scontent-ord5-2.cdninstagram.com/v/t51.2885-15/317301851_894947291875399_7841536442951681265_n.webp?stp=dst-jpg_e35&_nc_ht=scontent-ord5-2.cdninstagram.com&_nc_cat=107&_nc_ohc=dlPizkahey8AX9-w9mF&tn=bFlNyZiOPtsFOL2_&edm=ABZsPhsBAAAA&ccb=7-5&ig_cache_key=Mjk4MjI1OTExMjE2NDM0MDM5Ng%3D%3D.2-ccb7-5&oh=00_AfDGx8QmpoSuhzEWflfjGusE18XorQunlLRa26F3eqKdbw&oe=638B26C3&_nc_sid=4efc9f",
                        "is_video": false
                    }
                },
                {
                    "node": {
                        "display_url": "https://scontent-ord5-2.cdninstagram.com/v/t51.2885-15/317281246_172326068769226_3830621167831452270_n.webp?stp=dst-jpg_e35&_nc_ht=scontent-ord5-2.cdninstagram.com&_nc_cat=110&_nc_ohc=aNgl-BpltO8AX_HajjC&edm=ABZsPhsBAAAA&ccb=7-5&ig_cache_key=Mjk4MjI1OTExMjI5MDEyOTA0NA%3D%3D.2-ccb7-5&oh=00_AfCVsNpWeL4P-Eul0caXFXCyiYRBDjQDX5I1BPcvNqOlHA&oe=638BBE4B&_nc_sid=4efc9f",
                        "is_video": false
                    }
                },
                {
                    "node": {
                        "display_url": "https://scontent-ord5-2.cdninstagram.com/v/t51.2885-15/317184580_198418436055278_8159960963631845247_n.webp?stp=dst-jpg_e35&_nc_ht=scontent-ord5-2.cdninstagram.com&_nc_cat=102&_nc_ohc=ToSe1RrkUx4AX91PO3h&edm=ABZsPhsBAAAA&ccb=7-5&ig_cache_key=Mjk4MjI1OTExMjE2NDM3NTE5NA%3D%3D.2-ccb7-5&oh=00_AfDzJWsz6Xs1xfeaRSNBYI4aAJdIiUHbruiYt4FnWJ55VA&oe=638B0BDA&_nc_sid=4efc9f",
                        "is_video": false
                    }
                }
            ]
        },
        "id": 2982259116677339032,
        "iphone_struct": {
            "can_see_insights_as_brand": false,
            "can_view_more_preview_comments": true,
            "can_viewer_reshare": true,
            "can_viewer_save": true,
            "caption": {
                "bit_flags": 0,
                "content_type": "comment",
                "created_at": 1669733013,
                "created_at_utc": 1669733013,
                "did_report_as_spam": false,
                "is_covered": false,
                "is_ranked_comment": false,
                "media_id": 2982259116677339032,
                "pk": 18191417719235040,
                "private_reply_status": 0,
                "share_enabled": false,
                "status": "Active",
                "text": "Wednesday and Enid, I couldn't forget to draw them\n\ud83d\udc96\ud83d\udda4\n.\nFollows, likes and shares are always appreciated\ud83d\udc96\u2728\n.\n\u2728My favorite brush pack for procreate is available for sale in my highlight or bio link\u2728\n\u2501\u2501\u2501\u2501 \u2661 \u2501\u2501\u2501\u2501\n \u2661 \u3164 \u274d\u3164 \u2399\u3164 \u2332\n\u1d9c\u1d58\u02b3\u1d57\u1d43  \u1d9c\u1d52\u1d50\u1d49\u207f\u1d57\u1d49  \u02e2\u1d43\u02e1\u1d5b\u1d49  \u1d9c\u1d52\u1d50\u1d56\u1d43\u02b3\u1d57\u2071\u02e1\u02b0\u1d49\n\u2501\u2501\u2501\u2501 \u2661 \u2501\u2501\u2501\u2501\n\u2728Follow me \u2728\n-\u2501\u2501\u2501\u2501 \u2661 \u2501\u2501\u2501\u2501\n#arte #art #desenho #drawing #artist  #artwork #pintura #painting #procreate #wandinha #wednesday #addams #addamsfamily #fanart #couple #enid #enidsinclair #netflix",
                "type": 1,
                "user": {
                    "full_name": "Vivian Valentin",
                    "is_private": false,
                    "is_verified": false,
                    "pk": 44718007355,
                    "pk_id": "44718007355",
                    "profile_pic_id": "2976546906037533993_44718007355",
                    "profile_pic_url": "https://scontent-ord5-2.cdninstagram.com/v/t51.2885-19/316453580_518150003674643_8213086087984825487_n.jpg?stp=dst-jpg_s150x150&_nc_ht=scontent-ord5-2.cdninstagram.com&_nc_cat=111&_nc_ohc=_-8AtlumwfYAX-RRsDF&edm=ABZsPhsBAAAA&ccb=7-5&oh=00_AfDNOCeF9qSy_QiFYxAzB7lb7LioGby4Zjgc3axPmkHv1Q&oe=638A6790&_nc_sid=4efc9f",
                    "username": "vivianvalentinart"
                },
                "user_id": 44718007355
            },
            "caption_is_edited": false,
            "carousel_media": [
                {
                    "carousel_parent_id": "2982259116677339032_44718007355",
                    "commerciality_status": "not_commercial",
                    "id": "2982259112164340396_44718007355",
                    "image_versions2": {
                        "candidates": [
                            {
                                "height": 1694,
                                "url": "https://scontent-ord5-2.cdninstagram.com/v/t51.2885-15/317301851_894947291875399_7841536442951681265_n.webp?stp=dst-jpg_e35&_nc_ht=scontent-ord5-2.cdninstagram.com&_nc_cat=107&_nc_ohc=dlPizkahey8AX9-w9mF&tn=bFlNyZiOPtsFOL2_&edm=ABZsPhsBAAAA&ccb=7-5&ig_cache_key=Mjk4MjI1OTExMjE2NDM0MDM5Ng%3D%3D.2-ccb7-5&oh=00_AfDGx8QmpoSuhzEWflfjGusE18XorQunlLRa26F3eqKdbw&oe=638B26C3&_nc_sid=4efc9f",
                                "width": 1440
                            },
                            {
                                "height": 1270,
                                "url": "https://scontent-ord5-2.cdninstagram.com/v/t51.2885-15/317301851_894947291875399_7841536442951681265_n.webp?stp=dst-jpg_e35_p1080x1080&_nc_ht=scontent-ord5-2.cdninstagram.com&_nc_cat=107&_nc_ohc=dlPizkahey8AX9-w9mF&tn=bFlNyZiOPtsFOL2_&edm=ABZsPhsBAAAA&ccb=7-5&ig_cache_key=Mjk4MjI1OTExMjE2NDM0MDM5Ng%3D%3D.2-ccb7-5&oh=00_AfDwvjhe-zMAGPUzniEvr61KXxoB1SIHqGMPjLtBURItzg&oe=638B26C3&_nc_sid=4efc9f",
                                "width": 1080
                            },
                            {
                                "height": 847,
                                "url": "https://scontent-ord5-2.cdninstagram.com/v/t51.2885-15/317301851_894947291875399_7841536442951681265_n.webp?stp=dst-jpg_e35_p720x720&_nc_ht=scontent-ord5-2.cdninstagram.com&_nc_cat=107&_nc_ohc=dlPizkahey8AX9-w9mF&tn=bFlNyZiOPtsFOL2_&edm=ABZsPhsBAAAA&ccb=7-5&ig_cache_key=Mjk4MjI1OTExMjE2NDM0MDM5Ng%3D%3D.2-ccb7-5&oh=00_AfDxAub5O_jM-f9wYT_pHEb1Dhpq3w4GLhjrM0L2PHh7fg&oe=638B26C3&_nc_sid=4efc9f",
                                "width": 720
                            },
                            {
                                "height": 753,
                                "url": "https://scontent-ord5-2.cdninstagram.com/v/t51.2885-15/317301851_894947291875399_7841536442951681265_n.webp?stp=dst-jpg_e35_p640x640_sh0.08&_nc_ht=scontent-ord5-2.cdninstagram.com&_nc_cat=107&_nc_ohc=dlPizkahey8AX9-w9mF&tn=bFlNyZiOPtsFOL2_&edm=ABZsPhsBAAAA&ccb=7-5&ig_cache_key=Mjk4MjI1OTExMjE2NDM0MDM5Ng%3D%3D.2-ccb7-5&oh=00_AfAoIgIEdBSj_JXaZUowX6LonMuaqsYpNr5pP-u0W25c5w&oe=638B26C3&_nc_sid=4efc9f",
                                "width": 640
                            },
                            {
                                "height": 565,
                                "url": "https://scontent-ord5-2.cdninstagram.com/v/t51.2885-15/317301851_894947291875399_7841536442951681265_n.webp?stp=dst-jpg_e35_p480x480&_nc_ht=scontent-ord5-2.cdninstagram.com&_nc_cat=107&_nc_ohc=dlPizkahey8AX9-w9mF&tn=bFlNyZiOPtsFOL2_&edm=ABZsPhsBAAAA&ccb=7-5&ig_cache_key=Mjk4MjI1OTExMjE2NDM0MDM5Ng%3D%3D.2-ccb7-5&oh=00_AfCYeUHKtkD1e6vLtk3szgYcjtmHNP3WcIthRoq7w_J5jQ&oe=638B26C3&_nc_sid=4efc9f",
                                "width": 480
                            },
                            {
                                "height": 376,
                                "url": "https://scontent-ord5-2.cdninstagram.com/v/t51.2885-15/317301851_894947291875399_7841536442951681265_n.webp?stp=dst-jpg_e35_p320x320&_nc_ht=scontent-ord5-2.cdninstagram.com&_nc_cat=107&_nc_ohc=dlPizkahey8AX9-w9mF&tn=bFlNyZiOPtsFOL2_&edm=ABZsPhsBAAAA&ccb=7-5&ig_cache_key=Mjk4MjI1OTExMjE2NDM0MDM5Ng%3D%3D.2-ccb7-5&oh=00_AfB-0XT2MdVr6UhijZw9rd_Vd4jRxMWSTpTNTzX7xHrVuw&oe=638B26C3&_nc_sid=4efc9f",
                                "width": 320
                            },
                            {
                                "height": 282,
                                "url": "https://scontent-ord5-2.cdninstagram.com/v/t51.2885-15/317301851_894947291875399_7841536442951681265_n.webp?stp=dst-jpg_e35_p240x240&_nc_ht=scontent-ord5-2.cdninstagram.com&_nc_cat=107&_nc_ohc=dlPizkahey8AX9-w9mF&tn=bFlNyZiOPtsFOL2_&edm=ABZsPhsBAAAA&ccb=7-5&ig_cache_key=Mjk4MjI1OTExMjE2NDM0MDM5Ng%3D%3D.2-ccb7-5&oh=00_AfA67-YZwgav6uHMwD8ajAnYbO9fGPvTKaCDxin5qNc5Lw&oe=638B26C3&_nc_sid=4efc9f",
                                "width": 240
                            },
                            {
                                "height": 1080,
                                "url": "https://scontent-ord5-2.cdninstagram.com/v/t51.2885-15/317301851_894947291875399_7841536442951681265_n.webp?stp=c0.127.1440.1440a_dst-jpg_e35_s1080x1080&_nc_ht=scontent-ord5-2.cdninstagram.com&_nc_cat=107&_nc_ohc=dlPizkahey8AX9-w9mF&tn=bFlNyZiOPtsFOL2_&edm=ABZsPhsBAAAA&ccb=7-5&ig_cache_key=Mjk4MjI1OTExMjE2NDM0MDM5Ng%3D%3D.2-ccb7-5&oh=00_AfCcXDBxbVzW8OaaD9mmSvOWT6NuiDIdkZESPVbvf_WMiw&oe=638B26C3&_nc_sid=4efc9f",
                                "width": 1080
                            },
                            {
                                "height": 750,
                                "url": "https://scontent-ord5-2.cdninstagram.com/v/t51.2885-15/317301851_894947291875399_7841536442951681265_n.webp?stp=c0.127.1440.1440a_dst-jpg_e35_s750x750_sh0.08&_nc_ht=scontent-ord5-2.cdninstagram.com&_nc_cat=107&_nc_ohc=dlPizkahey8AX9-w9mF&tn=bFlNyZiOPtsFOL2_&edm=ABZsPhsBAAAA&ccb=7-5&ig_cache_key=Mjk4MjI1OTExMjE2NDM0MDM5Ng%3D%3D.2-ccb7-5&oh=00_AfDUeREYLya0IvaJtZcVoRq96etYpkvX3Ohw82KZSABqhA&oe=638B26C3&_nc_sid=4efc9f",
                                "width": 750
                            },
                            {
                                "height": 640,
                                "url": "https://scontent-ord5-2.cdninstagram.com/v/t51.2885-15/317301851_894947291875399_7841536442951681265_n.webp?stp=c0.127.1440.1440a_dst-jpg_e35_s640x640_sh0.08&_nc_ht=scontent-ord5-2.cdninstagram.com&_nc_cat=107&_nc_ohc=dlPizkahey8AX9-w9mF&tn=bFlNyZiOPtsFOL2_&edm=ABZsPhsBAAAA&ccb=7-5&ig_cache_key=Mjk4MjI1OTExMjE2NDM0MDM5Ng%3D%3D.2-ccb7-5&oh=00_AfAgiNPLE_hV1J4l83jNIQM3n__ffZzQdokssfaR1oybmw&oe=638B26C3&_nc_sid=4efc9f",
                                "width": 640
                            },
                            {
                                "height": 480,
                                "url": "https://scontent-ord5-2.cdninstagram.com/v/t51.2885-15/317301851_894947291875399_7841536442951681265_n.webp?stp=c0.127.1440.1440a_dst-jpg_e35_s480x480&_nc_ht=scontent-ord5-2.cdninstagram.com&_nc_cat=107&_nc_ohc=dlPizkahey8AX9-w9mF&tn=bFlNyZiOPtsFOL2_&edm=ABZsPhsBAAAA&ccb=7-5&ig_cache_key=Mjk4MjI1OTExMjE2NDM0MDM5Ng%3D%3D.2-ccb7-5&oh=00_AfCQaikXXFe3JqqGIO_BnevK1Ekh0qKSmUIgZk42TjRugg&oe=638B26C3&_nc_sid=4efc9f",
                                "width": 480
                            },
                            {
                                "height": 320,
                                "url": "https://scontent-ord5-2.cdninstagram.com/v/t51.2885-15/317301851_894947291875399_7841536442951681265_n.webp?stp=c0.127.1440.1440a_dst-jpg_e35_s320x320&_nc_ht=scontent-ord5-2.cdninstagram.com&_nc_cat=107&_nc_ohc=dlPizkahey8AX9-w9mF&tn=bFlNyZiOPtsFOL2_&edm=ABZsPhsBAAAA&ccb=7-5&ig_cache_key=Mjk4MjI1OTExMjE2NDM0MDM5Ng%3D%3D.2-ccb7-5&oh=00_AfAd9Ix4ZFmMUNRAX-AKbJ6z8msGi8ZEzwJxTsQcolspjw&oe=638B26C3&_nc_sid=4efc9f",
                                "width": 320
                            },
                            {
                                "height": 240,
                                "url": "https://scontent-ord5-2.cdninstagram.com/v/t51.2885-15/317301851_894947291875399_7841536442951681265_n.webp?stp=c0.127.1440.1440a_dst-jpg_e35_s240x240&_nc_ht=scontent-ord5-2.cdninstagram.com&_nc_cat=107&_nc_ohc=dlPizkahey8AX9-w9mF&tn=bFlNyZiOPtsFOL2_&edm=ABZsPhsBAAAA&ccb=7-5&ig_cache_key=Mjk4MjI1OTExMjE2NDM0MDM5Ng%3D%3D.2-ccb7-5&oh=00_AfBswMdJNXYNg5OKkCtlpG-qXPnxFII_dHA3EOzReB7Lug&oe=638B26C3&_nc_sid=4efc9f",
                                "width": 240
                            },
                            {
                                "height": 150,
                                "url": "https://scontent-ord5-2.cdninstagram.com/v/t51.2885-15/317301851_894947291875399_7841536442951681265_n.webp?stp=c0.127.1440.1440a_dst-jpg_e35_s150x150&_nc_ht=scontent-ord5-2.cdninstagram.com&_nc_cat=107&_nc_ohc=dlPizkahey8AX9-w9mF&tn=bFlNyZiOPtsFOL2_&edm=ABZsPhsBAAAA&ccb=7-5&ig_cache_key=Mjk4MjI1OTExMjE2NDM0MDM5Ng%3D%3D.2-ccb7-5&oh=00_AfA_rmEmIiv3MlmJ1vqNQQ7eACUqYXgDRcYoH0RNA3kLAg&oe=638B26C3&_nc_sid=4efc9f",
                                "width": 150
                            }
                        ]
                    },
                    "media_type": 1,
                    "original_height": 1694,
                    "original_width": 1440,
                    "pk": 2982259112164340396,
                    "sharing_friction_info": {
                        "bloks_app_url": null,
                        "sharing_friction_payload": null,
                        "should_have_sharing_friction": false
                    }
                },
                {
                    "carousel_parent_id": "2982259116677339032_44718007355",
                    "commerciality_status": "not_commercial",
                    "id": "2982259112290129044_44718007355",
                    "image_versions2": {
                        "candidates": [
                            {
                                "height": 1150,
                                "url": "https://scontent-ord5-2.cdninstagram.com/v/t51.2885-15/317281246_172326068769226_3830621167831452270_n.webp?stp=dst-jpg_e35&_nc_ht=scontent-ord5-2.cdninstagram.com&_nc_cat=110&_nc_ohc=aNgl-BpltO8AX_HajjC&edm=ABZsPhsBAAAA&ccb=7-5&ig_cache_key=Mjk4MjI1OTExMjI5MDEyOTA0NA%3D%3D.2-ccb7-5&oh=00_AfCVsNpWeL4P-Eul0caXFXCyiYRBDjQDX5I1BPcvNqOlHA&oe=638BBE4B&_nc_sid=4efc9f",
                                "width": 978
                            },
                            {
                                "height": 847,
                                "url": "https://scontent-ord5-2.cdninstagram.com/v/t51.2885-15/317281246_172326068769226_3830621167831452270_n.webp?stp=dst-jpg_e35_p720x720&_nc_ht=scontent-ord5-2.cdninstagram.com&_nc_cat=110&_nc_ohc=aNgl-BpltO8AX_HajjC&edm=ABZsPhsBAAAA&ccb=7-5&ig_cache_key=Mjk4MjI1OTExMjI5MDEyOTA0NA%3D%3D.2-ccb7-5&oh=00_AfAkStw9qYgPxkKKJ0Bh12GnplnQ5WMzjIco3gEirdBZ9A&oe=638BBE4B&_nc_sid=4efc9f",
                                "width": 720
                            },
                            {
                                "height": 753,
                                "url": "https://scontent-ord5-2.cdninstagram.com/v/t51.2885-15/317281246_172326068769226_3830621167831452270_n.webp?stp=dst-jpg_e35_p640x640_sh0.08&_nc_ht=scontent-ord5-2.cdninstagram.com&_nc_cat=110&_nc_ohc=aNgl-BpltO8AX_HajjC&edm=ABZsPhsBAAAA&ccb=7-5&ig_cache_key=Mjk4MjI1OTExMjI5MDEyOTA0NA%3D%3D.2-ccb7-5&oh=00_AfCGSLR8YJz5VaqICR7nlfXZLZUFCJ7MELC8o00O2heZhg&oe=638BBE4B&_nc_sid=4efc9f",
                                "width": 640
                            },
                            {
                                "height": 564,
                                "url": "https://scontent-ord5-2.cdninstagram.com/v/t51.2885-15/317281246_172326068769226_3830621167831452270_n.webp?stp=dst-jpg_e35_p480x480&_nc_ht=scontent-ord5-2.cdninstagram.com&_nc_cat=110&_nc_ohc=aNgl-BpltO8AX_HajjC&edm=ABZsPhsBAAAA&ccb=7-5&ig_cache_key=Mjk4MjI1OTExMjI5MDEyOTA0NA%3D%3D.2-ccb7-5&oh=00_AfAtJ8Gc05HPZiY9viv_81VmaHYsJGdBI9G9PnRZfVgRrA&oe=638BBE4B&_nc_sid=4efc9f",
                                "width": 480
                            },
                            {
                                "height": 376,
                                "url": "https://scontent-ord5-2.cdninstagram.com/v/t51.2885-15/317281246_172326068769226_3830621167831452270_n.webp?stp=dst-jpg_e35_p320x320&_nc_ht=scontent-ord5-2.cdninstagram.com&_nc_cat=110&_nc_ohc=aNgl-BpltO8AX_HajjC&edm=ABZsPhsBAAAA&ccb=7-5&ig_cache_key=Mjk4MjI1OTExMjI5MDEyOTA0NA%3D%3D.2-ccb7-5&oh=00_AfAvL3ycdYpO9T1uXhE0BxgJMCjrKGUnlfAO9blBA6Dsww&oe=638BBE4B&_nc_sid=4efc9f",
                                "width": 320
                            },
                            {
                                "height": 282,
                                "url": "https://scontent-ord5-2.cdninstagram.com/v/t51.2885-15/317281246_172326068769226_3830621167831452270_n.webp?stp=dst-jpg_e35_p240x240&_nc_ht=scontent-ord5-2.cdninstagram.com&_nc_cat=110&_nc_ohc=aNgl-BpltO8AX_HajjC&edm=ABZsPhsBAAAA&ccb=7-5&ig_cache_key=Mjk4MjI1OTExMjI5MDEyOTA0NA%3D%3D.2-ccb7-5&oh=00_AfDAvT2VSqdBhBbF7hHaWuQSDD5h4IgOKPuTEE83wkHKZg&oe=638BBE4B&_nc_sid=4efc9f",
                                "width": 240
                            },
                            {
                                "height": 1080,
                                "url": "https://scontent-ord5-2.cdninstagram.com/v/t51.2885-15/317281246_172326068769226_3830621167831452270_n.webp?stp=c0.86.978.978a_dst-jpg_e35&_nc_ht=scontent-ord5-2.cdninstagram.com&_nc_cat=110&_nc_ohc=aNgl-BpltO8AX_HajjC&edm=ABZsPhsBAAAA&ccb=7-5&ig_cache_key=Mjk4MjI1OTExMjI5MDEyOTA0NA%3D%3D.2-ccb7-5&oh=00_AfDMNFM7HauzWpaeaUGs5mo8WQmhkFSZoE7Dz6CYD7nV_g&oe=638BBE4B&_nc_sid=4efc9f",
                                "width": 1080
                            },
                            {
                                "height": 750,
                                "url": "https://scontent-ord5-2.cdninstagram.com/v/t51.2885-15/317281246_172326068769226_3830621167831452270_n.webp?stp=c0.86.978.978a_dst-jpg_e35_s750x750_sh0.08&_nc_ht=scontent-ord5-2.cdninstagram.com&_nc_cat=110&_nc_ohc=aNgl-BpltO8AX_HajjC&edm=ABZsPhsBAAAA&ccb=7-5&ig_cache_key=Mjk4MjI1OTExMjI5MDEyOTA0NA%3D%3D.2-ccb7-5&oh=00_AfD3P8cV7bA0g_nFJxdHHBCHzC4OipGnvszM1YILqp1emA&oe=638BBE4B&_nc_sid=4efc9f",
                                "width": 750
                            },
                            {
                                "height": 640,
                                "url": "https://scontent-ord5-2.cdninstagram.com/v/t51.2885-15/317281246_172326068769226_3830621167831452270_n.webp?stp=c0.86.978.978a_dst-jpg_e35_s640x640_sh0.08&_nc_ht=scontent-ord5-2.cdninstagram.com&_nc_cat=110&_nc_ohc=aNgl-BpltO8AX_HajjC&edm=ABZsPhsBAAAA&ccb=7-5&ig_cache_key=Mjk4MjI1OTExMjI5MDEyOTA0NA%3D%3D.2-ccb7-5&oh=00_AfBCoNmMbZ82x-r7urnoF2y5pa8IrMzJL2zf5Q6Zbia8KA&oe=638BBE4B&_nc_sid=4efc9f",
                                "width": 640
                            },
                            {
                                "height": 480,
                                "url": "https://scontent-ord5-2.cdninstagram.com/v/t51.2885-15/317281246_172326068769226_3830621167831452270_n.webp?stp=c0.86.978.978a_dst-jpg_e35_s480x480&_nc_ht=scontent-ord5-2.cdninstagram.com&_nc_cat=110&_nc_ohc=aNgl-BpltO8AX_HajjC&edm=ABZsPhsBAAAA&ccb=7-5&ig_cache_key=Mjk4MjI1OTExMjI5MDEyOTA0NA%3D%3D.2-ccb7-5&oh=00_AfBC-36fbv9gc9mWFhq3jePZTSts66-7yy5SFV8PTBnSkQ&oe=638BBE4B&_nc_sid=4efc9f",
                                "width": 480
                            },
                            {
                                "height": 320,
                                "url": "https://scontent-ord5-2.cdninstagram.com/v/t51.2885-15/317281246_172326068769226_3830621167831452270_n.webp?stp=c0.86.978.978a_dst-jpg_e35_s320x320&_nc_ht=scontent-ord5-2.cdninstagram.com&_nc_cat=110&_nc_ohc=aNgl-BpltO8AX_HajjC&edm=ABZsPhsBAAAA&ccb=7-5&ig_cache_key=Mjk4MjI1OTExMjI5MDEyOTA0NA%3D%3D.2-ccb7-5&oh=00_AfAonFUgTDiUeQNPxs56yXsjtZ_Bd6HA7iFJs4xtK0fm_w&oe=638BBE4B&_nc_sid=4efc9f",
                                "width": 320
                            },
                            {
                                "height": 240,
                                "url": "https://scontent-ord5-2.cdninstagram.com/v/t51.2885-15/317281246_172326068769226_3830621167831452270_n.webp?stp=c0.86.978.978a_dst-jpg_e35_s240x240&_nc_ht=scontent-ord5-2.cdninstagram.com&_nc_cat=110&_nc_ohc=aNgl-BpltO8AX_HajjC&edm=ABZsPhsBAAAA&ccb=7-5&ig_cache_key=Mjk4MjI1OTExMjI5MDEyOTA0NA%3D%3D.2-ccb7-5&oh=00_AfBMgd3sIE4NHPa5o-7r8hRV7FzdeOAZRomUOU4TzZS3sw&oe=638BBE4B&_nc_sid=4efc9f",
                                "width": 240
                            },
                            {
                                "height": 150,
                                "url": "https://scontent-ord5-2.cdninstagram.com/v/t51.2885-15/317281246_172326068769226_3830621167831452270_n.webp?stp=c0.86.978.978a_dst-jpg_e35_s150x150&_nc_ht=scontent-ord5-2.cdninstagram.com&_nc_cat=110&_nc_ohc=aNgl-BpltO8AX_HajjC&edm=ABZsPhsBAAAA&ccb=7-5&ig_cache_key=Mjk4MjI1OTExMjI5MDEyOTA0NA%3D%3D.2-ccb7-5&oh=00_AfBMb81zwxuDaKVqpI1qXHXRSmIsTbbydaGbYRcFKVUcjA&oe=638BBE4B&_nc_sid=4efc9f",
                                "width": 150
                            }
                        ]
                    },
                    "media_type": 1,
                    "original_height": 1150,
                    "original_width": 978,
                    "pk": 2982259112290129044,
                    "sharing_friction_info": {
                        "bloks_app_url": null,
                        "sharing_friction_payload": null,
                        "should_have_sharing_friction": false
                    }
                },
                {
                    "carousel_parent_id": "2982259116677339032_44718007355",
                    "commerciality_status": "not_commercial",
                    "id": "2982259112164375194_44718007355",
                    "image_versions2": {
                        "candidates": [
                            {
                                "height": 866,
                                "url": "https://scontent-ord5-2.cdninstagram.com/v/t51.2885-15/317184580_198418436055278_8159960963631845247_n.webp?stp=dst-jpg_e35&_nc_ht=scontent-ord5-2.cdninstagram.com&_nc_cat=102&_nc_ohc=ToSe1RrkUx4AX91PO3h&edm=ABZsPhsBAAAA&ccb=7-5&ig_cache_key=Mjk4MjI1OTExMjE2NDM3NTE5NA%3D%3D.2-ccb7-5&oh=00_AfDzJWsz6Xs1xfeaRSNBYI4aAJdIiUHbruiYt4FnWJ55VA&oe=638B0BDA&_nc_sid=4efc9f",
                                "width": 736
                            },
                            {
                                "height": 753,
                                "url": "https://scontent-ord5-2.cdninstagram.com/v/t51.2885-15/317184580_198418436055278_8159960963631845247_n.webp?stp=dst-jpg_e35_p640x640_sh0.08&_nc_ht=scontent-ord5-2.cdninstagram.com&_nc_cat=102&_nc_ohc=ToSe1RrkUx4AX91PO3h&edm=ABZsPhsBAAAA&ccb=7-5&ig_cache_key=Mjk4MjI1OTExMjE2NDM3NTE5NA%3D%3D.2-ccb7-5&oh=00_AfAOQR5QWgolBiZyRsf9tii7QvoT6gUT37B9PG2uHSVJpg&oe=638B0BDA&_nc_sid=4efc9f",
                                "width": 640
                            },
                            {
                                "height": 565,
                                "url": "https://scontent-ord5-2.cdninstagram.com/v/t51.2885-15/317184580_198418436055278_8159960963631845247_n.webp?stp=dst-jpg_e35_p480x480&_nc_ht=scontent-ord5-2.cdninstagram.com&_nc_cat=102&_nc_ohc=ToSe1RrkUx4AX91PO3h&edm=ABZsPhsBAAAA&ccb=7-5&ig_cache_key=Mjk4MjI1OTExMjE2NDM3NTE5NA%3D%3D.2-ccb7-5&oh=00_AfAbbI5XgteIb9ShyQfrnDRa_PkJBZtNv7BzeboGZolV4g&oe=638B0BDA&_nc_sid=4efc9f",
                                "width": 480
                            },
                            {
                                "height": 377,
                                "url": "https://scontent-ord5-2.cdninstagram.com/v/t51.2885-15/317184580_198418436055278_8159960963631845247_n.webp?stp=dst-jpg_e35_p320x320&_nc_ht=scontent-ord5-2.cdninstagram.com&_nc_cat=102&_nc_ohc=ToSe1RrkUx4AX91PO3h&edm=ABZsPhsBAAAA&ccb=7-5&ig_cache_key=Mjk4MjI1OTExMjE2NDM3NTE5NA%3D%3D.2-ccb7-5&oh=00_AfA9jucsm1flJMYpSrJg7EUKPYv7YaXTJaTezhuDR6m4jQ&oe=638B0BDA&_nc_sid=4efc9f",
                                "width": 320
                            },
                            {
                                "height": 282,
                                "url": "https://scontent-ord5-2.cdninstagram.com/v/t51.2885-15/317184580_198418436055278_8159960963631845247_n.webp?stp=dst-jpg_e35_p240x240&_nc_ht=scontent-ord5-2.cdninstagram.com&_nc_cat=102&_nc_ohc=ToSe1RrkUx4AX91PO3h&edm=ABZsPhsBAAAA&ccb=7-5&ig_cache_key=Mjk4MjI1OTExMjE2NDM3NTE5NA%3D%3D.2-ccb7-5&oh=00_AfCZAehj7V_2ld0K4ihGj40JLT-776AU4R5gGibKyo_j5w&oe=638B0BDA&_nc_sid=4efc9f",
                                "width": 240
                            },
                            {
                                "height": 1080,
                                "url": "https://scontent-ord5-2.cdninstagram.com/v/t51.2885-15/317184580_198418436055278_8159960963631845247_n.webp?stp=c0.65.736.736a_dst-jpg_e35&_nc_ht=scontent-ord5-2.cdninstagram.com&_nc_cat=102&_nc_ohc=ToSe1RrkUx4AX91PO3h&edm=ABZsPhsBAAAA&ccb=7-5&ig_cache_key=Mjk4MjI1OTExMjE2NDM3NTE5NA%3D%3D.2-ccb7-5&oh=00_AfAMp-QmHlLHHAn7ulJMhIZLiPDuFlVcuuZp3Ybs3asx6Q&oe=638B0BDA&_nc_sid=4efc9f",
                                "width": 1080
                            },
                            {
                                "height": 750,
                                "url": "https://scontent-ord5-2.cdninstagram.com/v/t51.2885-15/317184580_198418436055278_8159960963631845247_n.webp?stp=c0.65.736.736a_dst-jpg_e35&_nc_ht=scontent-ord5-2.cdninstagram.com&_nc_cat=102&_nc_ohc=ToSe1RrkUx4AX91PO3h&edm=ABZsPhsBAAAA&ccb=7-5&ig_cache_key=Mjk4MjI1OTExMjE2NDM3NTE5NA%3D%3D.2-ccb7-5&oh=00_AfAMp-QmHlLHHAn7ulJMhIZLiPDuFlVcuuZp3Ybs3asx6Q&oe=638B0BDA&_nc_sid=4efc9f",
                                "width": 750
                            },
                            {
                                "height": 640,
                                "url": "https://scontent-ord5-2.cdninstagram.com/v/t51.2885-15/317184580_198418436055278_8159960963631845247_n.webp?stp=c0.65.736.736a_dst-jpg_e35_s640x640_sh0.08&_nc_ht=scontent-ord5-2.cdninstagram.com&_nc_cat=102&_nc_ohc=ToSe1RrkUx4AX91PO3h&edm=ABZsPhsBAAAA&ccb=7-5&ig_cache_key=Mjk4MjI1OTExMjE2NDM3NTE5NA%3D%3D.2-ccb7-5&oh=00_AfDhXHRmAwm5FJC7OjvahFSxQP2p86r4eq83qWcLI5PWAg&oe=638B0BDA&_nc_sid=4efc9f",
                                "width": 640
                            },
                            {
                                "height": 480,
                                "url": "https://scontent-ord5-2.cdninstagram.com/v/t51.2885-15/317184580_198418436055278_8159960963631845247_n.webp?stp=c0.65.736.736a_dst-jpg_e35_s480x480&_nc_ht=scontent-ord5-2.cdninstagram.com&_nc_cat=102&_nc_ohc=ToSe1RrkUx4AX91PO3h&edm=ABZsPhsBAAAA&ccb=7-5&ig_cache_key=Mjk4MjI1OTExMjE2NDM3NTE5NA%3D%3D.2-ccb7-5&oh=00_AfBT6Xvd1Q3QsUuo9hrZwH6SB-048Ye3Utdp8YKW8zKQyw&oe=638B0BDA&_nc_sid=4efc9f",
                                "width": 480
                            },
                            {
                                "height": 320,
                                "url": "https://scontent-ord5-2.cdninstagram.com/v/t51.2885-15/317184580_198418436055278_8159960963631845247_n.webp?stp=c0.65.736.736a_dst-jpg_e35_s320x320&_nc_ht=scontent-ord5-2.cdninstagram.com&_nc_cat=102&_nc_ohc=ToSe1RrkUx4AX91PO3h&edm=ABZsPhsBAAAA&ccb=7-5&ig_cache_key=Mjk4MjI1OTExMjE2NDM3NTE5NA%3D%3D.2-ccb7-5&oh=00_AfCEF84bXhwB4jXwf3UJqDoOpT1pxx0lek58-Mx6ODY36w&oe=638B0BDA&_nc_sid=4efc9f",
                                "width": 320
                            },
                            {
                                "height": 240,
                                "url": "https://scontent-ord5-2.cdninstagram.com/v/t51.2885-15/317184580_198418436055278_8159960963631845247_n.webp?stp=c0.65.736.736a_dst-jpg_e35_s240x240&_nc_ht=scontent-ord5-2.cdninstagram.com&_nc_cat=102&_nc_ohc=ToSe1RrkUx4AX91PO3h&edm=ABZsPhsBAAAA&ccb=7-5&ig_cache_key=Mjk4MjI1OTExMjE2NDM3NTE5NA%3D%3D.2-ccb7-5&oh=00_AfBAOCq92WMKEqMzmdYQU4aaQw3OoS7jcxGZlKGw4shfMQ&oe=638B0BDA&_nc_sid=4efc9f",
                                "width": 240
                            },
                            {
                                "height": 150,
                                "url": "https://scontent-ord5-2.cdninstagram.com/v/t51.2885-15/317184580_198418436055278_8159960963631845247_n.webp?stp=c0.65.736.736a_dst-jpg_e35_s150x150&_nc_ht=scontent-ord5-2.cdninstagram.com&_nc_cat=102&_nc_ohc=ToSe1RrkUx4AX91PO3h&edm=ABZsPhsBAAAA&ccb=7-5&ig_cache_key=Mjk4MjI1OTExMjE2NDM3NTE5NA%3D%3D.2-ccb7-5&oh=00_AfCf1BrCAPX4Hu7XnwmM_rkwlozEycxWPzuOTmgNZfuimg&oe=638B0BDA&_nc_sid=4efc9f",
                                "width": 150
                            }
                        ]
                    },
                    "media_type": 1,
                    "original_height": 866,
                    "original_width": 736,
                    "pk": 2982259112164375194,
                    "sharing_friction_info": {
                        "bloks_app_url": null,
                        "sharing_friction_payload": null,
                        "should_have_sharing_friction": false
                    },
                    "usertags": {
                        "in": [
                            {
                                "duration_in_video_in_sec": null,
                                "position": [
                                    0.8084979,
                                    0.7032118
                                ],
                                "start_time_in_video_in_sec": null,
                                "user": {
                                    "full_name": "Jenna Ortega",
                                    "is_private": false,
                                    "is_verified": true,
                                    "pk": 295930574,
                                    "pk_id": "295930574",
                                    "profile_pic_id": "2941326751537054734_295930574",
                                    "profile_pic_url": "https://scontent-ord5-2.cdninstagram.com/v/t51.2885-19/310713658_1458154448030513_3781893834309615081_n.jpg?stp=dst-jpg_s150x150&_nc_ht=scontent-ord5-2.cdninstagram.com&_nc_cat=1&_nc_ohc=92nI2tv4TAAAX-PxcOH&edm=ABZsPhsBAAAA&ccb=7-5&oh=00_AfBSgfNOO2_k0BdDxWACzaR4dJwv057lISvhSAPDCp2ZkQ&oe=638A9B5A&_nc_sid=4efc9f",
                                    "username": "jennaortega"
                                }
                            },
                            {
                                "duration_in_video_in_sec": null,
                                "position": [
                                    0.8237374,
                                    0.8361328
                                ],
                                "start_time_in_video_in_sec": null,
                                "user": {
                                    "full_name": "Netflix Brasil",
                                    "is_private": false,
                                    "is_verified": true,
                                    "pk": 1479382961,
                                    "pk_id": "1479382961",
                                    "profile_pic_id": "2623613487966792904_1479382961",
                                    "profile_pic_url": "https://scontent-ord5-2.cdninstagram.com/v/t51.2885-19/221539385_1393599787677627_3541200791787745716_n.jpg?stp=dst-jpg_s150x150&_nc_ht=scontent-ord5-2.cdninstagram.com&_nc_cat=1&_nc_ohc=tucAnBiNjA4AX_P4waE&edm=ABZsPhsBAAAA&ccb=7-5&oh=00_AfBY7cTRomZ_TUWCi56s-tCQftpHvWQGdS2eofG6SgiHYA&oe=638B5794&_nc_sid=4efc9f",
                                    "username": "netflixbrasil"
                                }
                            },
                            {
                                "duration_in_video_in_sec": null,
                                "position": [
                                    0.93456924,
                                    0.7086372
                                ],
                                "start_time_in_video_in_sec": null,
                                "user": {
                                    "full_name": "Wednesday Netflix",
                                    "is_private": false,
                                    "is_verified": true,
                                    "pk": 45694410142,
                                    "pk_id": "45694410142",
                                    "profile_pic_id": "2846124059895255428_45694410142",
                                    "profile_pic_url": "https://scontent-ord5-2.cdninstagram.com/v/t51.2885-19/284096441_540758650908168_8342381364593393757_n.jpg?stp=dst-jpg_s150x150&_nc_ht=scontent-ord5-2.cdninstagram.com&_nc_cat=1&_nc_ohc=GnzSSLk3NnQAX9wyewQ&edm=ABZsPhsBAAAA&ccb=7-5&oh=00_AfDzyw0r_SPNWV0_iTnEgebrctDG5fhvjsQ7gylNIC0ClQ&oe=638A5885&_nc_sid=4efc9f",
                                    "username": "wednesdaynetflix"
                                }
                            }
                        ]
                    }
                }
            ],
            "carousel_media_count": 3,
            "client_cache_key": "Mjk4MjI1OTExNjY3NzMzOTAzMg==.2",
            "clips_tab_pinned_user_ids": [],
            "code": "CljHN2tuReY",
            "comment_count": 6,
            "comment_inform_treatment": {
                "action_type": null,
                "should_have_inform_treatment": false,
                "text": "",
                "url": null
            },
            "comment_likes_enabled": false,
            "comment_threading_enabled": true,
            "comments": [
                {
                    "bit_flags": 0,
                    "content_type": "comment",
                    "created_at": 1669734616,
                    "created_at_utc": 1669734616,
                    "did_report_as_spam": false,
                    "is_covered": false,
                    "is_ranked_comment": false,
                    "media_id": 2982259116677339032,
                    "pk": 18164376763261432,
                    "private_reply_status": 0,
                    "share_enabled": false,
                    "status": "Active",
                    "text": "\ud83d\udc4f\u2764\ufe0f\ud83d\udd25\ud83d\ude4c",
                    "type": 0,
                    "user": {
                        "full_name": "\u2661Eva\u2661",
                        "is_private": false,
                        "is_verified": false,
                        "pk": 40972285642,
                        "pk_id": "40972285642",
                        "profile_pic_id": "2981408306388202877_40972285642",
                        "profile_pic_url": "https://scontent-ord5-2.cdninstagram.com/v/t51.2885-19/317083735_508083394606670_2634358959544500043_n.jpg?stp=dst-jpg_s150x150&_nc_ht=scontent-ord5-2.cdninstagram.com&_nc_cat=102&_nc_ohc=Pfr3G2CnITAAX-RcMC9&edm=ABZsPhsBAAAA&ccb=7-5&oh=00_AfCx1nVvOaWltX2OxLbevQ_UgFU8k8LdW4gjiXNLv0_-fQ&oe=638B47EE&_nc_sid=4efc9f",
                        "username": "l_eva_draws_l"
                    },
                    "user_id": 40972285642
                },
                {
                    "bit_flags": 0,
                    "content_type": "comment",
                    "created_at": 1669734754,
                    "created_at_utc": 1669734754,
                    "did_report_as_spam": false,
                    "has_translation": true,
                    "is_covered": false,
                    "is_ranked_comment": false,
                    "media_id": 2982259116677339032,
                    "pk": 17956418438235477,
                    "private_reply_status": 0,
                    "share_enabled": false,
                    "status": "Active",
                    "text": "Esse abra\u00e7o foi o mais sincero que eu j\u00e1 vi",
                    "type": 0,
                    "user": {
                        "full_name": "\ud835\udc00\ud835\udc27\ud835\udc1a \ud835\udc1d\ud835\udc22\ud835\udc1a\ud835\udc2c",
                        "is_private": false,
                        "is_verified": false,
                        "pk": 40192732022,
                        "pk_id": "40192732022",
                        "profile_pic_url": "https://instagram.fcfb2-1.fna.fbcdn.net/v/t51.2885-19/44884218_345707102882519_2446069589734326272_n.jpg?_nc_ht=instagram.fcfb2-1.fna.fbcdn.net&_nc_cat=1&_nc_ohc=BwlIa_tqCm8AX9bPNJC&edm=ABmJApABAAAA&ccb=7-5&ig_cache_key=YW5vbnltb3VzX3Byb2ZpbGVfcGlj.2-ccb7-5&oh=00_AfDoMlZE6CUa96cc5gRtayWcl_NhG0vzQkSuZKDZLbPf7w&oe=638AB10F&_nc_sid=6136e7",
                        "username": "song._aninha"
                    },
                    "user_id": 40192732022
                }
            ],
            "commerce_integrity_review_decision": null,
            "commerciality_status": "not_commercial",
            "deleted_reason": 0,
            "device_timestamp": 7751988772571,
            "facepile_top_likers": [],
            "filter_type": 0,
            "has_delayed_metadata": false,
            "has_liked": false,
            "has_more_comments": true,
            "has_shared_to_fb": 0,
            "hide_view_all_comment_entrypoint": false,
            "id": "2982259116677339032_44718007355",
            "integrity_review_decision": "pending",
            "is_artist_pick": false,
            "is_in_profile_grid": false,
            "is_organic_product_tagging_eligible": false,
            "is_paid_partnership": false,
            "is_unified_video": false,
            "is_visual_reply_commenter_notice_enabled": true,
            "like_and_view_counts_disabled": false,
            "like_count": 649,
            "max_num_visible_preview_comments": 2,
            "media_type": 8,
            "music_metadata": {
                "audio_type": null,
                "music_canonical_id": "0",
                "music_info": null,
                "original_sound_info": null,
                "pinned_media_ids": null
            },
            "next_max_id": 17956418438235477,
            "organic_tracking_token": "eyJ2ZXJzaW9uIjo1LCJwYXlsb2FkIjp7ImlzX2FuYWx5dGljc190cmFja2VkIjp0cnVlLCJ1dWlkIjoiMmJlZDM3YmJjNDQxNDc4NGFjZjdiZmFlZjkxMGQ2ZjIyOTgyMjU5MTE2Njc3MzM5MDMyIiwic2VydmVyX3Rva2VuIjoiMTY2OTczNDk2Mjk3M3wyOTgyMjU5MTE2Njc3MzM5MDMyfDE5MTI2NzkwMTl8Y2FmYzRmYzM3N2IxOTI0NWZlYmUyMGM0ZWRlYjcyYWJmZjRlYjY1MTRlMjE0YzBlOWVkYmE4YzUxYTg2YWUyMCJ9LCJzaWduYXR1cmUiOiIifQ==",
            "original_media_has_visual_reply_media": false,
            "photo_of_you": false,
            "pk": 2982259116677339032,
            "preview_comments": [
                {
                    "bit_flags": 0,
                    "content_type": "comment",
                    "created_at": 1669734616,
                    "created_at_utc": 1669734616,
                    "did_report_as_spam": false,
                    "is_covered": false,
                    "is_ranked_comment": false,
                    "media_id": 2982259116677339032,
                    "pk": 18164376763261432,
                    "private_reply_status": 0,
                    "share_enabled": false,
                    "status": "Active",
                    "text": "\ud83d\udc4f\u2764\ufe0f\ud83d\udd25\ud83d\ude4c",
                    "type": 0,
                    "user": {
                        "full_name": "\u2661Eva\u2661",
                        "is_private": false,
                        "is_verified": false,
                        "pk": 40972285642,
                        "pk_id": "40972285642",
                        "profile_pic_id": "2981408306388202877_40972285642",
                        "profile_pic_url": "https://scontent-ord5-2.cdninstagram.com/v/t51.2885-19/317083735_508083394606670_2634358959544500043_n.jpg?stp=dst-jpg_s150x150&_nc_ht=scontent-ord5-2.cdninstagram.com&_nc_cat=102&_nc_ohc=Pfr3G2CnITAAX-RcMC9&edm=ABZsPhsBAAAA&ccb=7-5&oh=00_AfCx1nVvOaWltX2OxLbevQ_UgFU8k8LdW4gjiXNLv0_-fQ&oe=638B47EE&_nc_sid=4efc9f",
                        "username": "l_eva_draws_l"
                    },
                    "user_id": 40972285642
                },
                {
                    "bit_flags": 0,
                    "content_type": "comment",
                    "created_at": 1669734754,
                    "created_at_utc": 1669734754,
                    "did_report_as_spam": false,
                    "has_translation": true,
                    "is_covered": false,
                    "is_ranked_comment": false,
                    "media_id": 2982259116677339032,
                    "pk": 17956418438235477,
                    "private_reply_status": 0,
                    "share_enabled": false,
                    "status": "Active",
                    "text": "Esse abra\u00e7o foi o mais sincero que eu j\u00e1 vi",
                    "type": 0,
                    "user": {
                        "full_name": "\ud835\udc00\ud835\udc27\ud835\udc1a \ud835\udc1d\ud835\udc22\ud835\udc1a\ud835\udc2c",
                        "is_private": false,
                        "is_verified": false,
                        "pk": 40192732022,
                        "pk_id": "40192732022",
                        "profile_pic_url": "https://instagram.fcfb2-1.fna.fbcdn.net/v/t51.2885-19/44884218_345707102882519_2446069589734326272_n.jpg?_nc_ht=instagram.fcfb2-1.fna.fbcdn.net&_nc_cat=1&_nc_ohc=BwlIa_tqCm8AX9bPNJC&edm=ABmJApABAAAA&ccb=7-5&ig_cache_key=YW5vbnltb3VzX3Byb2ZpbGVfcGlj.2-ccb7-5&oh=00_AfDoMlZE6CUa96cc5gRtayWcl_NhG0vzQkSuZKDZLbPf7w&oe=638AB10F&_nc_sid=6136e7",
                        "username": "song._aninha"
                    },
                    "user_id": 40192732022
                }
            ],
            "product_type": "carousel_container",
            "profile_grid_control_enabled": false,
            "sharing_friction_info": {
                "bloks_app_url": null,
                "sharing_friction_payload": null,
                "should_have_sharing_friction": false
            },
            "should_request_ads": false,
            "taken_at": 1669733012,
            "top_likers": [],
            "user": {
                "account_badges": [],
                "fan_club_info": {
                    "fan_club_id": null,
                    "fan_club_name": null,
                    "fan_consideration_page_revamp_eligiblity": null,
                    "is_fan_club_gifting_eligible": null,
                    "is_fan_club_referral_eligible": null
                },
                "friendship_status": {
                    "following": false,
                    "is_bestie": false,
                    "is_feed_favorite": false,
                    "is_restricted": false,
                    "outgoing_request": false
                },
                "full_name": "Vivian Valentin",
                "has_anonymous_profile_picture": false,
                "has_highlight_reels": false,
                "is_favorite": false,
                "is_private": false,
                "is_unpublished": false,
                "pk": 44718007355,
                "pk_id": "44718007355",
                "profile_pic_id": "2976546906037533993_44718007355",
                "profile_pic_url": "https://scontent-ord5-2.cdninstagram.com/v/t51.2885-19/316453580_518150003674643_8213086087984825487_n.jpg?stp=dst-jpg_s150x150&_nc_ht=scontent-ord5-2.cdninstagram.com&_nc_cat=111&_nc_ohc=_-8AtlumwfYAX-RRsDF&edm=ABZsPhsBAAAA&ccb=7-5&oh=00_AfDNOCeF9qSy_QiFYxAzB7lb7LioGby4Zjgc3axPmkHv1Q&oe=638A6790&_nc_sid=4efc9f",
                "transparency_product_enabled": false,
                "username": "vivianvalentinart"
            },
            "usertags": {
                "in": [
                    {
                        "duration_in_video_in_sec": null,
                        "position": [
                            0.8084979,
                            0.7032118
                        ],
                        "start_time_in_video_in_sec": null,
                        "user": {
                            "full_name": "Jenna Ortega",
                            "is_private": false,
                            "is_verified": true,
                            "pk": 295930574,
                            "pk_id": "295930574",
                            "profile_pic_id": "2941326751537054734_295930574",
                            "profile_pic_url": "https://scontent-ord5-2.cdninstagram.com/v/t51.2885-19/310713658_1458154448030513_3781893834309615081_n.jpg?stp=dst-jpg_s150x150&_nc_ht=scontent-ord5-2.cdninstagram.com&_nc_cat=1&_nc_ohc=92nI2tv4TAAAX-PxcOH&edm=ABZsPhsBAAAA&ccb=7-5&oh=00_AfBSgfNOO2_k0BdDxWACzaR4dJwv057lISvhSAPDCp2ZkQ&oe=638A9B5A&_nc_sid=4efc9f",
                            "username": "jennaortega"
                        }
                    },
                    {
                        "duration_in_video_in_sec": null,
                        "position": [
                            0.8237374,
                            0.8361328
                        ],
                        "start_time_in_video_in_sec": null,
                        "user": {
                            "full_name": "Netflix Brasil",
                            "is_private": false,
                            "is_verified": true,
                            "pk": 1479382961,
                            "pk_id": "1479382961",
                            "profile_pic_id": "2623613487966792904_1479382961",
                            "profile_pic_url": "https://scontent-ord5-2.cdninstagram.com/v/t51.2885-19/221539385_1393599787677627_3541200791787745716_n.jpg?stp=dst-jpg_s150x150&_nc_ht=scontent-ord5-2.cdninstagram.com&_nc_cat=1&_nc_ohc=tucAnBiNjA4AX_P4waE&edm=ABZsPhsBAAAA&ccb=7-5&oh=00_AfBY7cTRomZ_TUWCi56s-tCQftpHvWQGdS2eofG6SgiHYA&oe=638B5794&_nc_sid=4efc9f",
                            "username": "netflixbrasil"
                        }
                    },
                    {
                        "duration_in_video_in_sec": null,
                        "position": [
                            0.93456924,
                            0.7086372
                        ],
                        "start_time_in_video_in_sec": null,
                        "user": {
                            "full_name": "Wednesday Netflix",
                            "is_private": false,
                            "is_verified": true,
                            "pk": 45694410142,
                            "pk_id": "45694410142",
                            "profile_pic_id": "2846124059895255428_45694410142",
                            "profile_pic_url": "https://scontent-ord5-2.cdninstagram.com/v/t51.2885-19/284096441_540758650908168_8342381364593393757_n.jpg?stp=dst-jpg_s150x150&_nc_ht=scontent-ord5-2.cdninstagram.com&_nc_cat=1&_nc_ohc=GnzSSLk3NnQAX9wyewQ&edm=ABZsPhsBAAAA&ccb=7-5&oh=00_AfDzyw0r_SPNWV0_iTnEgebrctDG5fhvjsQ7gylNIC0ClQ&oe=638A5885&_nc_sid=4efc9f",
                            "username": "wednesdaynetflix"
                        }
                    }
                ]
            }
        },
        "is_video": false,
        "owner": {
            "full_name": "Vivian Valentin",
            "id": 44718007355,
            "iphone_struct": {
                "account_badges": [],
                "fan_club_info": {
                    "fan_club_id": null,
                    "fan_club_name": null,
                    "fan_consideration_page_revamp_eligiblity": null,
                    "is_fan_club_gifting_eligible": null,
                    "is_fan_club_referral_eligible": null
                },
                "friendship_status": {
                    "following": false,
                    "is_bestie": false,
                    "is_feed_favorite": false,
                    "is_restricted": false,
                    "outgoing_request": false
                },
                "full_name": "Vivian Valentin",
                "has_anonymous_profile_picture": false,
                "has_highlight_reels": false,
                "is_favorite": false,
                "is_private": false,
                "is_unpublished": false,
                "pk": 44718007355,
                "pk_id": "44718007355",
                "profile_pic_id": "2976546906037533993_44718007355",
                "profile_pic_url": "https://scontent-ord5-2.cdninstagram.com/v/t51.2885-19/316453580_518150003674643_8213086087984825487_n.jpg?stp=dst-jpg_s150x150&_nc_ht=scontent-ord5-2.cdninstagram.com&_nc_cat=111&_nc_ohc=_-8AtlumwfYAX-RRsDF&edm=ABZsPhsBAAAA&ccb=7-5&oh=00_AfDNOCeF9qSy_QiFYxAzB7lb7LioGby4Zjgc3axPmkHv1Q&oe=638A6790&_nc_sid=4efc9f",
                "transparency_product_enabled": false,
                "username": "vivianvalentinart"
            },
            "is_private": false,
            "profile_pic_url_hd": "https://scontent-ord5-2.cdninstagram.com/v/t51.2885-19/316453580_518150003674643_8213086087984825487_n.jpg?stp=dst-jpg_s150x150&_nc_ht=scontent-ord5-2.cdninstagram.com&_nc_cat=111&_nc_ohc=_-8AtlumwfYAX-RRsDF&edm=ABZsPhsBAAAA&ccb=7-5&oh=00_AfDNOCeF9qSy_QiFYxAzB7lb7LioGby4Zjgc3axPmkHv1Q&oe=638A6790&_nc_sid=4efc9f",
            "username": "vivianvalentinart"
        },
        "shortcode": "CljHN2tuReY",
        "title": null,
        "viewer_has_liked": false
    }
}