{
    "instaloader": {
        "node_type": "Post",
        "version": "4.9.5"
    },
    "node": {
        "__typename": "GraphImage",
        "caption": "\ud83c\udf77\n.\n.\n.\n#suga #yoongi #sketch #pencil #bts #btsfanart #sugafanart #yoongifanart #minyoongi #kpop #btsart #btssuga #kpopfanart #drawing #art #semirealism #sketchbook #traditionalart #\uc288\uac00 #\ubc29\ud0c4\uc18c\ub144\ub2e8 #\uadf8\ub9bc #artist #artistsoninstagram",
        "date": 1669731281,
        "display_url": "https://scontent-ord5-2.cdninstagram.com/v/t51.2885-15/317403977_507126731436960_7319181269435065516_n.jpg?stp=dst-jpg_e35&_nc_ht=scontent-ord5-2.cdninstagram.com&_nc_cat=100&_nc_ohc=xyX8BocGox4AX-qpfxj&edm=ABZsPhsBAAAA&ccb=7-5&ig_cache_key=Mjk4MjI0NDU5NTgwMzcyNjk0Nw%3D%3D.2-ccb7-5&oh=00_AfAeASp-AbQF6oe5vQC-mnqrtERoUN5qisIzumsqM5hD_g&oe=638B19EF&_nc_sid=4efc9f",
        "edge_media_preview_like": {
            "count": 845
        },
        "id": 2982244595803726947,
        "iphone_struct": {
            "can_see_insights_as_brand": false,
            "can_view_more_preview_comments": true,
            "can_viewer_reshare": true,
            "can_viewer_save": true,
            "caption": {
                "bit_flags": 0,
                "content_type": "comment",
                "created_at": 1669731282,
                "created_at_utc": 1669731282,
                "did_report_as_spam": false,
                "is_covered": false,
                "is_ranked_comment": false,
                "media_id": 2982244595803726947,
                "pk": 18016027249476390,
                "private_reply_status": 0,
                "share_enabled": false,
                "status": "Active",
                "text": "\ud83c\udf77\n.\n.\n.\n#suga #yoongi #sketch #pencil #bts #btsfanart #sugafanart #yoongifanart #minyoongi #kpop #btsart #btssuga #kpopfanart #drawing #art #semirealism #sketchbook #traditionalart #\uc288\uac00 #\ubc29\ud0c4\uc18c\ub144\ub2e8 #\uadf8\ub9bc #artist #artistsoninstagram",
                "type": 1,
                "user": {
                    "full_name": "Shop OPEN \ud83e\udd5a\ud83d\udc23\ud83d\udc25",
                    "is_private": false,
                    "is_verified": false,
                    "pk": 8378843216,
                    "pk_id": "8378843216",
                    "profile_pic_id": "2444387427566104860_8378843216",
                    "profile_pic_url": "https://scontent-ord5-2.cdninstagram.com/v/t51.2885-19/125959648_846194672810485_8140699746206162480_n.jpg?stp=dst-jpg_s150x150&_nc_ht=scontent-ord5-2.cdninstagram.com&_nc_cat=101&_nc_ohc=zC9AX3bqzTEAX-7ws5E&edm=ABZsPhsBAAAA&ccb=7-5&oh=00_AfClLklQ5nbh4w4G2XBnXw3BA91rEHbAv2RucrQ9VN9jQQ&oe=638AF570&_nc_sid=4efc9f",
                    "username": "agaezii"
                },
                "user_id": 8378843216
            },
            "caption_is_edited": false,
            "client_cache_key": "Mjk4MjI0NDU5NTgwMzcyNjk0Nw==.2",
            "clips_tab_pinned_user_ids": [],
            "code": "CljD6jGNaRj",
            "comment_count": 13,
            "comment_inform_treatment": {
                "action_type": null,
                "should_have_inform_treatment": false,
                "text": "",
                "url": null
            },
            "comment_likes_enabled": false,
            "comment_threading_enabled": true,
            "comments": [
                {
                    "bit_flags": 0,
                    "content_type": "comment",
                    "created_at": 1669734327,
                    "created_at_utc": 1669734327,
                    "did_report_as_spam": false,
                    "is_covered": false,
                    "is_ranked_comment": false,
                    "media_id": 2982244595803726947,
                    "pk": 17979399289804579,
                    "private_reply_status": 0,
                    "share_enabled": false,
                    "status": "Active",
                    "text": "Are you a BTS fan?",
                    "type": 0,
                    "user": {
                        "full_name": "",
                        "is_private": false,
                        "is_verified": false,
                        "pk": 54590642298,
                        "pk_id": "54590642298",
                        "profile_pic_id": "2976306413102751981_54590642298",
                        "profile_pic_url": "https://scontent-ord5-2.cdninstagram.com/v/t51.2885-19/316365406_466519505381581_788178884361173067_n.jpg?stp=dst-jpg_s150x150&_nc_ht=scontent-ord5-2.cdninstagram.com&_nc_cat=101&_nc_ohc=3N1ZnrIejSYAX_EyIwD&edm=ABZsPhsBAAAA&ccb=7-5&oh=00_AfBkLXcGrBDoJIS7z2TY9VdwMBL0loQ7CiZEOEOYCrLLBw&oe=638BC5C3&_nc_sid=4efc9f",
                        "username": "amir_spg3"
                    },
                    "user_id": 54590642298
                },
                {
                    "bit_flags": 0,
                    "content_type": "comment",
                    "created_at": 1669734882,
                    "created_at_utc": 1669734882,
                    "did_report_as_spam": false,
                    "has_translation": true,
                    "is_covered": false,
                    "is_ranked_comment": false,
                    "media_id": 2982244595803726947,
                    "pk": 17920808171524718,
                    "private_reply_status": 0,
                    "share_enabled": false,
                    "status": "Active",
                    "text": "ador\u00e1vel \u2764\ufe0f",
                    "type": 0,
                    "user": {
                        "full_name": "Paula Gabrielly, bem",
                        "is_private": true,
                        "is_verified": false,
                        "pk": 8709470544,
                        "pk_id": "8709470544",
                        "profile_pic_id": "2899122798422668953_8709470544",
                        "profile_pic_url": "https://scontent-ord5-2.cdninstagram.com/v/t51.2885-19/297608710_115357787923245_6266005110878837289_n.jpg?stp=dst-jpg_s150x150&_nc_ht=scontent-ord5-2.cdninstagram.com&_nc_cat=109&_nc_ohc=u2alOvpiLh8AX_pJ38h&edm=ABZsPhsBAAAA&ccb=7-5&oh=00_AfChHoCNYzcOWnQ9zsmgigbZewUIhCdp-QcAJiis_JfPBg&oe=638ADDC0&_nc_sid=4efc9f",
                        "username": "gabi_llouxx"
                    },
                    "user_id": 8709470544
                }
            ],
            "commerce_integrity_review_decision": null,
            "commerciality_status": "not_commercial",
            "deleted_reason": 0,
            "device_timestamp": 1669730971166764,
            "facepile_top_likers": [],
            "filter_type": 0,
            "has_delayed_metadata": false,
            "has_liked": false,
            "has_more_comments": true,
            "has_shared_to_fb": 0,
            "hide_view_all_comment_entrypoint": false,
            "id": "2982244595803726947_8378843216",
            "image_versions2": {
                "candidates": [
                    {
                        "height": 1673,
                        "url": "https://scontent-ord5-2.cdninstagram.com/v/t51.2885-15/317403977_507126731436960_7319181269435065516_n.jpg?stp=dst-jpg_e35&_nc_ht=scontent-ord5-2.cdninstagram.com&_nc_cat=100&_nc_ohc=xyX8BocGox4AX-qpfxj&edm=ABZsPhsBAAAA&ccb=7-5&ig_cache_key=Mjk4MjI0NDU5NTgwMzcyNjk0Nw%3D%3D.2-ccb7-5&oh=00_AfAeASp-AbQF6oe5vQC-mnqrtERoUN5qisIzumsqM5hD_g&oe=638B19EF&_nc_sid=4efc9f",
                        "width": 1440
                    },
                    {
                        "height": 1255,
                        "url": "https://scontent-ord5-2.cdninstagram.com/v/t51.2885-15/317403977_507126731436960_7319181269435065516_n.jpg?stp=dst-jpg_e35_p1080x1080&_nc_ht=scontent-ord5-2.cdninstagram.com&_nc_cat=100&_nc_ohc=xyX8BocGox4AX-qpfxj&edm=ABZsPhsBAAAA&ccb=7-5&ig_cache_key=Mjk4MjI0NDU5NTgwMzcyNjk0Nw%3D%3D.2-ccb7-5&oh=00_AfBbPEzgxLvdjH6KuFyMQHQ3Ibr9ZjnrOJqs5fBhIkIrEg&oe=638B19EF&_nc_sid=4efc9f",
                        "width": 1080
                    },
                    {
                        "height": 836,
                        "url": "https://scontent-ord5-2.cdninstagram.com/v/t51.2885-15/317403977_507126731436960_7319181269435065516_n.jpg?stp=dst-jpg_e35_p720x720&_nc_ht=scontent-ord5-2.cdninstagram.com&_nc_cat=100&_nc_ohc=xyX8BocGox4AX-qpfxj&edm=ABZsPhsBAAAA&ccb=7-5&ig_cache_key=Mjk4MjI0NDU5NTgwMzcyNjk0Nw%3D%3D.2-ccb7-5&oh=00_AfBslmd6P6TWr7UodgPwY_1d0FH3OeBB3893gyzbzNikJw&oe=638B19EF&_nc_sid=4efc9f",
                        "width": 720
                    },
                    {
                        "height": 744,
                        "url": "https://scontent-ord5-2.cdninstagram.com/v/t51.2885-15/317403977_507126731436960_7319181269435065516_n.jpg?stp=dst-jpg_e35_p640x640_sh0.08&_nc_ht=scontent-ord5-2.cdninstagram.com&_nc_cat=100&_nc_ohc=xyX8BocGox4AX-qpfxj&edm=ABZsPhsBAAAA&ccb=7-5&ig_cache_key=Mjk4MjI0NDU5NTgwMzcyNjk0Nw%3D%3D.2-ccb7-5&oh=00_AfBvjwWr62ITsD7ZUcL-WGwa3eWQgV4RanRMZjQZoNSttg&oe=638B19EF&_nc_sid=4efc9f",
                        "width": 640
                    },
                    {
                        "height": 558,
                        "url": "https://scontent-ord5-2.cdninstagram.com/v/t51.2885-15/317403977_507126731436960_7319181269435065516_n.jpg?stp=dst-jpg_e35_p480x480&_nc_ht=scontent-ord5-2.cdninstagram.com&_nc_cat=100&_nc_ohc=xyX8BocGox4AX-qpfxj&edm=ABZsPhsBAAAA&ccb=7-5&ig_cache_key=Mjk4MjI0NDU5NTgwMzcyNjk0Nw%3D%3D.2-ccb7-5&oh=00_AfBbrwxOD8meLdBQHqmCUBFro0nUUP6WLsD1VMxiSsLDbA&oe=638B19EF&_nc_sid=4efc9f",
                        "width": 480
                    },
                    {
                        "height": 372,
                        "url": "https://scontent-ord5-2.cdninstagram.com/v/t51.2885-15/317403977_507126731436960_7319181269435065516_n.jpg?stp=dst-jpg_e35_p320x320&_nc_ht=scontent-ord5-2.cdninstagram.com&_nc_cat=100&_nc_ohc=xyX8BocGox4AX-qpfxj&edm=ABZsPhsBAAAA&ccb=7-5&ig_cache_key=Mjk4MjI0NDU5NTgwMzcyNjk0Nw%3D%3D.2-ccb7-5&oh=00_AfDk6bk62DDH6lb1BbBWfFbFz2L6OWp7_jeaMKy5sa9rsw&oe=638B19EF&_nc_sid=4efc9f",
                        "width": 320
                    },
                    {
                        "height": 279,
                        "url": "https://scontent-ord5-2.cdninstagram.com/v/t51.2885-15/317403977_507126731436960_7319181269435065516_n.jpg?stp=dst-jpg_e35_p240x240&_nc_ht=scontent-ord5-2.cdninstagram.com&_nc_cat=100&_nc_ohc=xyX8BocGox4AX-qpfxj&edm=ABZsPhsBAAAA&ccb=7-5&ig_cache_key=Mjk4MjI0NDU5NTgwMzcyNjk0Nw%3D%3D.2-ccb7-5&oh=00_AfCrv38Nw4ZYPzrmT7PJb8QBD7HunEk1AWN1OTsxOaDCNg&oe=638B19EF&_nc_sid=4efc9f",
                        "width": 240
                    },
                    {
                        "height": 1080,
                        "url": "https://scontent-ord5-2.cdninstagram.com/v/t51.2885-15/317403977_507126731436960_7319181269435065516_n.jpg?stp=c0.116.1440.1440a_dst-jpg_e35_s1080x1080&_nc_ht=scontent-ord5-2.cdninstagram.com&_nc_cat=100&_nc_ohc=xyX8BocGox4AX-qpfxj&edm=ABZsPhsBAAAA&ccb=7-5&ig_cache_key=Mjk4MjI0NDU5NTgwMzcyNjk0Nw%3D%3D.2-ccb7-5&oh=00_AfDc7XlD3a2iblR2M_oO9-kRlAcaM242F_KssvjBBi2B5g&oe=638B19EF&_nc_sid=4efc9f",
                        "width": 1080
                    },
                    {
                        "height": 750,
                        "url": "https://scontent-ord5-2.cdninstagram.com/v/t51.2885-15/317403977_507126731436960_7319181269435065516_n.jpg?stp=c0.116.1440.1440a_dst-jpg_e35_s750x750_sh0.08&_nc_ht=scontent-ord5-2.cdninstagram.com&_nc_cat=100&_nc_ohc=xyX8BocGox4AX-qpfxj&edm=ABZsPhsBAAAA&ccb=7-5&ig_cache_key=Mjk4MjI0NDU5NTgwMzcyNjk0Nw%3D%3D.2-ccb7-5&oh=00_AfD_Q4r1upbrXIZNG9GEy1GXk9DytjbP4B1zybQbjNL3tA&oe=638B19EF&_nc_sid=4efc9f",
                        "width": 750
                    },
                    {
                        "height": 640,
                        "url": "https://scontent-ord5-2.cdninstagram.com/v/t51.2885-15/317403977_507126731436960_7319181269435065516_n.jpg?stp=c0.116.1440.1440a_dst-jpg_e35_s640x640_sh0.08&_nc_ht=scontent-ord5-2.cdninstagram.com&_nc_cat=100&_nc_ohc=xyX8BocGox4AX-qpfxj&edm=ABZsPhsBAAAA&ccb=7-5&ig_cache_key=Mjk4MjI0NDU5NTgwMzcyNjk0Nw%3D%3D.2-ccb7-5&oh=00_AfDifRCrH67Gzwua_b54hqUGk9KcJJkxv6OJPmJ2PGguQw&oe=638B19EF&_nc_sid=4efc9f",
                        "width": 640
                    },
                    {
                        "height": 480,
                        "url": "https://scontent-ord5-2.cdninstagram.com/v/t51.2885-15/317403977_507126731436960_7319181269435065516_n.jpg?stp=c0.116.1440.1440a_dst-jpg_e35_s480x480&_nc_ht=scontent-ord5-2.cdninstagram.com&_nc_cat=100&_nc_ohc=xyX8BocGox4AX-qpfxj&edm=ABZsPhsBAAAA&ccb=7-5&ig_cache_key=Mjk4MjI0NDU5NTgwMzcyNjk0Nw%3D%3D.2-ccb7-5&oh=00_AfAJc3q4jx8R-c6jYQRMUl0BFhGkEH2-XAd7useBgUg6ow&oe=638B19EF&_nc_sid=4efc9f",
                        "width": 480
                    },
                    {
                        "height": 320,
                        "url": "https://scontent-ord5-2.cdninstagram.com/v/t51.2885-15/317403977_507126731436960_7319181269435065516_n.jpg?stp=c0.116.1440.1440a_dst-jpg_e35_s320x320&_nc_ht=scontent-ord5-2.cdninstagram.com&_nc_cat=100&_nc_ohc=xyX8BocGox4AX-qpfxj&edm=ABZsPhsBAAAA&ccb=7-5&ig_cache_key=Mjk4MjI0NDU5NTgwMzcyNjk0Nw%3D%3D.2-ccb7-5&oh=00_AfDFwQN0ndnvDZs8yVnNZwzfBp7PGGnIuhyr786LHIoODA&oe=638B19EF&_nc_sid=4efc9f",
                        "width": 320
                    },
                    {
                        "height": 240,
                        "url": "https://scontent-ord5-2.cdninstagram.com/v/t51.2885-15/317403977_507126731436960_7319181269435065516_n.jpg?stp=c0.116.1440.1440a_dst-jpg_e35_s240x240&_nc_ht=scontent-ord5-2.cdninstagram.com&_nc_cat=100&_nc_ohc=xyX8BocGox4AX-qpfxj&edm=ABZsPhsBAAAA&ccb=7-5&ig_cache_key=Mjk4MjI0NDU5NTgwMzcyNjk0Nw%3D%3D.2-ccb7-5&oh=00_AfASxm_CQZnSAc1b0bZwL3oUvy8ez2i-pS09z3ddX_Tlqg&oe=638B19EF&_nc_sid=4efc9f",
                        "width": 240
                    },
                    {
                        "height": 150,
                        "url": "https://scontent-ord5-2.cdninstagram.com/v/t51.2885-15/317403977_507126731436960_7319181269435065516_n.jpg?stp=c0.116.1440.1440a_dst-jpg_e35_s150x150&_nc_ht=scontent-ord5-2.cdninstagram.com&_nc_cat=100&_nc_ohc=xyX8BocGox4AX-qpfxj&edm=ABZsPhsBAAAA&ccb=7-5&ig_cache_key=Mjk4MjI0NDU5NTgwMzcyNjk0Nw%3D%3D.2-ccb7-5&oh=00_AfAgPb497eU5yUF5fukDz2jkVIEp0XX750Q1kMxxAF4rtw&oe=638B19EF&_nc_sid=4efc9f",
                        "width": 150
                    }
                ]
            },
            "integrity_review_decision": "pending",
            "is_artist_pick": false,
            "is_in_profile_grid": false,
            "is_organic_product_tagging_eligible": false,
            "is_paid_partnership": false,
            "is_unified_video": false,
            "is_visual_reply_commenter_notice_enabled": true,
            "like_and_view_counts_disabled": false,
            "like_count": 845,
            "max_num_visible_preview_comments": 2,
            "media_type": 1,
            "music_metadata": {
                "audio_type": null,
                "music_canonical_id": "0",
                "music_info": null,
                "original_sound_info": null,
                "pinned_media_ids": null
            },
            "next_max_id": 17920808171524718,
            "organic_tracking_token": "eyJ2ZXJzaW9uIjo1LCJwYXlsb2FkIjp7ImlzX2FuYWx5dGljc190cmFja2VkIjp0cnVlLCJ1dWlkIjoiMmJlZDM3YmJjNDQxNDc4NGFjZjdiZmFlZjkxMGQ2ZjIyOTgyMjQ0NTk1ODAzNzI2OTQ3Iiwic2VydmVyX3Rva2VuIjoiMTY2OTczNDk2MjY5OXwyOTgyMjQ0NTk1ODAzNzI2OTQ3fDE5MTI2NzkwMTl8NWU3OWRhYjFmNjM5ZmFhZWFhZGFmZGQxMzg1NGE3NjlmYWFiM2IwMTcyNGY5ZWE0ZTNhNTRjYjAyODhlMzU3NyJ9LCJzaWduYXR1cmUiOiIifQ==",
            "original_height": 1673,
            "original_media_has_visual_reply_media": false,
            "original_width": 1440,
            "photo_of_you": false,
            "pk": 2982244595803726947,
            "preview_comments": [
                {
                    "bit_flags": 0,
                    "content_type": "comment",
                    "created_at": 1669734327,
                    "created_at_utc": 1669734327,
                    "did_report_as_spam": false,
                    "is_covered": false,
                    "is_ranked_comment": false,
                    "media_id": 2982244595803726947,
                    "pk": 17979399289804579,
                    "private_reply_status": 0,
                    "share_enabled": false,
                    "status": "Active",
                    "text": "Are you a BTS fan?",
                    "type": 0,
                    "user": {
                        "full_name": "",
                        "is_private": false,
                        "is_verified": false,
                        "pk": 54590642298,
                        "pk_id": "54590642298",
                        "profile_pic_id": "2976306413102751981_54590642298",
                        "profile_pic_url": "https://scontent-ord5-2.cdninstagram.com/v/t51.2885-19/316365406_466519505381581_788178884361173067_n.jpg?stp=dst-jpg_s150x150&_nc_ht=scontent-ord5-2.cdninstagram.com&_nc_cat=101&_nc_ohc=3N1ZnrIejSYAX_EyIwD&edm=ABZsPhsBAAAA&ccb=7-5&oh=00_AfBkLXcGrBDoJIS7z2TY9VdwMBL0loQ7CiZEOEOYCrLLBw&oe=638BC5C3&_nc_sid=4efc9f",
                        "username": "amir_spg3"
                    },
                    "user_id": 54590642298
                },
                {
                    "bit_flags": 0,
                    "content_type": "comment",
                    "created_at": 1669734882,
                    "created_at_utc": 1669734882,
                    "did_report_as_spam": false,
                    "has_translation": true,
                    "is_covered": false,
                    "is_ranked_comment": false,
                    "media_id": 2982244595803726947,
                    "pk": 17920808171524718,
                    "private_reply_status": 0,
                    "share_enabled": false,
                    "status": "Active",
                    "text": "ador\u00e1vel \u2764\ufe0f",
                    "type": 0,
                    "user": {
                        "full_name": "Paula Gabrielly, bem",
                        "is_private": true,
                        "is_verified": false,
                        "pk": 8709470544,
                        "pk_id": "8709470544",
                        "profile_pic_id": "2899122798422668953_8709470544",
                        "profile_pic_url": "https://scontent-ord5-2.cdninstagram.com/v/t51.2885-19/297608710_115357787923245_6266005110878837289_n.jpg?stp=dst-jpg_s150x150&_nc_ht=scontent-ord5-2.cdninstagram.com&_nc_cat=109&_nc_ohc=u2alOvpiLh8AX_pJ38h&edm=ABZsPhsBAAAA&ccb=7-5&oh=00_AfChHoCNYzcOWnQ9zsmgigbZewUIhCdp-QcAJiis_JfPBg&oe=638ADDC0&_nc_sid=4efc9f",
                        "username": "gabi_llouxx"
                    },
                    "user_id": 8709470544
                }
            ],
            "product_type": "feed",
            "profile_grid_control_enabled": false,
            "sharing_friction_info": {
                "bloks_app_url": null,
                "sharing_friction_payload": null,
                "should_have_sharing_friction": false
            },
            "should_request_ads": false,
            "taken_at": 1669731281,
            "top_likers": [],
            "user": {
                "account_badges": [],
                "fan_club_info": {
                    "fan_club_id": null,
                    "fan_club_name": null,
                    "fan_consideration_page_revamp_eligiblity": null,
                    "is_fan_club_gifting_eligible": null,
                    "is_fan_club_referral_eligible": null
                },
                "friendship_status": {
                    "following": false,
                    "is_bestie": false,
                    "is_feed_favorite": false,
                    "is_restricted": false,
                    "outgoing_request": false
                },
                "full_name": "Shop OPEN \ud83e\udd5a\ud83d\udc23\ud83d\udc25",
                "has_anonymous_profile_picture": false,
                "has_highlight_reels": false,
                "is_favorite": false,
                "is_private": false,
                "is_unpublished": false,
                "pk": 8378843216,
                "pk_id": "8378843216",
                "profile_pic_id": "2444387427566104860_8378843216",
                "profile_pic_url": "https://scontent-ord5-2.cdninstagram.com/v/t51.2885-19/125959648_846194672810485_8140699746206162480_n.jpg?stp=dst-jpg_s150x150&_nc_ht=scontent-ord5-2.cdninstagram.com&_nc_cat=101&_nc_ohc=zC9AX3bqzTEAX-7ws5E&edm=ABZsPhsBAAAA&ccb=7-5&oh=00_AfClLklQ5nbh4w4G2XBnXw3BA91rEHbAv2RucrQ9VN9jQQ&oe=638AF570&_nc_sid=4efc9f",
                "transparency_product_enabled": false,
                "username": "agaezii"
            }
        },
        "is_video": false,
        "owner": {
            "full_name": "Shop OPEN \ud83e\udd5a\ud83d\udc23\ud83d\udc25",
            "id": 8378843216,
            "iphone_struct": {
                "account_badges": [],
                "fan_club_info": {
                    "fan_club_id": null,
                    "fan_club_name": null,
                    "fan_consideration_page_revamp_eligiblity": null,
                    "is_fan_club_gifting_eligible": null,
                    "is_fan_club_referral_eligible": null
                },
                "friendship_status": {
                    "following": false,
                    "is_bestie": false,
                    "is_feed_favorite": false,
                    "is_restricted": false,
                    "outgoing_request": false
                },
                "full_name": "Shop OPEN \ud83e\udd5a\ud83d\udc23\ud83d\udc25",
                "has_anonymous_profile_picture": false,
                "has_highlight_reels": false,
                "is_favorite": false,
                "is_private": false,
                "is_unpublished": false,
                "pk": 8378843216,
                "pk_id": "8378843216",
                "profile_pic_id": "2444387427566104860_8378843216",
                "profile_pic_url": "https://scontent-ord5-2.cdninstagram.com/v/t51.2885-19/125959648_846194672810485_8140699746206162480_n.jpg?stp=dst-jpg_s150x150&_nc_ht=scontent-ord5-2.cdninstagram.com&_nc_cat=101&_nc_ohc=zC9AX3bqzTEAX-7ws5E&edm=ABZsPhsBAAAA&ccb=7-5&oh=00_AfClLklQ5nbh4w4G2XBnXw3BA91rEHbAv2RucrQ9VN9jQQ&oe=638AF570&_nc_sid=4efc9f",
                "transparency_product_enabled": false,
                "username": "agaezii"
            },
            "is_private": false,
            "profile_pic_url_hd": "https://scontent-ord5-2.cdninstagram.com/v/t51.2885-19/125959648_846194672810485_8140699746206162480_n.jpg?stp=dst-jpg_s150x150&_nc_ht=scontent-ord5-2.cdninstagram.com&_nc_cat=101&_nc_ohc=zC9AX3bqzTEAX-7ws5E&edm=ABZsPhsBAAAA&ccb=7-5&oh=00_AfClLklQ5nbh4w4G2XBnXw3BA91rEHbAv2RucrQ9VN9jQQ&oe=638AF570&_nc_sid=4efc9f",
            "username": "agaezii"
        },
        "shortcode": "CljD6jGNaRj",
        "title": null,
        "viewer_has_liked": false
    }
}