{
    "instaloader": {
        "node_type": "Post",
        "version": "4.9.5"
    },
    "node": {
        "__typename": "GraphSidecar",
        "caption": "Defragmentation // #aiart #midjourney #MJv4 #digitalart #ai #surreal #generativeart #defrag #sleep #memory #order #art",
        "date": 1669727385,
        "edge_media_preview_like": {
            "count": 309
        },
        "edge_sidecar_to_children": {
            "edges": [
                {
                    "node": {
                        "display_url": "https://scontent-ord5-2.cdninstagram.com/v/t51.2885-15/317236271_907830533932173_886559539946959334_n.jpg?stp=dst-jpg_e35&_nc_ht=scontent-ord5-2.cdninstagram.com&_nc_cat=109&_nc_ohc=K3OitTtlY4kAX-6S6Lj&edm=ABZsPhsBAAAA&ccb=7-5&ig_cache_key=Mjk4MjIxMTkxNTAyODg4NjMyNA%3D%3D.2-ccb7-5&oh=00_AfClDLweBF2iQzrac0cUeKaGTBNPYBwQG5ctcmyKF138Bw&oe=638BC105&_nc_sid=4efc9f",
                        "is_video": false
                    }
                },
                {
                    "node": {
                        "display_url": "https://scontent-ord5-2.cdninstagram.com/v/t51.2885-15/317473204_1195554328033813_1217484364541985564_n.jpg?stp=dst-jpg_e35&_nc_ht=scontent-ord5-2.cdninstagram.com&_nc_cat=101&_nc_ohc=M-9WMg0NoqUAX-HD9e6&edm=ABZsPhsBAAAA&ccb=7-5&ig_cache_key=Mjk4MjIxMTkxNTA5NTc4Njg1MQ%3D%3D.2-ccb7-5&oh=00_AfAE7sJCx4iMuKMAoSLLDMlqIuBfRSwzcxTIC_hyQwBu-Q&oe=638B78E8&_nc_sid=4efc9f",
                        "is_video": false
                    }
                },
                {
                    "node": {
                        "display_url": "https://scontent-ord5-2.cdninstagram.com/v/t51.2885-15/317212210_2489294674561656_2044875262707325956_n.jpg?stp=dst-jpg_e35&_nc_ht=scontent-ord5-2.cdninstagram.com&_nc_cat=100&_nc_ohc=614pVX8btm4AX-qzL-a&edm=ABZsPhsBAAAA&ccb=7-5&ig_cache_key=Mjk4MjIxMTkxNTAzNzA2MDgyNw%3D%3D.2-ccb7-5&oh=00_AfD6JDczmkhRnUUW2iCtpjmMM13_evBgCM_aFmAehbofcg&oe=638B8AF0&_nc_sid=4efc9f",
                        "is_video": false
                    }
                },
                {
                    "node": {
                        "display_url": "https://scontent-ord5-2.cdninstagram.com/v/t51.2885-15/317511985_117667260989330_604345512014558075_n.jpg?stp=dst-jpg_e35&_nc_ht=scontent-ord5-2.cdninstagram.com&_nc_cat=102&_nc_ohc=N6jncQ-N5-cAX8blSft&edm=ABZsPhsBAAAA&ccb=7-5&ig_cache_key=Mjk4MjIxMTkxNTA2MjM3MjIwOA%3D%3D.2-ccb7-5&oh=00_AfDiiT38Z0GRrDG_0YkhHanUjbcIsXKtxzNOPapBBmyaEQ&oe=638BC5A3&_nc_sid=4efc9f",
                        "is_video": false
                    }
                }
            ]
        },
        "id": 2982211919181011201,
        "iphone_struct": {
            "can_see_insights_as_brand": false,
            "can_view_more_preview_comments": true,
            "can_viewer_reshare": true,
            "can_viewer_save": true,
            "caption": {
                "bit_flags": 0,
                "content_type": "comment",
                "created_at": 1669727386,
                "created_at_utc": 1669727386,
                "did_report_as_spam": false,
                "is_covered": false,
                "is_ranked_comment": false,
                "media_id": 2982211919181011201,
                "pk": 18020823982454277,
                "private_reply_status": 0,
                "share_enabled": false,
                "status": "Active",
                "text": "Defragmentation // #aiart #midjourney #MJv4 #digitalart #ai #surreal #generativeart #defrag #sleep #memory #order #art",
                "type": 1,
                "user": {
                    "full_name": "Kodiak Arcade",
                    "is_private": false,
                    "is_verified": false,
                    "pk": 44313177289,
                    "pk_id": "44313177289",
                    "profile_pic_id": "2627784529182207002_44313177289",
                    "profile_pic_url": "https://scontent-ord5-2.cdninstagram.com/v/t51.2885-19/225474036_1484149105253177_1786625856564391067_n.jpg?stp=dst-jpg_s150x150&_nc_ht=scontent-ord5-2.cdninstagram.com&_nc_cat=105&_nc_ohc=pvnPxLs2uHoAX9UNyDu&edm=ABZsPhsBAAAA&ccb=7-5&oh=00_AfDSnFt8AoLdwKy99XnzAVI6F0K9nwDvoB7zagtX-13nLQ&oe=638A4924&_nc_sid=4efc9f",
                    "username": "kodiakarcade"
                },
                "user_id": 44313177289
            },
            "caption_is_edited": false,
            "carousel_media": [
                {
                    "carousel_parent_id": "2982211919181011201_44313177289",
                    "commerciality_status": "not_commercial",
                    "id": "2982211915028886324_44313177289",
                    "image_versions2": {
                        "candidates": [
                            {
                                "height": 1440,
                                "url": "https://scontent-ord5-2.cdninstagram.com/v/t51.2885-15/317236271_907830533932173_886559539946959334_n.jpg?stp=dst-jpg_e35&_nc_ht=scontent-ord5-2.cdninstagram.com&_nc_cat=109&_nc_ohc=K3OitTtlY4kAX-6S6Lj&edm=ABZsPhsBAAAA&ccb=7-5&ig_cache_key=Mjk4MjIxMTkxNTAyODg4NjMyNA%3D%3D.2-ccb7-5&oh=00_AfClDLweBF2iQzrac0cUeKaGTBNPYBwQG5ctcmyKF138Bw&oe=638BC105&_nc_sid=4efc9f",
                                "width": 1440
                            },
                            {
                                "height": 1080,
                                "url": "https://scontent-ord5-2.cdninstagram.com/v/t51.2885-15/317236271_907830533932173_886559539946959334_n.jpg?stp=dst-jpg_e35_s1080x1080&_nc_ht=scontent-ord5-2.cdninstagram.com&_nc_cat=109&_nc_ohc=K3OitTtlY4kAX-6S6Lj&edm=ABZsPhsBAAAA&ccb=7-5&ig_cache_key=Mjk4MjIxMTkxNTAyODg4NjMyNA%3D%3D.2-ccb7-5&oh=00_AfC_brlu9Zdyf2Z00ftI4Yz59wiy2C_KkfFs5XXi9dSxeg&oe=638BC105&_nc_sid=4efc9f",
                                "width": 1080
                            },
                            {
                                "height": 720,
                                "url": "https://scontent-ord5-2.cdninstagram.com/v/t51.2885-15/317236271_907830533932173_886559539946959334_n.jpg?stp=dst-jpg_e35_s720x720&_nc_ht=scontent-ord5-2.cdninstagram.com&_nc_cat=109&_nc_ohc=K3OitTtlY4kAX-6S6Lj&edm=ABZsPhsBAAAA&ccb=7-5&ig_cache_key=Mjk4MjIxMTkxNTAyODg4NjMyNA%3D%3D.2-ccb7-5&oh=00_AfCE3Ku1PHfg__SNnpd74zkXSBq-ZGz0p1Ok0mI3QXYBPA&oe=638BC105&_nc_sid=4efc9f",
                                "width": 720
                            },
                            {
                                "height": 640,
                                "url": "https://scontent-ord5-2.cdninstagram.com/v/t51.2885-15/317236271_907830533932173_886559539946959334_n.jpg?stp=dst-jpg_e35_s640x640_sh0.08&_nc_ht=scontent-ord5-2.cdninstagram.com&_nc_cat=109&_nc_ohc=K3OitTtlY4kAX-6S6Lj&edm=ABZsPhsBAAAA&ccb=7-5&ig_cache_key=Mjk4MjIxMTkxNTAyODg4NjMyNA%3D%3D.2-ccb7-5&oh=00_AfAvxtTSVRE-4h2ZlYYYoKbhp4e9pmMkVjUp7Fk4IWTOsw&oe=638BC105&_nc_sid=4efc9f",
                                "width": 640
                            },
                            {
                                "height": 480,
                                "url": "https://scontent-ord5-2.cdninstagram.com/v/t51.2885-15/317236271_907830533932173_886559539946959334_n.jpg?stp=dst-jpg_e35_s480x480&_nc_ht=scontent-ord5-2.cdninstagram.com&_nc_cat=109&_nc_ohc=K3OitTtlY4kAX-6S6Lj&edm=ABZsPhsBAAAA&ccb=7-5&ig_cache_key=Mjk4MjIxMTkxNTAyODg4NjMyNA%3D%3D.2-ccb7-5&oh=00_AfC1ki7c24kiItBeN9h7Qy3tCcuS9wiv4ogm-TTMSHy8kQ&oe=638BC105&_nc_sid=4efc9f",
                                "width": 480
                            },
                            {
                                "height": 320,
                                "url": "https://scontent-ord5-2.cdninstagram.com/v/t51.2885-15/317236271_907830533932173_886559539946959334_n.jpg?stp=dst-jpg_e35_s320x320&_nc_ht=scontent-ord5-2.cdninstagram.com&_nc_cat=109&_nc_ohc=K3OitTtlY4kAX-6S6Lj&edm=ABZsPhsBAAAA&ccb=7-5&ig_cache_key=Mjk4MjIxMTkxNTAyODg4NjMyNA%3D%3D.2-ccb7-5&oh=00_AfC1mD_1wgmhhzKSVqzDBX_7JpKyArxUwH6F4qJatO9CXw&oe=638BC105&_nc_sid=4efc9f",
                                "width": 320
                            },
                            {
                                "height": 240,
                                "url": "https://scontent-ord5-2.cdninstagram.com/v/t51.2885-15/317236271_907830533932173_886559539946959334_n.jpg?stp=dst-jpg_e35_s240x240&_nc_ht=scontent-ord5-2.cdninstagram.com&_nc_cat=109&_nc_ohc=K3OitTtlY4kAX-6S6Lj&edm=ABZsPhsBAAAA&ccb=7-5&ig_cache_key=Mjk4MjIxMTkxNTAyODg4NjMyNA%3D%3D.2-ccb7-5&oh=00_AfDIT8RpY4axFnps_XKCJgDOI_MtFhcV6nmfwwYfGRhUUA&oe=638BC105&_nc_sid=4efc9f",
                                "width": 240
                            },
                            {
                                "height": 1080,
                                "url": "https://scontent-ord5-2.cdninstagram.com/v/t51.2885-15/317236271_907830533932173_886559539946959334_n.jpg?stp=dst-jpg_e35_s1080x1080&_nc_ht=scontent-ord5-2.cdninstagram.com&_nc_cat=109&_nc_ohc=K3OitTtlY4kAX-6S6Lj&edm=ABZsPhsBAAAA&ccb=7-5&ig_cache_key=Mjk4MjIxMTkxNTAyODg4NjMyNA%3D%3D.2-ccb7-5&oh=00_AfC_brlu9Zdyf2Z00ftI4Yz59wiy2C_KkfFs5XXi9dSxeg&oe=638BC105&_nc_sid=4efc9f",
                                "width": 1080
                            },
                            {
                                "height": 750,
                                "url": "https://scontent-ord5-2.cdninstagram.com/v/t51.2885-15/317236271_907830533932173_886559539946959334_n.jpg?stp=dst-jpg_e35_s750x750_sh0.08&_nc_ht=scontent-ord5-2.cdninstagram.com&_nc_cat=109&_nc_ohc=K3OitTtlY4kAX-6S6Lj&edm=ABZsPhsBAAAA&ccb=7-5&ig_cache_key=Mjk4MjIxMTkxNTAyODg4NjMyNA%3D%3D.2-ccb7-5&oh=00_AfDq0uQHde2E7Ewbs8k9f940gSeQdXTwpA0cRVDgVMLvcg&oe=638BC105&_nc_sid=4efc9f",
                                "width": 750
                            },
                            {
                                "height": 640,
                                "url": "https://scontent-ord5-2.cdninstagram.com/v/t51.2885-15/317236271_907830533932173_886559539946959334_n.jpg?stp=dst-jpg_e35_s640x640_sh0.08&_nc_ht=scontent-ord5-2.cdninstagram.com&_nc_cat=109&_nc_ohc=K3OitTtlY4kAX-6S6Lj&edm=ABZsPhsBAAAA&ccb=7-5&ig_cache_key=Mjk4MjIxMTkxNTAyODg4NjMyNA%3D%3D.2-ccb7-5&oh=00_AfAvxtTSVRE-4h2ZlYYYoKbhp4e9pmMkVjUp7Fk4IWTOsw&oe=638BC105&_nc_sid=4efc9f",
                                "width": 640
                            },
                            {
                                "height": 480,
                                "url": "https://scontent-ord5-2.cdninstagram.com/v/t51.2885-15/317236271_907830533932173_886559539946959334_n.jpg?stp=dst-jpg_e35_s480x480&_nc_ht=scontent-ord5-2.cdninstagram.com&_nc_cat=109&_nc_ohc=K3OitTtlY4kAX-6S6Lj&edm=ABZsPhsBAAAA&ccb=7-5&ig_cache_key=Mjk4MjIxMTkxNTAyODg4NjMyNA%3D%3D.2-ccb7-5&oh=00_AfC1ki7c24kiItBeN9h7Qy3tCcuS9wiv4ogm-TTMSHy8kQ&oe=638BC105&_nc_sid=4efc9f",
                                "width": 480
                            },
                            {
                                "height": 320,
                                "url": "https://scontent-ord5-2.cdninstagram.com/v/t51.2885-15/317236271_907830533932173_886559539946959334_n.jpg?stp=dst-jpg_e35_s320x320&_nc_ht=scontent-ord5-2.cdninstagram.com&_nc_cat=109&_nc_ohc=K3OitTtlY4kAX-6S6Lj&edm=ABZsPhsBAAAA&ccb=7-5&ig_cache_key=Mjk4MjIxMTkxNTAyODg4NjMyNA%3D%3D.2-ccb7-5&oh=00_AfC1mD_1wgmhhzKSVqzDBX_7JpKyArxUwH6F4qJatO9CXw&oe=638BC105&_nc_sid=4efc9f",
                                "width": 320
                            },
                            {
                                "height": 240,
                                "url": "https://scontent-ord5-2.cdninstagram.com/v/t51.2885-15/317236271_907830533932173_886559539946959334_n.jpg?stp=dst-jpg_e35_s240x240&_nc_ht=scontent-ord5-2.cdninstagram.com&_nc_cat=109&_nc_ohc=K3OitTtlY4kAX-6S6Lj&edm=ABZsPhsBAAAA&ccb=7-5&ig_cache_key=Mjk4MjIxMTkxNTAyODg4NjMyNA%3D%3D.2-ccb7-5&oh=00_AfDIT8RpY4axFnps_XKCJgDOI_MtFhcV6nmfwwYfGRhUUA&oe=638BC105&_nc_sid=4efc9f",
                                "width": 240
                            },
                            {
                                "height": 150,
                                "url": "https://scontent-ord5-2.cdninstagram.com/v/t51.2885-15/317236271_907830533932173_886559539946959334_n.jpg?stp=dst-jpg_e35_s150x150&_nc_ht=scontent-ord5-2.cdninstagram.com&_nc_cat=109&_nc_ohc=K3OitTtlY4kAX-6S6Lj&edm=ABZsPhsBAAAA&ccb=7-5&ig_cache_key=Mjk4MjIxMTkxNTAyODg4NjMyNA%3D%3D.2-ccb7-5&oh=00_AfAMKF--_kEGkIXhK1uOz1ksAhXJ1jTn2YL_EuA9eB0LZw&oe=638BC105&_nc_sid=4efc9f",
                                "width": 150
                            }
                        ]
                    },
                    "media_type": 1,
                    "original_height": 1440,
                    "original_width": 1440,
                    "pk": 2982211915028886324,
                    "sharing_friction_info": {
                        "bloks_app_url": null,
                        "sharing_friction_payload": null,
                        "should_have_sharing_friction": false
                    }
                },
                {
                    "carousel_parent_id": "2982211919181011201_44313177289",
                    "commerciality_status": "not_commercial",
                    "id": "2982211915095786851_44313177289",
                    "image_versions2": {
                        "candidates": [
                            {
                                "height": 1440,
                                "url": "https://scontent-ord5-2.cdninstagram.com/v/t51.2885-15/317473204_1195554328033813_1217484364541985564_n.jpg?stp=dst-jpg_e35&_nc_ht=scontent-ord5-2.cdninstagram.com&_nc_cat=101&_nc_ohc=M-9WMg0NoqUAX-HD9e6&edm=ABZsPhsBAAAA&ccb=7-5&ig_cache_key=Mjk4MjIxMTkxNTA5NTc4Njg1MQ%3D%3D.2-ccb7-5&oh=00_AfAE7sJCx4iMuKMAoSLLDMlqIuBfRSwzcxTIC_hyQwBu-Q&oe=638B78E8&_nc_sid=4efc9f",
                                "width": 1440
                            },
                            {
                                "height": 1080,
                                "url": "https://scontent-ord5-2.cdninstagram.com/v/t51.2885-15/317473204_1195554328033813_1217484364541985564_n.jpg?stp=dst-jpg_e35_s1080x1080&_nc_ht=scontent-ord5-2.cdninstagram.com&_nc_cat=101&_nc_ohc=M-9WMg0NoqUAX-HD9e6&edm=ABZsPhsBAAAA&ccb=7-5&ig_cache_key=Mjk4MjIxMTkxNTA5NTc4Njg1MQ%3D%3D.2-ccb7-5&oh=00_AfApQbrxegQ53q8ab5nOZ9h2hA9eRHt2Z14uZbSkNf39QA&oe=638B78E8&_nc_sid=4efc9f",
                                "width": 1080
                            },
                            {
                                "height": 720,
                                "url": "https://scontent-ord5-2.cdninstagram.com/v/t51.2885-15/317473204_1195554328033813_1217484364541985564_n.jpg?stp=dst-jpg_e35_s720x720&_nc_ht=scontent-ord5-2.cdninstagram.com&_nc_cat=101&_nc_ohc=M-9WMg0NoqUAX-HD9e6&edm=ABZsPhsBAAAA&ccb=7-5&ig_cache_key=Mjk4MjIxMTkxNTA5NTc4Njg1MQ%3D%3D.2-ccb7-5&oh=00_AfA2rYqPWMtmWXcnaMB41OEGv0hVTPZL649s1_deXuRsDQ&oe=638B78E8&_nc_sid=4efc9f",
                                "width": 720
                            },
                            {
                                "height": 640,
                                "url": "https://scontent-ord5-2.cdninstagram.com/v/t51.2885-15/317473204_1195554328033813_1217484364541985564_n.jpg?stp=dst-jpg_e35_s640x640_sh0.08&_nc_ht=scontent-ord5-2.cdninstagram.com&_nc_cat=101&_nc_ohc=M-9WMg0NoqUAX-HD9e6&edm=ABZsPhsBAAAA&ccb=7-5&ig_cache_key=Mjk4MjIxMTkxNTA5NTc4Njg1MQ%3D%3D.2-ccb7-5&oh=00_AfCEfTOomppFzF9q6WRkWwuKYKMcY5EGVo4CNwVL4SPQGQ&oe=638B78E8&_nc_sid=4efc9f",
                                "width": 640
                            },
                            {
                                "height": 480,
                                "url": "https://scontent-ord5-2.cdninstagram.com/v/t51.2885-15/317473204_1195554328033813_1217484364541985564_n.jpg?stp=dst-jpg_e35_s480x480&_nc_ht=scontent-ord5-2.cdninstagram.com&_nc_cat=101&_nc_ohc=M-9WMg0NoqUAX-HD9e6&edm=ABZsPhsBAAAA&ccb=7-5&ig_cache_key=Mjk4MjIxMTkxNTA5NTc4Njg1MQ%3D%3D.2-ccb7-5&oh=00_AfBvyvGTEjQPx8B9-kHATIKhek-uaTRCriGhgfX2cIjsCw&oe=638B78E8&_nc_sid=4efc9f",
                                "width": 480
                            },
                            {
                                "height": 320,
                                "url": "https://scontent-ord5-2.cdninstagram.com/v/t51.2885-15/317473204_1195554328033813_1217484364541985564_n.jpg?stp=dst-jpg_e35_s320x320&_nc_ht=scontent-ord5-2.cdninstagram.com&_nc_cat=101&_nc_ohc=M-9WMg0NoqUAX-HD9e6&edm=ABZsPhsBAAAA&ccb=7-5&ig_cache_key=Mjk4MjIxMTkxNTA5NTc4Njg1MQ%3D%3D.2-ccb7-5&oh=00_AfCkQIlOcHP8JkMzxnckiNeAbNIZQ8gQfG7nyMG7acXwDQ&oe=638B78E8&_nc_sid=4efc9f",
                                "width": 320
                            },
                            {
                                "height": 240,
                                "url": "https://scontent-ord5-2.cdninstagram.com/v/t51.2885-15/317473204_1195554328033813_1217484364541985564_n.jpg?stp=dst-jpg_e35_s240x240&_nc_ht=scontent-ord5-2.cdninstagram.com&_nc_cat=101&_nc_ohc=M-9WMg0NoqUAX-HD9e6&edm=ABZsPhsBAAAA&ccb=7-5&ig_cache_key=Mjk4MjIxMTkxNTA5NTc4Njg1MQ%3D%3D.2-ccb7-5&oh=00_AfARnyhJ2D6sQMderykzalCw-up9jDVwJ6YejCfEYRT0qQ&oe=638B78E8&_nc_sid=4efc9f",
                                "width": 240
                            },
                            {
                                "height": 1080,
                                "url": "https://scontent-ord5-2.cdninstagram.com/v/t51.2885-15/317473204_1195554328033813_1217484364541985564_n.jpg?stp=dst-jpg_e35_s1080x1080&_nc_ht=scontent-ord5-2.cdninstagram.com&_nc_cat=101&_nc_ohc=M-9WMg0NoqUAX-HD9e6&edm=ABZsPhsBAAAA&ccb=7-5&ig_cache_key=Mjk4MjIxMTkxNTA5NTc4Njg1MQ%3D%3D.2-ccb7-5&oh=00_AfApQbrxegQ53q8ab5nOZ9h2hA9eRHt2Z14uZbSkNf39QA&oe=638B78E8&_nc_sid=4efc9f",
                                "width": 1080
                            },
                            {
                                "height": 750,
                                "url": "https://scontent-ord5-2.cdninstagram.com/v/t51.2885-15/317473204_1195554328033813_1217484364541985564_n.jpg?stp=dst-jpg_e35_s750x750_sh0.08&_nc_ht=scontent-ord5-2.cdninstagram.com&_nc_cat=101&_nc_ohc=M-9WMg0NoqUAX-HD9e6&edm=ABZsPhsBAAAA&ccb=7-5&ig_cache_key=Mjk4MjIxMTkxNTA5NTc4Njg1MQ%3D%3D.2-ccb7-5&oh=00_AfBA5RDONbS6gCEhHcrc8nnsSPrj3gVmPR7jO1ol-lzt3Q&oe=638B78E8&_nc_sid=4efc9f",
                                "width": 750
                            },
                            {
                                "height": 640,
                                "url": "https://scontent-ord5-2.cdninstagram.com/v/t51.2885-15/317473204_1195554328033813_1217484364541985564_n.jpg?stp=dst-jpg_e35_s640x640_sh0.08&_nc_ht=scontent-ord5-2.cdninstagram.com&_nc_cat=101&_nc_ohc=M-9WMg0NoqUAX-HD9e6&edm=ABZsPhsBAAAA&ccb=7-5&ig_cache_key=Mjk4MjIxMTkxNTA5NTc4Njg1MQ%3D%3D.2-ccb7-5&oh=00_AfCEfTOomppFzF9q6WRkWwuKYKMcY5EGVo4CNwVL4SPQGQ&oe=638B78E8&_nc_sid=4efc9f",
                                "width": 640
                            },
                            {
                                "height": 480,
                                "url": "https://scontent-ord5-2.cdninstagram.com/v/t51.2885-15/317473204_1195554328033813_1217484364541985564_n.jpg?stp=dst-jpg_e35_s480x480&_nc_ht=scontent-ord5-2.cdninstagram.com&_nc_cat=101&_nc_ohc=M-9WMg0NoqUAX-HD9e6&edm=ABZsPhsBAAAA&ccb=7-5&ig_cache_key=Mjk4MjIxMTkxNTA5NTc4Njg1MQ%3D%3D.2-ccb7-5&oh=00_AfBvyvGTEjQPx8B9-kHATIKhek-uaTRCriGhgfX2cIjsCw&oe=638B78E8&_nc_sid=4efc9f",
                                "width": 480
                            },
                            {
                                "height": 320,
                                "url": "https://scontent-ord5-2.cdninstagram.com/v/t51.2885-15/317473204_1195554328033813_1217484364541985564_n.jpg?stp=dst-jpg_e35_s320x320&_nc_ht=scontent-ord5-2.cdninstagram.com&_nc_cat=101&_nc_ohc=M-9WMg0NoqUAX-HD9e6&edm=ABZsPhsBAAAA&ccb=7-5&ig_cache_key=Mjk4MjIxMTkxNTA5NTc4Njg1MQ%3D%3D.2-ccb7-5&oh=00_AfCkQIlOcHP8JkMzxnckiNeAbNIZQ8gQfG7nyMG7acXwDQ&oe=638B78E8&_nc_sid=4efc9f",
                                "width": 320
                            },
                            {
                                "height": 240,
                                "url": "https://scontent-ord5-2.cdninstagram.com/v/t51.2885-15/317473204_1195554328033813_1217484364541985564_n.jpg?stp=dst-jpg_e35_s240x240&_nc_ht=scontent-ord5-2.cdninstagram.com&_nc_cat=101&_nc_ohc=M-9WMg0NoqUAX-HD9e6&edm=ABZsPhsBAAAA&ccb=7-5&ig_cache_key=Mjk4MjIxMTkxNTA5NTc4Njg1MQ%3D%3D.2-ccb7-5&oh=00_AfARnyhJ2D6sQMderykzalCw-up9jDVwJ6YejCfEYRT0qQ&oe=638B78E8&_nc_sid=4efc9f",
                                "width": 240
                            },
                            {
                                "height": 150,
                                "url": "https://scontent-ord5-2.cdninstagram.com/v/t51.2885-15/317473204_1195554328033813_1217484364541985564_n.jpg?stp=dst-jpg_e35_s150x150&_nc_ht=scontent-ord5-2.cdninstagram.com&_nc_cat=101&_nc_ohc=M-9WMg0NoqUAX-HD9e6&edm=ABZsPhsBAAAA&ccb=7-5&ig_cache_key=Mjk4MjIxMTkxNTA5NTc4Njg1MQ%3D%3D.2-ccb7-5&oh=00_AfDoA2fo-ZDbDA_1YdfPyK_lhcw5Ib2kVIDax42grBYUVg&oe=638B78E8&_nc_sid=4efc9f",
                                "width": 150
                            }
                        ]
                    },
                    "media_type": 1,
                    "original_height": 1440,
                    "original_width": 1440,
                    "pk": 2982211915095786851,
                    "sharing_friction_info": {
                        "bloks_app_url": null,
                        "sharing_friction_payload": null,
                        "should_have_sharing_friction": false
                    }
                },
                {
                    "carousel_parent_id": "2982211919181011201_44313177289",
                    "commerciality_status": "not_commercial",
                    "id": "2982211915037060827_44313177289",
                    "image_versions2": {
                        "candidates": [
                            {
                                "height": 1440,
                                "url": "https://scontent-ord5-2.cdninstagram.com/v/t51.2885-15/317212210_2489294674561656_2044875262707325956_n.jpg?stp=dst-jpg_e35&_nc_ht=scontent-ord5-2.cdninstagram.com&_nc_cat=100&_nc_ohc=614pVX8btm4AX-qzL-a&edm=ABZsPhsBAAAA&ccb=7-5&ig_cache_key=Mjk4MjIxMTkxNTAzNzA2MDgyNw%3D%3D.2-ccb7-5&oh=00_AfD6JDczmkhRnUUW2iCtpjmMM13_evBgCM_aFmAehbofcg&oe=638B8AF0&_nc_sid=4efc9f",
                                "width": 1440
                            },
                            {
                                "height": 1080,
                                "url": "https://scontent-ord5-2.cdninstagram.com/v/t51.2885-15/317212210_2489294674561656_2044875262707325956_n.jpg?stp=dst-jpg_e35_s1080x1080&_nc_ht=scontent-ord5-2.cdninstagram.com&_nc_cat=100&_nc_ohc=614pVX8btm4AX-qzL-a&edm=ABZsPhsBAAAA&ccb=7-5&ig_cache_key=Mjk4MjIxMTkxNTAzNzA2MDgyNw%3D%3D.2-ccb7-5&oh=00_AfAnAwW52kfcqXRZkQoKFnW5QdlrYfykX6LGaRMiymHb-w&oe=638B8AF0&_nc_sid=4efc9f",
                                "width": 1080
                            },
                            {
                                "height": 720,
                                "url": "https://scontent-ord5-2.cdninstagram.com/v/t51.2885-15/317212210_2489294674561656_2044875262707325956_n.jpg?stp=dst-jpg_e35_s720x720&_nc_ht=scontent-ord5-2.cdninstagram.com&_nc_cat=100&_nc_ohc=614pVX8btm4AX-qzL-a&edm=ABZsPhsBAAAA&ccb=7-5&ig_cache_key=Mjk4MjIxMTkxNTAzNzA2MDgyNw%3D%3D.2-ccb7-5&oh=00_AfAnWD4qGfmxzuGeI4ilyM5fv8vm-BQUSPfMtaSwKRnTNA&oe=638B8AF0&_nc_sid=4efc9f",
                                "width": 720
                            },
                            {
                                "height": 640,
                                "url": "https://scontent-ord5-2.cdninstagram.com/v/t51.2885-15/317212210_2489294674561656_2044875262707325956_n.jpg?stp=dst-jpg_e35_s640x640_sh0.08&_nc_ht=scontent-ord5-2.cdninstagram.com&_nc_cat=100&_nc_ohc=614pVX8btm4AX-qzL-a&edm=ABZsPhsBAAAA&ccb=7-5&ig_cache_key=Mjk4MjIxMTkxNTAzNzA2MDgyNw%3D%3D.2-ccb7-5&oh=00_AfAKqUdvS3AuztOVG7TEUMsQvOck4q2qQeZOA91Xaqcmdg&oe=638B8AF0&_nc_sid=4efc9f",
                                "width": 640
                            },
                            {
                                "height": 480,
                                "url": "https://scontent-ord5-2.cdninstagram.com/v/t51.2885-15/317212210_2489294674561656_2044875262707325956_n.jpg?stp=dst-jpg_e35_s480x480&_nc_ht=scontent-ord5-2.cdninstagram.com&_nc_cat=100&_nc_ohc=614pVX8btm4AX-qzL-a&edm=ABZsPhsBAAAA&ccb=7-5&ig_cache_key=Mjk4MjIxMTkxNTAzNzA2MDgyNw%3D%3D.2-ccb7-5&oh=00_AfDhgJlNQw-U4ExOzu76dzaI1Fba2S90zLa_JnaxRQGliw&oe=638B8AF0&_nc_sid=4efc9f",
                                "width": 480
                            },
                            {
                                "height": 320,
                                "url": "https://scontent-ord5-2.cdninstagram.com/v/t51.2885-15/317212210_2489294674561656_2044875262707325956_n.jpg?stp=dst-jpg_e35_s320x320&_nc_ht=scontent-ord5-2.cdninstagram.com&_nc_cat=100&_nc_ohc=614pVX8btm4AX-qzL-a&edm=ABZsPhsBAAAA&ccb=7-5&ig_cache_key=Mjk4MjIxMTkxNTAzNzA2MDgyNw%3D%3D.2-ccb7-5&oh=00_AfBlrLUY2PYbxWZhCQV7DsWooAN8T4NWbZQ44QV4F4EFUg&oe=638B8AF0&_nc_sid=4efc9f",
                                "width": 320
                            },
                            {
                                "height": 240,
                                "url": "https://scontent-ord5-2.cdninstagram.com/v/t51.2885-15/317212210_2489294674561656_2044875262707325956_n.jpg?stp=dst-jpg_e35_s240x240&_nc_ht=scontent-ord5-2.cdninstagram.com&_nc_cat=100&_nc_ohc=614pVX8btm4AX-qzL-a&edm=ABZsPhsBAAAA&ccb=7-5&ig_cache_key=Mjk4MjIxMTkxNTAzNzA2MDgyNw%3D%3D.2-ccb7-5&oh=00_AfAQhtnlmmJ6teXUvyyt_--oXRY8Vgh0OTk8NFgHxS-baw&oe=638B8AF0&_nc_sid=4efc9f",
                                "width": 240
                            },
                            {
                                "height": 1080,
                                "url": "https://scontent-ord5-2.cdninstagram.com/v/t51.2885-15/317212210_2489294674561656_2044875262707325956_n.jpg?stp=dst-jpg_e35_s1080x1080&_nc_ht=scontent-ord5-2.cdninstagram.com&_nc_cat=100&_nc_ohc=614pVX8btm4AX-qzL-a&edm=ABZsPhsBAAAA&ccb=7-5&ig_cache_key=Mjk4MjIxMTkxNTAzNzA2MDgyNw%3D%3D.2-ccb7-5&oh=00_AfAnAwW52kfcqXRZkQoKFnW5QdlrYfykX6LGaRMiymHb-w&oe=638B8AF0&_nc_sid=4efc9f",
                                "width": 1080
                            },
                            {
                                "height": 750,
                                "url": "https://scontent-ord5-2.cdninstagram.com/v/t51.2885-15/317212210_2489294674561656_2044875262707325956_n.jpg?stp=dst-jpg_e35_s750x750_sh0.08&_nc_ht=scontent-ord5-2.cdninstagram.com&_nc_cat=100&_nc_ohc=614pVX8btm4AX-qzL-a&edm=ABZsPhsBAAAA&ccb=7-5&ig_cache_key=Mjk4MjIxMTkxNTAzNzA2MDgyNw%3D%3D.2-ccb7-5&oh=00_AfBEqlRtkhUbd1FhRD9uznakUtIF5iJMXGPn7T0CsxTJ9g&oe=638B8AF0&_nc_sid=4efc9f",
                                "width": 750
                            },
                            {
                                "height": 640,
                                "url": "https://scontent-ord5-2.cdninstagram.com/v/t51.2885-15/317212210_2489294674561656_2044875262707325956_n.jpg?stp=dst-jpg_e35_s640x640_sh0.08&_nc_ht=scontent-ord5-2.cdninstagram.com&_nc_cat=100&_nc_ohc=614pVX8btm4AX-qzL-a&edm=ABZsPhsBAAAA&ccb=7-5&ig_cache_key=Mjk4MjIxMTkxNTAzNzA2MDgyNw%3D%3D.2-ccb7-5&oh=00_AfAKqUdvS3AuztOVG7TEUMsQvOck4q2qQeZOA91Xaqcmdg&oe=638B8AF0&_nc_sid=4efc9f",
                                "width": 640
                            },
                            {
                                "height": 480,
                                "url": "https://scontent-ord5-2.cdninstagram.com/v/t51.2885-15/317212210_2489294674561656_2044875262707325956_n.jpg?stp=dst-jpg_e35_s480x480&_nc_ht=scontent-ord5-2.cdninstagram.com&_nc_cat=100&_nc_ohc=614pVX8btm4AX-qzL-a&edm=ABZsPhsBAAAA&ccb=7-5&ig_cache_key=Mjk4MjIxMTkxNTAzNzA2MDgyNw%3D%3D.2-ccb7-5&oh=00_AfDhgJlNQw-U4ExOzu76dzaI1Fba2S90zLa_JnaxRQGliw&oe=638B8AF0&_nc_sid=4efc9f",
                                "width": 480
                            },
                            {
                                "height": 320,
                                "url": "https://scontent-ord5-2.cdninstagram.com/v/t51.2885-15/317212210_2489294674561656_2044875262707325956_n.jpg?stp=dst-jpg_e35_s320x320&_nc_ht=scontent-ord5-2.cdninstagram.com&_nc_cat=100&_nc_ohc=614pVX8btm4AX-qzL-a&edm=ABZsPhsBAAAA&ccb=7-5&ig_cache_key=Mjk4MjIxMTkxNTAzNzA2MDgyNw%3D%3D.2-ccb7-5&oh=00_AfBlrLUY2PYbxWZhCQV7DsWooAN8T4NWbZQ44QV4F4EFUg&oe=638B8AF0&_nc_sid=4efc9f",
                                "width": 320
                            },
                            {
                                "height": 240,
                                "url": "https://scontent-ord5-2.cdninstagram.com/v/t51.2885-15/317212210_2489294674561656_2044875262707325956_n.jpg?stp=dst-jpg_e35_s240x240&_nc_ht=scontent-ord5-2.cdninstagram.com&_nc_cat=100&_nc_ohc=614pVX8btm4AX-qzL-a&edm=ABZsPhsBAAAA&ccb=7-5&ig_cache_key=Mjk4MjIxMTkxNTAzNzA2MDgyNw%3D%3D.2-ccb7-5&oh=00_AfAQhtnlmmJ6teXUvyyt_--oXRY8Vgh0OTk8NFgHxS-baw&oe=638B8AF0&_nc_sid=4efc9f",
                                "width": 240
                            },
                            {
                                "height": 150,
                                "url": "https://scontent-ord5-2.cdninstagram.com/v/t51.2885-15/317212210_2489294674561656_2044875262707325956_n.jpg?stp=dst-jpg_e35_s150x150&_nc_ht=scontent-ord5-2.cdninstagram.com&_nc_cat=100&_nc_ohc=614pVX8btm4AX-qzL-a&edm=ABZsPhsBAAAA&ccb=7-5&ig_cache_key=Mjk4MjIxMTkxNTAzNzA2MDgyNw%3D%3D.2-ccb7-5&oh=00_AfCL4N2xJJkcy-uJiRZs8MtKp72SRu1RMNG21aFZZLtyFg&oe=638B8AF0&_nc_sid=4efc9f",
                                "width": 150
                            }
                        ]
                    },
                    "media_type": 1,
                    "original_height": 1440,
                    "original_width": 1440,
                    "pk": 2982211915037060827,
                    "sharing_friction_info": {
                        "bloks_app_url": null,
                        "sharing_friction_payload": null,
                        "should_have_sharing_friction": false
                    }
                },
                {
                    "carousel_parent_id": "2982211919181011201_44313177289",
                    "commerciality_status": "not_commercial",
                    "id": "2982211915062372208_44313177289",
                    "image_versions2": {
                        "candidates": [
                            {
                                "height": 1440,
                                "url": "https://scontent-ord5-2.cdninstagram.com/v/t51.2885-15/317511985_117667260989330_604345512014558075_n.jpg?stp=dst-jpg_e35&_nc_ht=scontent-ord5-2.cdninstagram.com&_nc_cat=102&_nc_ohc=N6jncQ-N5-cAX8blSft&edm=ABZsPhsBAAAA&ccb=7-5&ig_cache_key=Mjk4MjIxMTkxNTA2MjM3MjIwOA%3D%3D.2-ccb7-5&oh=00_AfDiiT38Z0GRrDG_0YkhHanUjbcIsXKtxzNOPapBBmyaEQ&oe=638BC5A3&_nc_sid=4efc9f",
                                "width": 1440
                            },
                            {
                                "height": 1080,
                                "url": "https://scontent-ord5-2.cdninstagram.com/v/t51.2885-15/317511985_117667260989330_604345512014558075_n.jpg?stp=dst-jpg_e35_s1080x1080&_nc_ht=scontent-ord5-2.cdninstagram.com&_nc_cat=102&_nc_ohc=N6jncQ-N5-cAX8blSft&edm=ABZsPhsBAAAA&ccb=7-5&ig_cache_key=Mjk4MjIxMTkxNTA2MjM3MjIwOA%3D%3D.2-ccb7-5&oh=00_AfBGNn9HnyWef769ZWdBqXPXl2TVmK_JvzmS9uo0_2gY7w&oe=638BC5A3&_nc_sid=4efc9f",
                                "width": 1080
                            },
                            {
                                "height": 720,
                                "url": "https://scontent-ord5-2.cdninstagram.com/v/t51.2885-15/317511985_117667260989330_604345512014558075_n.jpg?stp=dst-jpg_e35_s720x720&_nc_ht=scontent-ord5-2.cdninstagram.com&_nc_cat=102&_nc_ohc=N6jncQ-N5-cAX8blSft&edm=ABZsPhsBAAAA&ccb=7-5&ig_cache_key=Mjk4MjIxMTkxNTA2MjM3MjIwOA%3D%3D.2-ccb7-5&oh=00_AfAmnKsyFnr4JeuxQq7PWMOePJlkvE_WVE6IbD870s60Tw&oe=638BC5A3&_nc_sid=4efc9f",
                                "width": 720
                            },
                            {
                                "height": 640,
                                "url": "https://scontent-ord5-2.cdninstagram.com/v/t51.2885-15/317511985_117667260989330_604345512014558075_n.jpg?stp=dst-jpg_e35_s640x640_sh0.08&_nc_ht=scontent-ord5-2.cdninstagram.com&_nc_cat=102&_nc_ohc=N6jncQ-N5-cAX8blSft&edm=ABZsPhsBAAAA&ccb=7-5&ig_cache_key=Mjk4MjIxMTkxNTA2MjM3MjIwOA%3D%3D.2-ccb7-5&oh=00_AfAtZMDLRWFzETG_GkDAt5RldiedxRylVVShAPidC9mwDw&oe=638BC5A3&_nc_sid=4efc9f",
                                "width": 640
                            },
                            {
                                "height": 480,
                                "url": "https://scontent-ord5-2.cdninstagram.com/v/t51.2885-15/317511985_117667260989330_604345512014558075_n.jpg?stp=dst-jpg_e35_s480x480&_nc_ht=scontent-ord5-2.cdninstagram.com&_nc_cat=102&_nc_ohc=N6jncQ-N5-cAX8blSft&edm=ABZsPhsBAAAA&ccb=7-5&ig_cache_key=Mjk4MjIxMTkxNTA2MjM3MjIwOA%3D%3D.2-ccb7-5&oh=00_AfAvrG3fQfq_AyrfI_A6Tw0QPGRJXG4PLV7YHCm0XV0EnA&oe=638BC5A3&_nc_sid=4efc9f",
                                "width": 480
                            },
                            {
                                "height": 320,
                                "url": "https://scontent-ord5-2.cdninstagram.com/v/t51.2885-15/317511985_117667260989330_604345512014558075_n.jpg?stp=dst-jpg_e35_s320x320&_nc_ht=scontent-ord5-2.cdninstagram.com&_nc_cat=102&_nc_ohc=N6jncQ-N5-cAX8blSft&edm=ABZsPhsBAAAA&ccb=7-5&ig_cache_key=Mjk4MjIxMTkxNTA2MjM3MjIwOA%3D%3D.2-ccb7-5&oh=00_AfC6AwXsayBpLni7CjeWvqJfgw6bhm5OC-kdXLH99BcKcQ&oe=638BC5A3&_nc_sid=4efc9f",
                                "width": 320
                            },
                            {
                                "height": 240,
                                "url": "https://scontent-ord5-2.cdninstagram.com/v/t51.2885-15/317511985_117667260989330_604345512014558075_n.jpg?stp=dst-jpg_e35_s240x240&_nc_ht=scontent-ord5-2.cdninstagram.com&_nc_cat=102&_nc_ohc=N6jncQ-N5-cAX8blSft&edm=ABZsPhsBAAAA&ccb=7-5&ig_cache_key=Mjk4MjIxMTkxNTA2MjM3MjIwOA%3D%3D.2-ccb7-5&oh=00_AfBmZx72V8AmUcr_NmwjEfdVL4fb2akTQT_N2ePnzcaCMQ&oe=638BC5A3&_nc_sid=4efc9f",
                                "width": 240
                            },
                            {
                                "height": 1080,
                                "url": "https://scontent-ord5-2.cdninstagram.com/v/t51.2885-15/317511985_117667260989330_604345512014558075_n.jpg?stp=dst-jpg_e35_s1080x1080&_nc_ht=scontent-ord5-2.cdninstagram.com&_nc_cat=102&_nc_ohc=N6jncQ-N5-cAX8blSft&edm=ABZsPhsBAAAA&ccb=7-5&ig_cache_key=Mjk4MjIxMTkxNTA2MjM3MjIwOA%3D%3D.2-ccb7-5&oh=00_AfBGNn9HnyWef769ZWdBqXPXl2TVmK_JvzmS9uo0_2gY7w&oe=638BC5A3&_nc_sid=4efc9f",
                                "width": 1080
                            },
                            {
                                "height": 750,
                                "url": "https://scontent-ord5-2.cdninstagram.com/v/t51.2885-15/317511985_117667260989330_604345512014558075_n.jpg?stp=dst-jpg_e35_s750x750_sh0.08&_nc_ht=scontent-ord5-2.cdninstagram.com&_nc_cat=102&_nc_ohc=N6jncQ-N5-cAX8blSft&edm=ABZsPhsBAAAA&ccb=7-5&ig_cache_key=Mjk4MjIxMTkxNTA2MjM3MjIwOA%3D%3D.2-ccb7-5&oh=00_AfB0IR6BUaiKtpwmUKBLf_f8FjasGWNBxLJOn1BjJMn0KQ&oe=638BC5A3&_nc_sid=4efc9f",
                                "width": 750
                            },
                            {
                                "height": 640,
                                "url": "https://scontent-ord5-2.cdninstagram.com/v/t51.2885-15/317511985_117667260989330_604345512014558075_n.jpg?stp=dst-jpg_e35_s640x640_sh0.08&_nc_ht=scontent-ord5-2.cdninstagram.com&_nc_cat=102&_nc_ohc=N6jncQ-N5-cAX8blSft&edm=ABZsPhsBAAAA&ccb=7-5&ig_cache_key=Mjk4MjIxMTkxNTA2MjM3MjIwOA%3D%3D.2-ccb7-5&oh=00_AfAtZMDLRWFzETG_GkDAt5RldiedxRylVVShAPidC9mwDw&oe=638BC5A3&_nc_sid=4efc9f",
                                "width": 640
                            },
                            {
                                "height": 480,
                                "url": "https://scontent-ord5-2.cdninstagram.com/v/t51.2885-15/317511985_117667260989330_604345512014558075_n.jpg?stp=dst-jpg_e35_s480x480&_nc_ht=scontent-ord5-2.cdninstagram.com&_nc_cat=102&_nc_ohc=N6jncQ-N5-cAX8blSft&edm=ABZsPhsBAAAA&ccb=7-5&ig_cache_key=Mjk4MjIxMTkxNTA2MjM3MjIwOA%3D%3D.2-ccb7-5&oh=00_AfAvrG3fQfq_AyrfI_A6Tw0QPGRJXG4PLV7YHCm0XV0EnA&oe=638BC5A3&_nc_sid=4efc9f",
                                "width": 480
                            },
                            {
                                "height": 320,
                                "url": "https://scontent-ord5-2.cdninstagram.com/v/t51.2885-15/317511985_117667260989330_604345512014558075_n.jpg?stp=dst-jpg_e35_s320x320&_nc_ht=scontent-ord5-2.cdninstagram.com&_nc_cat=102&_nc_ohc=N6jncQ-N5-cAX8blSft&edm=ABZsPhsBAAAA&ccb=7-5&ig_cache_key=Mjk4MjIxMTkxNTA2MjM3MjIwOA%3D%3D.2-ccb7-5&oh=00_AfC6AwXsayBpLni7CjeWvqJfgw6bhm5OC-kdXLH99BcKcQ&oe=638BC5A3&_nc_sid=4efc9f",
                                "width": 320
                            },
                            {
                                "height": 240,
                                "url": "https://scontent-ord5-2.cdninstagram.com/v/t51.2885-15/317511985_117667260989330_604345512014558075_n.jpg?stp=dst-jpg_e35_s240x240&_nc_ht=scontent-ord5-2.cdninstagram.com&_nc_cat=102&_nc_ohc=N6jncQ-N5-cAX8blSft&edm=ABZsPhsBAAAA&ccb=7-5&ig_cache_key=Mjk4MjIxMTkxNTA2MjM3MjIwOA%3D%3D.2-ccb7-5&oh=00_AfBmZx72V8AmUcr_NmwjEfdVL4fb2akTQT_N2ePnzcaCMQ&oe=638BC5A3&_nc_sid=4efc9f",
                                "width": 240
                            },
                            {
                                "height": 150,
                                "url": "https://scontent-ord5-2.cdninstagram.com/v/t51.2885-15/317511985_117667260989330_604345512014558075_n.jpg?stp=dst-jpg_e35_s150x150&_nc_ht=scontent-ord5-2.cdninstagram.com&_nc_cat=102&_nc_ohc=N6jncQ-N5-cAX8blSft&edm=ABZsPhsBAAAA&ccb=7-5&ig_cache_key=Mjk4MjIxMTkxNTA2MjM3MjIwOA%3D%3D.2-ccb7-5&oh=00_AfAn5UQW4G_uHLmgDIJsS-fEsgdQd9wbMsecwBexGo5pRg&oe=638BC5A3&_nc_sid=4efc9f",
                                "width": 150
                            }
                        ]
                    },
                    "media_type": 1,
                    "original_height": 1440,
                    "original_width": 1440,
                    "pk": 2982211915062372208,
                    "sharing_friction_info": {
                        "bloks_app_url": null,
                        "sharing_friction_payload": null,
                        "should_have_sharing_friction": false
                    }
                }
            ],
            "carousel_media_count": 4,
            "client_cache_key": "Mjk4MjIxMTkxOTE4MTAxMTIwMQ==.2",
            "clips_tab_pinned_user_ids": [],
            "code": "Cli8fCnuFkB",
            "comment_count": 13,
            "comment_inform_treatment": {
                "action_type": null,
                "should_have_inform_treatment": false,
                "text": "",
                "url": null
            },
            "comment_likes_enabled": false,
            "comment_threading_enabled": true,
            "comments": [
                {
                    "bit_flags": 0,
                    "content_type": "comment",
                    "created_at": 1669732991,
                    "created_at_utc": 1669732991,
                    "did_report_as_spam": false,
                    "is_covered": false,
                    "is_ranked_comment": false,
                    "media_id": 2982211919181011201,
                    "parent_comment_id": 17928807731608446,
                    "pk": 17931629963562774,
                    "private_reply_status": 0,
                    "share_enabled": false,
                    "status": "Active",
                    "text": "@ronielllerena \ud83d\ude4f\ud83d\ude4c\ud83d\ude0a\ud83d\ude4c\ud83d\ude4f",
                    "type": 2,
                    "user": {
                        "full_name": "Kodiak Arcade",
                        "is_private": false,
                        "is_verified": false,
                        "pk": 44313177289,
                        "pk_id": "44313177289",
                        "profile_pic_id": "2627784529182207002_44313177289",
                        "profile_pic_url": "https://scontent-ord5-2.cdninstagram.com/v/t51.2885-19/225474036_1484149105253177_1786625856564391067_n.jpg?stp=dst-jpg_s150x150&_nc_ht=scontent-ord5-2.cdninstagram.com&_nc_cat=105&_nc_ohc=pvnPxLs2uHoAX9UNyDu&edm=ABZsPhsBAAAA&ccb=7-5&oh=00_AfDSnFt8AoLdwKy99XnzAVI6F0K9nwDvoB7zagtX-13nLQ&oe=638A4924&_nc_sid=4efc9f",
                        "username": "kodiakarcade"
                    },
                    "user_id": 44313177289
                },
                {
                    "bit_flags": 0,
                    "content_type": "comment",
                    "created_at": 1669734056,
                    "created_at_utc": 1669734056,
                    "did_report_as_spam": false,
                    "is_covered": false,
                    "is_ranked_comment": false,
                    "media_id": 2982211919181011201,
                    "pk": 17944330433422331,
                    "private_reply_status": 0,
                    "share_enabled": false,
                    "status": "Active",
                    "text": "Wow. Just wow.",
                    "type": 0,
                    "user": {
                        "full_name": "Corey Hunter",
                        "is_private": false,
                        "is_verified": false,
                        "pk": 29582738793,
                        "pk_id": "29582738793",
                        "profile_pic_id": "2801007387710422756_29582738793",
                        "profile_pic_url": "https://scontent-ord5-2.cdninstagram.com/v/t51.2885-19/277150885_1843437289378674_1786226858260743210_n.jpg?stp=dst-jpg_s150x150&_nc_ht=scontent-ord5-2.cdninstagram.com&_nc_cat=106&_nc_ohc=PKkYZdXdVg0AX-WPZTz&edm=ABZsPhsBAAAA&ccb=7-5&oh=00_AfBPrnKnx8HtuULTWSCxth_goqh7IDOlXVNFgG8ZLn3tVg&oe=638A49C2&_nc_sid=4efc9f",
                        "username": "coreyhuntermusic"
                    },
                    "user_id": 29582738793
                }
            ],
            "commerce_integrity_review_decision": null,
            "commerciality_status": "not_commercial",
            "deleted_reason": 0,
            "device_timestamp": 1669727363698370,
            "facepile_top_likers": [],
            "filter_type": 0,
            "has_delayed_metadata": false,
            "has_liked": false,
            "has_more_comments": true,
            "has_shared_to_fb": 3,
            "hide_view_all_comment_entrypoint": false,
            "id": "2982211919181011201_44313177289",
            "integrity_review_decision": "pending",
            "is_artist_pick": false,
            "is_in_profile_grid": false,
            "is_organic_product_tagging_eligible": false,
            "is_paid_partnership": false,
            "is_unified_video": false,
            "is_visual_reply_commenter_notice_enabled": true,
            "like_and_view_counts_disabled": false,
            "like_count": 309,
            "max_num_visible_preview_comments": 2,
            "media_type": 8,
            "music_metadata": {
                "audio_type": null,
                "music_canonical_id": "0",
                "music_info": null,
                "original_sound_info": null,
                "pinned_media_ids": null
            },
            "next_max_id": 17944330433422331,
            "organic_tracking_token": "eyJ2ZXJzaW9uIjo1LCJwYXlsb2FkIjp7ImlzX2FuYWx5dGljc190cmFja2VkIjp0cnVlLCJ1dWlkIjoiMmJlZDM3YmJjNDQxNDc4NGFjZjdiZmFlZjkxMGQ2ZjIyOTgyMjExOTE5MTgxMDExMjAxIiwic2VydmVyX3Rva2VuIjoiMTY2OTczNDk2Mjk2NnwyOTgyMjExOTE5MTgxMDExMjAxfDE5MTI2NzkwMTl8YThhNzRhMDhlYThjMzlhYjBhZmFmMzRjNWEzZTg5MDllM2QyMzVmYjllYjU1YTA1OTBlYzBhYzczMmFhZjViMiJ9LCJzaWduYXR1cmUiOiIifQ==",
            "original_media_has_visual_reply_media": false,
            "photo_of_you": false,
            "pk": 2982211919181011201,
            "preview_comments": [
                {
                    "bit_flags": 0,
                    "content_type": "comment",
                    "created_at": 1669732991,
                    "created_at_utc": 1669732991,
                    "did_report_as_spam": false,
                    "is_covered": false,
                    "is_ranked_comment": false,
                    "media_id": 2982211919181011201,
                    "parent_comment_id": 17928807731608446,
                    "pk": 17931629963562774,
                    "private_reply_status": 0,
                    "share_enabled": false,
                    "status": "Active",
                    "text": "@ronielllerena \ud83d\ude4f\ud83d\ude4c\ud83d\ude0a\ud83d\ude4c\ud83d\ude4f",
                    "type": 2,
                    "user": {
                        "full_name": "Kodiak Arcade",
                        "is_private": false,
                        "is_verified": false,
                        "pk": 44313177289,
                        "pk_id": "44313177289",
                        "profile_pic_id": "2627784529182207002_44313177289",
                        "profile_pic_url": "https://scontent-ord5-2.cdninstagram.com/v/t51.2885-19/225474036_1484149105253177_1786625856564391067_n.jpg?stp=dst-jpg_s150x150&_nc_ht=scontent-ord5-2.cdninstagram.com&_nc_cat=105&_nc_ohc=pvnPxLs2uHoAX9UNyDu&edm=ABZsPhsBAAAA&ccb=7-5&oh=00_AfDSnFt8AoLdwKy99XnzAVI6F0K9nwDvoB7zagtX-13nLQ&oe=638A4924&_nc_sid=4efc9f",
                        "username": "kodiakarcade"
                    },
                    "user_id": 44313177289
                },
                {
                    "bit_flags": 0,
                    "content_type": "comment",
                    "created_at": 1669734056,
                    "created_at_utc": 1669734056,
                    "did_report_as_spam": false,
                    "is_covered": false,
                    "is_ranked_comment": false,
                    "media_id": 2982211919181011201,
                    "pk": 17944330433422331,
                    "private_reply_status": 0,
                    "share_enabled": false,
                    "status": "Active",
                    "text": "Wow. Just wow.",
                    "type": 0,
                    "user": {
                        "full_name": "Corey Hunter",
                        "is_private": false,
                        "is_verified": false,
                        "pk": 29582738793,
                        "pk_id": "29582738793",
                        "profile_pic_id": "2801007387710422756_29582738793",
                        "profile_pic_url": "https://scontent-ord5-2.cdninstagram.com/v/t51.2885-19/277150885_1843437289378674_1786226858260743210_n.jpg?stp=dst-jpg_s150x150&_nc_ht=scontent-ord5-2.cdninstagram.com&_nc_cat=106&_nc_ohc=PKkYZdXdVg0AX-WPZTz&edm=ABZsPhsBAAAA&ccb=7-5&oh=00_AfBPrnKnx8HtuULTWSCxth_goqh7IDOlXVNFgG8ZLn3tVg&oe=638A49C2&_nc_sid=4efc9f",
                        "username": "coreyhuntermusic"
                    },
                    "user_id": 29582738793
                }
            ],
            "product_type": "carousel_container",
            "profile_grid_control_enabled": false,
            "sharing_friction_info": {
                "bloks_app_url": null,
                "sharing_friction_payload": null,
                "should_have_sharing_friction": false
            },
            "should_request_ads": false,
            "taken_at": 1669727385,
            "top_likers": [],
            "user": {
                "account_badges": [],
                "fan_club_info": {
                    "fan_club_id": null,
                    "fan_club_name": null,
                    "fan_consideration_page_revamp_eligiblity": null,
                    "is_fan_club_gifting_eligible": null,
                    "is_fan_club_referral_eligible": null
                },
                "friendship_status": {
                    "following": false,
                    "is_bestie": false,
                    "is_feed_favorite": false,
                    "is_restricted": false,
                    "outgoing_request": false
                },
                "full_name": "Kodiak Arcade",
                "has_anonymous_profile_picture": false,
                "has_highlight_reels": false,
                "is_favorite": false,
                "is_private": false,
                "is_unpublished": false,
                "pk": 44313177289,
                "pk_id": "44313177289",
                "profile_pic_id": "2627784529182207002_44313177289",
                "profile_pic_url": "https://scontent-ord5-2.cdninstagram.com/v/t51.2885-19/225474036_1484149105253177_1786625856564391067_n.jpg?stp=dst-jpg_s150x150&_nc_ht=scontent-ord5-2.cdninstagram.com&_nc_cat=105&_nc_ohc=pvnPxLs2uHoAX9UNyDu&edm=ABZsPhsBAAAA&ccb=7-5&oh=00_AfDSnFt8AoLdwKy99XnzAVI6F0K9nwDvoB7zagtX-13nLQ&oe=638A4924&_nc_sid=4efc9f",
                "transparency_product_enabled": false,
                "username": "kodiakarcade"
            }
        },
        "is_video": false,
        "owner": {
            "full_name": "Kodiak Arcade",
            "id": 44313177289,
            "iphone_struct": {
                "account_badges": [],
                "fan_club_info": {
                    "fan_club_id": null,
                    "fan_club_name": null,
                    "fan_consideration_page_revamp_eligiblity": null,
                    "is_fan_club_gifting_eligible": null,
                    "is_fan_club_referral_eligible": null
                },
                "friendship_status": {
                    "following": false,
                    "is_bestie": false,
                    "is_feed_favorite": false,
                    "is_restricted": false,
                    "outgoing_request": false
                },
                "full_name": "Kodiak Arcade",
                "has_anonymous_profile_picture": false,
                "has_highlight_reels": false,
                "is_favorite": false,
                "is_private": false,
                "is_unpublished": false,
                "pk": 44313177289,
                "pk_id": "44313177289",
                "profile_pic_id": "2627784529182207002_44313177289",
                "profile_pic_url": "https://scontent-ord5-2.cdninstagram.com/v/t51.2885-19/225474036_1484149105253177_1786625856564391067_n.jpg?stp=dst-jpg_s150x150&_nc_ht=scontent-ord5-2.cdninstagram.com&_nc_cat=105&_nc_ohc=pvnPxLs2uHoAX9UNyDu&edm=ABZsPhsBAAAA&ccb=7-5&oh=00_AfDSnFt8AoLdwKy99XnzAVI6F0K9nwDvoB7zagtX-13nLQ&oe=638A4924&_nc_sid=4efc9f",
                "transparency_product_enabled": false,
                "username": "kodiakarcade"
            },
            "is_private": false,
            "profile_pic_url_hd": "https://scontent-ord5-2.cdninstagram.com/v/t51.2885-19/225474036_1484149105253177_1786625856564391067_n.jpg?stp=dst-jpg_s150x150&_nc_ht=scontent-ord5-2.cdninstagram.com&_nc_cat=105&_nc_ohc=pvnPxLs2uHoAX9UNyDu&edm=ABZsPhsBAAAA&ccb=7-5&oh=00_AfDSnFt8AoLdwKy99XnzAVI6F0K9nwDvoB7zagtX-13nLQ&oe=638A4924&_nc_sid=4efc9f",
            "username": "kodiakarcade"
        },
        "shortcode": "Cli8fCnuFkB",
        "title": null,
        "viewer_has_liked": false
    }
}